<?xml version="1.0" standalone="no"?>
<!DOCTYPE svg PUBLIC "-//W3C//DTD SVG 1.1//EN" "http://www.w3.org/Graphics/SVG/1.1/DTD/svg11.dtd" >
<svg xmlns="http://www.w3.org/2000/svg">
<metadata></metadata>
<defs>
<font id="proxima_nova_rgbold" horiz-adv-x="684" >
<font-face units-per-em="1000" ascent="790" descent="-210" />
<missing-glyph horiz-adv-x="257" />
<glyph unicode="&#xfb01;" horiz-adv-x="580" d="M219 0h-127v372h-80v111h80v20q0 82 45 128t117 46q54 0 92 -20l-26 -94q-14 10 -41 10q-28 0 -44 -18t-16 -52v-20h98v-111h-98v-372zM453 535q-31 0 -53 22.5t-22 53.5t22 53t53 22q32 0 54 -22t22 -53t-22.5 -53.5t-53.5 -22.5zM517 0h-127v483h127v-483z" />
<glyph unicode="&#xfb02;" horiz-adv-x="580" d="M219 0h-127v372h-80v111h80v20q0 82 45 128t117 46q54 0 92 -20l-26 -94q-14 10 -41 10q-28 0 -44 -18t-16 -52v-20h98v-111h-98v-372zM517 0h-127v667h127v-667z" />
<glyph unicode="&#xfb03;" horiz-adv-x="907" d="M219 0h-127v372h-80v111h80v20q0 81 44 127.5t118 46.5q86 0 126 -46l-48 -77q-21 19 -53 19q-28 0 -44 -18t-16 -52v-20h98v-111h-98v-372zM546 0h-127v372h-80v111h80v20q0 82 45 128t117 46q54 0 92 -20l-26 -94q-14 10 -41 10q-28 0 -44 -18t-16 -52v-20h98v-111h-98 v-372zM781 535q-31 0 -53 22.5t-22 53.5t22 53t53 22q32 0 54 -22t22 -53t-22.5 -53.5t-53.5 -22.5zM845 0h-127v483h127v-483z" />
<glyph unicode="&#xfb04;" horiz-adv-x="907" d="M219 0h-127v372h-80v111h80v20q0 81 44 127.5t118 46.5q86 0 126 -46l-48 -77q-21 19 -53 19q-28 0 -44 -18t-16 -52v-20h98v-111h-98v-372zM546 0h-127v372h-80v111h80v20q0 82 45 128t117 46q54 0 92 -20l-26 -94q-14 10 -41 10q-28 0 -44 -18t-16 -52v-20h98v-111h-98 v-372zM845 0h-127v667h127v-667z" />
<glyph horiz-adv-x="1000" />
<glyph horiz-adv-x="1000" />
<glyph unicode="&#xd;" horiz-adv-x="1000" />
<glyph unicode=" "  horiz-adv-x="257" />
<glyph unicode="&#x09;" horiz-adv-x="257" />
<glyph unicode="&#xa0;" horiz-adv-x="257" />
<glyph unicode="!" horiz-adv-x="255" d="M184 218h-112l-21 449h153zM128 -10q-33 0 -56.5 24t-23.5 56q0 33 23.5 57t56.5 24t57 -24t24 -57q0 -32 -24 -56t-57 -24z" />
<glyph unicode="&#x22;" horiz-adv-x="406" d="M141 375h-56q-41 214 -41 233q0 28 20 48.5t49 20.5q28 0 48.5 -20.5t20.5 -48.5zM322 375h-56q-41 214 -41 233q0 28 20.5 48.5t48.5 20.5t48.5 -20.5t20.5 -48.5z" />
<glyph unicode="#" horiz-adv-x="618" d="M339 0h-95l58 170h-95l-57 -170h-94l57 170h-96l26 81h98l54 165h-97l25 80h100l56 171h94l-56 -171h94l56 171h95l-58 -171h97l-23 -80h-101l-55 -165h101l-25 -81h-103zM328 251l55 165h-94l-54 -165h93z" />
<glyph unicode="$" horiz-adv-x="614" d="M267 -100v90q-145 12 -237 104l78 111q66 -69 159 -86v155q-46 11 -78 23.5t-66.5 34.5t-52.5 57.5t-18 84.5q0 78 58 134.5t157 66.5v93h94v-95q123 -14 204 -89l-79 -106q-51 47 -125 65v-138q47 -12 79.5 -24.5t68 -35t54 -58.5t18.5 -85q0 -86 -56.5 -143.5 t-163.5 -68.5v-90h-94zM436 188q0 23 -19 37t-56 26v-134q37 7 56 26.5t19 44.5zM198 485q0 -35 69 -57v121q-33 -4 -51 -21t-18 -43z" />
<glyph unicode="%" horiz-adv-x="758" d="M195 345q-75 0 -122 47t-47 118q0 72 47 119.5t122 47.5q76 0 123 -47.5t47 -119.5q0 -71 -47 -118t-123 -47zM205 0h-75l426 667h76zM562 -12q-75 0 -122 47t-47 118q0 72 47 120t122 48t122.5 -48t47.5 -120q0 -71 -47.5 -118t-122.5 -47zM195 423q35 0 57.5 24 t22.5 63q0 41 -22.5 65t-57.5 24q-34 0 -56.5 -24.5t-22.5 -64.5q0 -39 22.5 -63t56.5 -24zM562 66q35 0 57.5 23.5t22.5 63.5q0 41 -22.5 65t-57.5 24t-57 -24t-22 -65q0 -40 22 -63.5t57 -23.5z" />
<glyph unicode="&#x26;" horiz-adv-x="647" d="M638 0h-162q-21 20 -50 50q-82 -62 -182 -62q-96 0 -158 50t-62 143q0 69 38.5 114t105.5 79q-44 80 -44 143q0 68 53.5 114t136.5 46q74 0 124.5 -38t50.5 -103q0 -36 -13 -65t-39 -51t-49.5 -35.5t-61.5 -31.5q28 -38 57 -72q29 -36 57 -69q41 64 61 130l101 -47 q-44 -97 -93 -160q41 -45 129 -135zM262 88q49 0 96 34q-50 55 -74 85q-44 54 -67 88q-58 -41 -58 -102q0 -47 30 -76t73 -29zM250 514q0 -38 29 -90q49 23 74.5 47t25.5 58q0 26 -17 41t-42 15q-30 0 -50 -20t-20 -51z" />
<glyph unicode="'" horiz-adv-x="225" d="M141 375h-56q-41 214 -41 233q0 28 20 48.5t49 20.5q28 0 48.5 -20.5t20.5 -48.5z" />
<glyph unicode="(" horiz-adv-x="297" d="M279 -137l-79 -62q-73 81 -116 201t-43 241t43 241t116 201l79 -60q-52 -95 -76.5 -184t-24.5 -198t24.5 -198t76.5 -182z" />
<glyph unicode=")" horiz-adv-x="298" d="M18 -137l79 -62q73 82 116.5 201.5t43.5 240.5t-43.5 240.5t-116.5 201.5l-79 -60q52 -94 76.5 -183t24.5 -199q0 -109 -24.5 -198.5t-76.5 -181.5z" />
<glyph unicode="*" horiz-adv-x="351" d="M207 366h-63l5 110l-92 -59l-32 54l97 51l-97 50l32 54l92 -59l-5 110h63l-5 -110l92 59l32 -54l-97 -50l97 -51l-32 -54l-92 59z" />
<glyph unicode="+" horiz-adv-x="504" d="M475 298h-179v-203h-87v203h-180v79h180v196h87v-196h179v-79z" />
<glyph unicode="," horiz-adv-x="255" d="M215 49q0 -55 -27.5 -103.5t-75.5 -82.5l-55 45q25 13 48 40.5t29 53.5q-9 -3 -19 -3q-29 0 -48.5 20.5t-19.5 51.5q0 33 23.5 56.5t55.5 23.5q37 0 63 -27.5t26 -74.5z" />
<glyph unicode="-" horiz-adv-x="300" d="M270 188h-240v108h240v-108z" />
<glyph unicode="." horiz-adv-x="257" d="M128 -11q-33 0 -57 24t-24 57t24 57t57 24t57 -24t24 -57t-24 -57t-57 -24z" />
<glyph unicode="/" horiz-adv-x="329" d="M92 -20h-92l237 707h92z" />
<glyph unicode="0" horiz-adv-x="620" d="M310 -12q-91 0 -155.5 51.5t-92.5 127.5t-28 166t28 166t92.5 127t155.5 51t155.5 -51t92.5 -127t28 -166t-28 -166t-92.5 -127.5t-155.5 -51.5zM310 114q68 0 99.5 60t31.5 159q0 100 -31.5 159t-99.5 59t-99.5 -59.5t-31.5 -158.5t31.5 -159t99.5 -60z" />
<glyph unicode="1" horiz-adv-x="411" d="M345 0h-142v484l-111 -113l-81 85l210 211h124v-667z" />
<glyph unicode="2" horiz-adv-x="600" d="M549 0h-502v112q215 159 284 226t69 126q0 42 -31.5 64.5t-76.5 22.5q-105 0 -179 -77l-81 94q47 54 115.5 81.5t141.5 27.5q110 0 182.5 -58t72.5 -155q0 -82 -64.5 -160.5t-202.5 -178.5h272v-125z" />
<glyph unicode="3" horiz-adv-x="587" d="M283 -12q-87 0 -155.5 29.5t-107.5 77.5l75 95q33 -35 83 -55.5t100 -20.5q60 0 93 23.5t33 61.5q0 40 -32 58.5t-102 18.5q-63 0 -83 -2v128q12 -1 83 -1q124 0 124 71q0 38 -35 58.5t-89 20.5q-98 0 -170 -69l-71 89q94 106 255 106q117 0 184.5 -49t67.5 -132 q0 -60 -43 -100.5t-103 -51.5q59 -6 107.5 -48.5t48.5 -111.5q0 -87 -72 -141.5t-191 -54.5z" />
<glyph unicode="4" horiz-adv-x="597" d="M486 0h-142v138h-319v112l265 417h196v-404h86v-125h-86v-138zM344 263v278l-180 -278h180z" />
<glyph unicode="5" horiz-adv-x="608" d="M306 -12q-165 0 -257 100l79 99q70 -73 177 -73q57 0 90.5 28.5t33.5 70.5q0 45 -32 72t-88 27q-83 0 -140 -54l-99 27v382h458v-125h-316v-163q56 56 147 56q89 0 151.5 -59t62.5 -157q0 -105 -73 -168t-194 -63z" />
<glyph unicode="6" horiz-adv-x="608" d="M322 -12q-144 0 -216 96t-72 248q0 155 83 250t228 95q118 0 197 -69l-64 -109q-55 52 -133 52q-73 0 -120 -54.5t-47 -134.5q0 -9 1 -14q25 36 72 61t99 25q95 0 161.5 -57.5t66.5 -159.5q0 -99 -71.5 -164t-184.5 -65zM314 114q54 0 86.5 30t32.5 68q0 49 -35.5 74.5 t-87.5 25.5q-81 0 -131 -63q5 -56 38 -95.5t97 -39.5z" />
<glyph unicode="7" horiz-adv-x="545" d="M277 0h-156l239 542h-336v125h501v-99z" />
<glyph unicode="8" horiz-adv-x="606" d="M303 -12q-112 0 -190 48.5t-78 136.5q0 58 40 103.5t103 67.5q-132 46 -132 157q0 60 39.5 101t95.5 58t122 17t122 -17t95.5 -58t39.5 -101q0 -110 -132 -157q63 -22 103 -67.5t40 -103.5q0 -88 -78 -136.5t-190 -48.5zM303 400q42 7 77 26t35 51q0 35 -31 54.5 t-81 19.5q-51 0 -82 -19.5t-31 -54.5q0 -32 35 -51t78 -26zM303 114q52 0 88 22t36 57q0 36 -40.5 58.5t-83.5 28.5q-25 -4 -51 -13t-49.5 -29t-23.5 -45q0 -35 35.5 -57t88.5 -22z" />
<glyph unicode="9" horiz-adv-x="608" d="M263 -11q-119 0 -196 69l63 109q55 -52 133 -52t122.5 55.5t44.5 132.5v15q-26 -36 -73 -61t-99 -25q-95 0 -161 57.5t-66 159.5q0 99 71 164t184 65q144 0 216 -96t72 -248q0 -155 -83 -250t-228 -95zM298 354q81 0 131 63q-5 56 -38 95.5t-97 39.5q-54 0 -86.5 -30 t-32.5 -68q0 -49 36 -74.5t87 -25.5z" />
<glyph unicode=":" horiz-adv-x="246" d="M128 328q-33 0 -57 24t-24 57t24 57t57 24t57 -24t24 -57t-24 -57t-57 -24zM128 -11q-33 0 -57 24t-24 57t24 57t57 24t57 -24t24 -57t-24 -57t-57 -24z" />
<glyph unicode=";" horiz-adv-x="255" d="M128 328q-33 0 -57 24.5t-24 57.5t24 56.5t57 23.5t57 -23.5t24 -56.5t-24 -57.5t-57 -24.5zM215 52q0 -54 -27.5 -102.5t-75.5 -82.5l-55 45q25 13 48 40.5t29 53.5q-9 -3 -19 -3q-29 0 -48.5 20.5t-19.5 51.5q0 33 23.5 56.5t55.5 23.5q37 0 63 -27.5t26 -75.5z" />
<glyph unicode="&#x3c;" horiz-adv-x="504" d="M475 90l-446 199v92l446 199v-94l-355 -152l355 -150v-94z" />
<glyph unicode="=" horiz-adv-x="504" d="M475 389h-446v79h446v-79zM475 201h-446v78h446v-78z" />
<glyph unicode="&#x3e;" horiz-adv-x="504" d="M475 289l-446 -199v94l355 150l-355 152v94l446 -199v-92z" />
<glyph unicode="?" horiz-adv-x="456" d="M178 204q-33 36 -33 89q0 40 23 71.5t50.5 47.5t50.5 38t23 44q0 25 -20 41t-59 16q-72 0 -123 -62l-81 91q82 97 219 97q96 0 152 -43.5t56 -114.5q0 -40 -17 -72t-41.5 -52t-49.5 -37t-42 -37t-17 -43q0 -26 19 -42zM226 -11q-33 0 -57 24t-24 57t24 57t57 24t57 -24 t24 -57t-24 -57t-57 -24z" />
<glyph unicode="@" horiz-adv-x="783" d="M352 -70q-136 0 -226.5 90.5t-90.5 223.5q0 104 55.5 195.5t147.5 145t194 53.5q141 0 228 -88.5t87 -217.5q0 -116 -62 -181.5t-136 -65.5q-42 0 -66.5 21.5t-30.5 52.5l-1 6q-26 -37 -65 -58.5t-79 -21.5q-71 0 -113 47t-42 121q0 99 69 172t157 73t125 -67l11 53h113 l-51 -244q-3 -15 -3 -24q0 -45 37 -45q35 0 64.5 41.5t29.5 119.5q0 119 -75 193t-201 74q-141 0 -247 -106t-106 -247q0 -118 80 -198t202 -80q95 0 182 55l21 -30q-98 -63 -208 -63zM351 175q64 0 111 66l25 116q-9 20 -29.5 35.5t-51.5 15.5q-58 0 -97.5 -44t-39.5 -101 q0 -39 22 -63.5t60 -24.5z" />
<glyph unicode="A" d="M688 0h-161l-42 113h-286l-42 -113h-161l257 667h178zM446 238l-104 287l-104 -287h208z" />
<glyph unicode="B" horiz-adv-x="663" d="M428 0h-362v667h351q91 0 141.5 -49.5t50.5 -120.5q0 -60 -33 -101.5t-82 -51.5q54 -8 91 -54.5t37 -108.5q0 -79 -50.5 -130t-143.5 -51zM386 402q36 0 57 19t21 51q0 31 -21 50.5t-57 19.5h-178v-140h178zM392 125q40 0 62.5 20t22.5 56q0 33 -22.5 54.5t-62.5 21.5 h-184v-152h184z" />
<glyph unicode="C" horiz-adv-x="687" d="M390 -12q-153 0 -254.5 96.5t-101.5 248.5q0 153 101.5 249t254.5 96q187 0 278 -163l-122 -60q-22 42 -64.5 69.5t-91.5 27.5q-91 0 -150.5 -62t-59.5 -157t59.5 -157t150.5 -62q49 0 91.5 27.5t64.5 69.5l122 -59q-93 -164 -278 -164z" />
<glyph unicode="D" horiz-adv-x="718" d="M330 0h-264v667h263q157 0 255.5 -92t98.5 -241q0 -151 -98 -242.5t-255 -91.5zM329 125q96 0 152.5 60t56.5 149q0 91 -54.5 149.5t-153.5 58.5h-122v-417h121z" />
<glyph unicode="E" horiz-adv-x="583" d="M538 0h-472v667h472v-125h-330v-140h323v-125h-323v-152h330v-125z" />
<glyph unicode="F" horiz-adv-x="571" d="M208 0h-142v667h472v-125h-330v-140h323v-125h-323v-277z" />
<glyph unicode="G" horiz-adv-x="720" d="M390 -12q-151 0 -253.5 95.5t-102.5 249.5q0 155 102.5 250t253.5 95q181 0 275 -149l-117 -64q-25 38 -66.5 62.5t-91.5 24.5q-91 0 -150.5 -62t-59.5 -157t59.5 -157t150.5 -62q41 0 80 15t61 36v80h-176v124h318v-256q-112 -125 -283 -125z" />
<glyph unicode="H" horiz-adv-x="731" d="M666 0h-143v281h-315v-281h-142v667h142v-262h315v262h143v-667z" />
<glyph unicode="I" horiz-adv-x="274" d="M208 0h-142v667h142v-667z" />
<glyph unicode="J" horiz-adv-x="486" d="M186 -12q-113 0 -180 66l62 108q50 -48 106 -48q47 0 75.5 29.5t28.5 77.5v446h143v-448q0 -114 -64.5 -172.5t-170.5 -58.5z" />
<glyph unicode="K" horiz-adv-x="636" d="M637 0h-175l-202 268l-52 -63v-205h-142v667h142v-297l236 297h175l-265 -313z" />
<glyph unicode="L" horiz-adv-x="515" d="M485 0h-425v667h143v-542h282v-125z" />
<glyph unicode="M" horiz-adv-x="855" d="M789 0h-143v481l-188 -481h-62l-188 481v-481h-142v667h199l162 -417l162 417h200v-667z" />
<glyph unicode="N" horiz-adv-x="729" d="M663 0h-137l-318 435v-435h-142v667h146l309 -419v419h142v-667z" />
<glyph unicode="O" horiz-adv-x="765" d="M383 -12q-152 0 -250.5 97t-98.5 248t98.5 248t250.5 97q151 0 249.5 -97.5t98.5 -247.5t-98.5 -247.5t-249.5 -97.5zM383 114q91 0 146.5 62t55.5 157t-55.5 157t-146.5 62q-92 0 -147.5 -62t-55.5 -157t56 -157t147 -62z" />
<glyph unicode="P" horiz-adv-x="625" d="M208 0h-142v667h312q105 0 164.5 -61.5t59.5 -153.5q0 -91 -60 -152.5t-164 -61.5h-170v-238zM358 363q43 0 71 24.5t28 64.5q0 41 -28 65.5t-71 24.5h-150v-179h150z" />
<glyph unicode="Q" horiz-adv-x="765" d="M383 -12q-152 0 -250.5 97t-98.5 248t98.5 248t250.5 97q151 0 249.5 -97.5t98.5 -247.5q0 -139 -87 -236l49 -57l-99 -81l-54 62q-72 -33 -157 -33zM383 114q36 0 69 11l-73 86l99 81l73 -86q34 54 34 127q0 95 -55.5 157t-146.5 62q-92 0 -147.5 -62t-55.5 -157 t56 -157t147 -62z" />
<glyph unicode="R" horiz-adv-x="643" d="M607 0h-164l-131 237h-104v-237h-142v667h312q103 0 164 -60t61 -155q0 -82 -43.5 -133t-103.5 -65zM358 362q43 0 71 24.5t28 66.5q0 40 -28 64.5t-71 24.5h-150v-180h150z" />
<glyph unicode="S" horiz-adv-x="600" d="M304 -12q-178 0 -284 106l78 111q87 -91 212 -91q56 0 86 21.5t30 52.5q0 27 -28.5 44.5t-71 25.5t-92.5 22.5t-92.5 33.5t-71 60t-28.5 100q0 86 69 144.5t184 58.5q159 0 260 -93l-79 -106q-79 73 -194 73q-44 0 -69 -18t-25 -48q0 -24 28.5 -40t71 -24.5t92 -23.5 t92 -34.5t71 -61t28.5 -99.5q0 -96 -68.5 -155t-198.5 -59z" />
<glyph unicode="T" horiz-adv-x="582" d="M363 0h-143v542h-195v125h532v-125h-194v-542z" />
<glyph unicode="U" horiz-adv-x="734" d="M367 -12q-148 0 -224.5 75.5t-76.5 203.5v400h144v-396q0 -72 41 -114.5t116 -42.5t115.5 42.5t40.5 114.5v396h145v-400q0 -128 -76.5 -203.5t-224.5 -75.5z" />
<glyph unicode="V" d="M431 0h-178l-257 667h161l185 -512l185 512h161z" />
<glyph unicode="W" horiz-adv-x="918" d="M727 0h-151l-117 458l-116 -458h-151l-191 667h159l117 -482l127 482h111l126 -482l117 482h159z" />
<glyph unicode="X" horiz-adv-x="668" d="M671 0h-170l-167 244l-168 -244h-169l242 342l-227 325h169l153 -228l151 228h171l-227 -324z" />
<glyph unicode="Y" horiz-adv-x="645" d="M394 0h-142v273l-256 394h162l165 -267l165 267h161l-255 -394v-273z" />
<glyph unicode="Z" horiz-adv-x="592" d="M550 0h-508v115l315 427h-315v125h501v-114l-315 -428h322v-125z" />
<glyph unicode="[" horiz-adv-x="280" d="M263 -190h-216v868h216v-85h-124v-698h124v-85z" />
<glyph unicode="\" horiz-adv-x="329" d="M237 -20l-237 707h92l237 -707h-92z" />
<glyph unicode="]" horiz-adv-x="280" d="M233 -190h-215v85h124v698h-124v85h215v-868z" />
<glyph unicode="^" horiz-adv-x="441" d="M422 333h-94l-108 247l-107 -247h-94l156 334h93z" />
<glyph unicode="_" horiz-adv-x="564" d="M567 -125h-570v85h570v-85z" />
<glyph unicode="`" horiz-adv-x="251" d="M251 556h-89l-162 144h117z" />
<glyph unicode="a" horiz-adv-x="543" d="M481 0h-128v51q-52 -63 -153 -63q-64 0 -115.5 42.5t-51.5 117.5q0 79 50 117.5t117 38.5q103 0 153 -59v61q0 37 -29 59t-77 22q-77 0 -139 -57l-50 89q85 76 211 76q93 0 152.5 -43t59.5 -140v-312zM251 74q71 0 102 42v60q-32 43 -102 43q-39 0 -65 -20t-26 -53 t26 -52.5t65 -19.5z" />
<glyph unicode="b" horiz-adv-x="586" d="M190 155q17 -23 48 -38.5t62 -15.5q55 0 88.5 39t33.5 102q0 62 -33.5 101t-88.5 39q-31 0 -62 -16t-48 -40v-171zM190 0h-127v667h127v-246q56 74 149 74q94 0 154 -68.5t60 -184.5q0 -118 -60 -186t-154 -68q-90 0 -149 74v-62z" />
<glyph unicode="c" horiz-adv-x="499" d="M288 -12q-111 0 -183.5 71.5t-72.5 182.5t72.5 182t183.5 71q128 0 191 -87l-83 -78q-35 52 -102 52q-58 0 -94.5 -38.5t-36.5 -101.5t36.5 -102t94.5 -39q65 0 102 53l83 -78q-64 -88 -191 -88z" />
<glyph unicode="d" horiz-adv-x="586" d="M523 0h-128v62q-59 -74 -149 -74q-94 0 -154 68t-60 186q0 116 60 184.5t154 68.5q93 0 149 -74v246h128v-667zM286 101q32 0 62.5 15.5t46.5 39.5v171q-16 24 -46.5 39.5t-62.5 15.5q-55 0 -89 -39t-34 -101q0 -63 34 -102t89 -39z" />
<glyph unicode="e" horiz-adv-x="553" d="M290 -12q-112 0 -185 70t-73 184q0 106 71 179.5t179 73.5t175 -73.5t67 -191.5v-30h-359q7 -47 43.5 -77.5t95.5 -30.5q33 0 69.5 12.5t58.5 34.5l57 -84q-73 -67 -199 -67zM402 288q-4 41 -33.5 72t-86.5 31q-55 0 -84.5 -30.5t-33.5 -72.5h238z" />
<glyph unicode="f" horiz-adv-x="327" d="M219 0h-127v372h-80v111h80v20q0 81 44 127.5t118 46.5q86 0 126 -46l-48 -77q-21 19 -53 19q-28 0 -44 -18t-16 -52v-20h98v-111h-98v-372z" />
<glyph unicode="g" horiz-adv-x="585" d="M261 -196q-125 0 -208 72l57 91q55 -59 151 -59q55 0 94.5 28.5t39.5 95.5v47q-59 -75 -150 -75q-94 0 -153.5 64t-59.5 181q0 116 59.5 181t153.5 65q92 0 150 -74v62h127v-451q0 -65 -23.5 -112t-63.5 -71t-82.5 -34.5t-91.5 -10.5zM286 116q30 0 61 16t48 39v157 q-17 23 -47.5 38.5t-61.5 15.5q-55 0 -89 -35.5t-34 -97.5t34 -97.5t89 -35.5z" />
<glyph unicode="h" horiz-adv-x="580" d="M517 0h-127v294q0 88 -89 88q-68 0 -110 -56v-326h-128v667h128v-246q64 74 169 74q78 0 117.5 -40t39.5 -112v-343z" />
<glyph unicode="i" horiz-adv-x="253" d="M126 535q-31 0 -53 22.5t-22 53.5t22 53t53 22q32 0 54 -22t22 -53t-22 -53.5t-54 -22.5zM190 0h-127v483h127v-483z" />
<glyph unicode="j" horiz-adv-x="253" d="M126 535q-31 0 -53 22.5t-22 53.5t22 53t53 22q32 0 54 -22t22 -53t-22 -53.5t-54 -22.5zM18 -196q-44 0 -68 7.5t-52 27.5l34 94q30 -25 65 -25q30 0 48 20t18 59v496h127v-496q0 -85 -43.5 -134t-128.5 -49z" />
<glyph unicode="k" horiz-adv-x="536" d="M535 0h-159l-128 186l-58 -62v-124h-127v667h127v-399l183 215h156l-191 -219z" />
<glyph unicode="l" horiz-adv-x="253" d="M190 0h-127v667h127v-667z" />
<glyph unicode="m" horiz-adv-x="853" d="M790 0h-128v305q0 77 -72 77q-31 0 -57.5 -17t-42.5 -39v-326h-128v305q0 77 -72 77q-59 0 -100 -56v-326h-127v483h127v-62q19 26 63.5 50t94.5 24q107 0 134 -87q23 35 68.5 61t97.5 26q68 0 105 -36.5t37 -109.5v-349z" />
<glyph unicode="n" horiz-adv-x="579" d="M517 0h-128v292q0 90 -89 90q-66 0 -110 -56v-326h-127v483h127v-62q26 31 70.5 52.5t98.5 21.5q78 0 118 -41t40 -113v-341z" />
<glyph unicode="o" horiz-adv-x="575" d="M287 -12q-116 0 -185.5 73.5t-69.5 180.5t69.5 180t185.5 73t186 -73t70 -180t-70 -180.5t-186 -73.5zM287 101q58 0 91 40.5t33 100.5q0 59 -33 99.5t-91 40.5q-57 0 -90 -40.5t-33 -99.5q0 -60 33 -100.5t90 -40.5z" />
<glyph unicode="p" horiz-adv-x="583" d="M339 -12q-90 0 -149 74v-246h-127v667h127v-61q57 73 149 73q95 0 154.5 -67.5t59.5 -185.5t-59.5 -186t-154.5 -68zM299 101q55 0 89 39t34 102q0 62 -34 101t-89 39q-31 0 -62 -15.5t-47 -39.5v-170q16 -23 47.5 -39.5t61.5 -16.5z" />
<glyph unicode="q" horiz-adv-x="583" d="M284 101q31 0 62 16t47 40v170q-16 24 -46.5 39.5t-62.5 15.5q-54 0 -88 -39t-34 -101q0 -63 34 -102t88 -39zM244 -12q-94 0 -153.5 68t-59.5 186t59 185.5t154 67.5q92 0 149 -73v61h128v-667h-128v246q-58 -74 -149 -74z" />
<glyph unicode="r" horiz-adv-x="360" d="M190 0h-127v483h127v-65q28 33 69.5 55t84.5 22v-124q-13 3 -35 3q-32 0 -68 -16t-51 -39v-319z" />
<glyph unicode="s" horiz-adv-x="477" d="M237 -12q-63 0 -120.5 20t-95.5 55l55 92q29 -27 76.5 -47t90.5 -20q81 0 81 51q0 18 -21 29.5t-53 16t-69 15t-69 24t-53 44t-21 75.5q0 64 53 108t145 44q111 0 194 -66l-51 -90q-23 24 -62 40t-81 16q-34 0 -55 -13t-21 -34q0 -19 29.5 -29.5t72 -18.5t84.5 -21.5 t71.5 -48t29.5 -88.5q0 -68 -56 -111t-154 -43z" />
<glyph unicode="t" horiz-adv-x="338" d="M225 -12q-136 0 -136 133v251h-80v111h80v132h127v-132h98v-111h-98v-217q0 -24 11.5 -39t32.5 -15q31 0 44 15l27 -97q-35 -31 -106 -31z" />
<glyph unicode="u" horiz-adv-x="579" d="M516 0h-127v61q-67 -73 -170 -73q-78 0 -117 40t-39 112v343h127v-293q0 -89 89 -89q67 0 110 55v327h127v-483z" />
<glyph unicode="v" horiz-adv-x="513" d="M325 0h-137l-194 483h136l126 -336l127 336h136z" />
<glyph unicode="w" horiz-adv-x="770" d="M623 0h-136l-102 329l-102 -329h-136l-147 483h132l90 -325l106 325h113l106 -325l90 325h133z" />
<glyph unicode="x" horiz-adv-x="504" d="M504 0h-142l-110 163l-111 -163h-141l172 248l-162 235h142l100 -148l99 148h142l-161 -235z" />
<glyph unicode="y" horiz-adv-x="513" d="M47 -188l18 113q18 -8 40 -8q51 0 67 35l18 42l-196 489h136l126 -336l127 336h136l-227 -562q-25 -64 -70 -89.5t-113 -27.5q-38 0 -62 8z" />
<glyph unicode="z" horiz-adv-x="479" d="M437 0h-395v95l218 277h-218v111h391v-91l-222 -281h226v-111z" />
<glyph unicode="{" horiz-adv-x="288" d="M271 -190h-60q-64 0 -109.5 43.5t-45.5 115.5v172q0 29 -13.5 48t-38.5 19v72q25 0 38.5 19t13.5 48v171q0 72 46 116t109 44h60v-85h-60q-27 0 -45 -20.5t-18 -53.5v-185q0 -70 -46 -90q46 -20 46 -90v-184q0 -33 18 -54t45 -21h60v-85z" />
<glyph unicode="|" horiz-adv-x="216" d="M151 -20h-85v707h85v-707z" />
<glyph unicode="}" horiz-adv-x="288" d="M17 -190v85h61q26 0 44.5 21t18.5 54v184q0 70 46 90q-46 20 -46 90v185q0 33 -18.5 53.5t-44.5 20.5h-61v85h61q63 0 109 -44.5t46 -115.5v-171q0 -29 13.5 -48t38.5 -19v-72q-25 0 -38.5 -19t-13.5 -48v-172q0 -71 -46 -115t-109 -44h-61z" />
<glyph unicode="~" horiz-adv-x="510" d="M398 667l86 -10q-4 -52 -12 -90t-23.5 -76t-44 -58.5t-68.5 -20.5q-36 0 -60.5 18t-35.5 44t-19 52t-19 44t-27 18q-48 0 -62 -176l-87 10q4 51 12 89.5t24 76t44.5 58t68.5 20.5q36 0 60.5 -18t35.5 -44t19 -52.5t19 -44.5t27 -18q48 0 62 178z" />
<glyph unicode="&#xa1;" horiz-adv-x="255" d="M51 -184l20 449h112l21 -449h-153zM46 414q0 32 24 56t57 24t56.5 -24t23.5 -56q0 -33 -23.5 -57t-56.5 -24t-57 24t-24 57z" />
<glyph unicode="&#xa2;" horiz-adv-x="499" d="M241 -100v92q-93 15 -151 83t-58 167q0 98 58 166t151 83v74h92v-73q95 -15 146 -84l-83 -78q-24 35 -63 47v-271q38 12 63 48l83 -78q-52 -71 -146 -84v-92h-92zM163 242q0 -47 21 -81.5t57 -49.5v261q-36 -15 -57 -49t-21 -81z" />
<glyph unicode="&#xa3;" horiz-adv-x="550" d="M23 269v81h68q-46 63 -46 120q0 91 74.5 149t168.5 58q170 0 232 -121l-113 -66q-12 32 -40 51.5t-62 19.5q-45 0 -75 -26t-30 -67q0 -15 2 -27.5t9.5 -27t10 -20t14.5 -24t13 -19.5h144v-81h-112q0 -3 0.5 -9.5t0.5 -9.5q0 -34 -18.5 -64t-46.5 -47q24 8 49 8 q30 0 68.5 -16.5t61.5 -16.5q60 0 86 36l57 -113q-50 -50 -148 -50q-47 0 -100.5 22t-80.5 22q-47 0 -116 -38l-48 97q109 52 109 125q0 25 -12 54h-120z" />
<glyph unicode="&#xa4;" horiz-adv-x="522" d="M486 137l-29 -29l-56 57q-60 -51 -140 -51t-140 51l-57 -57l-28 29l56 56q-50 63 -50 140q0 79 50 140l-56 57l28 28l57 -56q59 50 140 50q79 0 140 -50l56 56l29 -28l-56 -57q50 -61 50 -140q0 -77 -50 -140zM432 333q0 71 -50 121t-121 50t-121 -50t-50 -121t50 -121 t121 -50t121 50t50 121z" />
<glyph unicode="&#xa5;" horiz-adv-x="645" d="M394 0h-142v115h-228v78h228v80h-228v79h176l-204 315h162l165 -267l165 267h161l-204 -315h178v-79h-229v-80h229v-78h-229v-115z" />
<glyph unicode="&#xa6;" horiz-adv-x="216" d="M151 -20h-85v316h85v-316zM151 371h-85v316h85v-316z" />
<glyph unicode="&#xa7;" horiz-adv-x="484" d="M447 326q0 -86 -84 -128q84 -37 84 -122q0 -73 -58.5 -115t-151.5 -42q-127 0 -214 79l53 80q29 -29 72 -49.5t89 -20.5q40 0 63.5 14.5t23.5 42.5q0 26 -29.5 40.5t-71.5 23.5t-84 22.5t-71.5 46t-29.5 84.5q0 46 29 78.5t68 45.5q-97 37 -97 127q0 62 55 103t142 41 q126 0 194 -68l-50 -75q-54 54 -138 54q-38 0 -59.5 -14t-21.5 -39q0 -20 21.5 -32.5t53 -18t69 -16t69 -24t53 -44t21.5 -74.5zM321 302q0 53 -83 72q-78 -18 -78 -73q0 -22 16.5 -37.5t35.5 -22t51 -13.5q58 25 58 74z" />
<glyph unicode="&#xa8;" horiz-adv-x="295" d="M321 611q0 -29 -19.5 -48.5t-48.5 -19.5q-28 0 -48 20t-20 48t20 48t48 20q29 0 48.5 -19.5t19.5 -48.5zM110 611q0 -29 -20 -48.5t-48 -19.5t-48 19.5t-20 48.5t20 48.5t48 19.5t48 -19.5t20 -48.5z" />
<glyph unicode="&#xa9;" horiz-adv-x="778" d="M734 334q0 -143 -101 -244t-244 -101t-244 101.5t-101 243.5q0 143 101 244t244 101t244 -101t101 -244zM698 334q0 128 -91 218.5t-218 90.5t-218 -91t-91 -218t91 -218t218 -91t218 91t91 218zM512 222l31 -31q-58 -68 -149 -68q-87 0 -147.5 60.5t-60.5 151.5 q0 90 60.5 150t147.5 60q92 0 148 -66l-31 -31q-42 57 -117 57q-67 0 -114.5 -48t-47.5 -122q0 -73 47.5 -122.5t114.5 -49.5q74 0 118 59z" />
<glyph unicode="&#xaa;" horiz-adv-x="385" d="M335 326h-92v32q-36 -40 -102 -40q-44 0 -77 27.5t-33 76.5t33 75t77 26q67 0 102 -37v39q0 25 -19 39.5t-50 14.5q-53 0 -92 -41l-35 60q59 50 143 50q63 0 104 -29t41 -96v-197zM179 376q44 0 64 28v36q-21 27 -64 27q-24 0 -40.5 -12t-16.5 -33q0 -22 16.5 -34 t40.5 -12z" />
<glyph unicode="&#xab;" horiz-adv-x="527" d="M497 63h-117l-160 180l160 177h117l-160 -177zM308 63h-118l-160 180l160 177h118l-160 -177z" />
<glyph unicode="&#xac;" horiz-adv-x="515" d="M475 468v-267h-81v188h-365v79h446z" />
<glyph unicode="&#xad;" horiz-adv-x="300" d="M270 188h-240v108h240v-108z" />
<glyph unicode="&#xae;" horiz-adv-x="494" d="M459 465q0 -88 -62 -150t-150 -62t-150 62t-62 150t62 150t150 62q89 0 150.5 -61.5t61.5 -150.5zM427 465q0 76 -52.5 128t-127.5 52t-127.5 -52t-52.5 -128q0 -74 52.5 -127t127.5 -53t127.5 53t52.5 127zM347 343h-42l-63 96h-42v-96h-34v243h99q32 0 55.5 -20.5 t23.5 -53.5q0 -35 -22.5 -53.5t-39.5 -18.5zM309 512q0 19 -13.5 31.5t-30.5 12.5h-65v-86h65q17 0 30.5 12t13.5 30z" />
<glyph unicode="&#xaf;" horiz-adv-x="363" d="M363 591h-363v73h363v-73z" />
<glyph unicode="&#xb0;" horiz-adv-x="311" d="M291 541q0 -55 -40 -94.5t-96 -39.5t-95.5 39t-39.5 95t39.5 96t95.5 40t96 -40t40 -96zM222 541q0 28 -20 47.5t-47 19.5t-46 -19.5t-19 -47.5q0 -27 19 -46t46 -19t47 19t20 46z" />
<glyph unicode="&#xb1;" horiz-adv-x="504" d="M475 326h-179v-203h-87v203h-180v79h180v196h87v-196h179v-79zM475 0h-446v79h446v-79z" />
<glyph unicode="&#xb2;" horiz-adv-x="398" d="M361 421h-315v70q131 92 173.5 131.5t42.5 72.5q0 27 -19 41t-49 14q-32 0 -62.5 -14.5t-46.5 -34.5l-50 60q59 66 161 66q71 0 116 -33t45 -91q0 -48 -40.5 -94.5t-131.5 -110.5h176v-77z" />
<glyph unicode="&#xb3;" horiz-adv-x="398" d="M363 532q0 -52 -45.5 -85t-120.5 -33q-111 0 -165 63l48 63q45 -49 114 -49q35 0 54 12.5t19 34.5q0 49 -88 49q-38 0 -44 -1v76q8 -1 43 -1q83 0 83 45q0 22 -20.5 33t-52.5 11q-63 0 -106 -43l-45 56q59 64 161 64q75 0 116.5 -29.5t41.5 -79.5q0 -35 -26 -60t-63 -31 q36 -3 66 -28t30 -67z" />
<glyph unicode="&#xb4;" horiz-adv-x="251" d="M251 700l-162 -144h-89l134 144h117z" />
<glyph unicode="&#xb6;" horiz-adv-x="449" d="M403 -100h-63v705h-78v-705h-63v423q-71 0 -121.5 50.5t-50.5 121.5t50.5 121.5t121.5 50.5h204v-767z" />
<glyph unicode="&#xb7;" horiz-adv-x="257" d="M209 244q0 -32 -24 -56t-57 -24t-56.5 24t-23.5 56q0 33 23.5 57t56.5 24t57 -24t24 -57z" />
<glyph unicode="&#xb8;" horiz-adv-x="221" d="M110 -195q-72 0 -110 31l25 51q38 -29 82 -29q21 0 36 8.5t15 24.5q0 26 -29 26q-18 0 -32 -14l-46 26l30 82h63l-25 -62q14 10 35 10q28 0 47.5 -19.5t19.5 -50.5q0 -39 -32 -61.5t-79 -22.5z" />
<glyph unicode="&#xb9;" horiz-adv-x="286" d="M226 421h-97v277l-67 -69l-55 58l136 134h83v-400z" />
<glyph unicode="&#xba;" horiz-adv-x="405" d="M202 318q-77 0 -124.5 48t-47.5 117t47.5 117t124.5 48q78 0 125.5 -48t47.5 -117t-47.5 -117t-125.5 -48zM202 392q37 0 58 24.5t21 66.5q0 41 -21 65t-58 24q-36 0 -56.5 -24t-20.5 -65q0 -42 20.5 -66.5t56.5 -24.5z" />
<glyph unicode="&#xbb;" horiz-adv-x="527" d="M308 243l-160 -180h-118l160 180l-160 177h118zM497 243l-160 -180h-117l160 180l-160 177h117z" />
<glyph unicode="&#xbc;" horiz-adv-x="833" d="M641 667l-427 -667h-76l426 667h77zM809 86h-52v-86h-96v86h-196v65l158 249h134v-239h52v-75zM661 161v158l-101 -158h101zM226 267h-97v277l-67 -69l-55 58l136 134h83v-400z" />
<glyph unicode="&#xbd;" horiz-adv-x="867" d="M641 667l-427 -667h-76l426 667h77zM830 0h-315v70q131 92 173.5 131.5t42.5 72.5q0 27 -19 41t-49 14q-32 0 -62.5 -14.5t-46.5 -34.5l-50 60q59 66 161 66q71 0 116 -33t45 -91q0 -48 -40.5 -94.5t-131.5 -110.5h176v-77zM226 267h-97v277l-67 -69l-55 58l136 134h83 v-400z" />
<glyph unicode="&#xbe;" horiz-adv-x="921" d="M729 667l-427 -667h-76l426 667h77zM896 86h-52v-86h-96v86h-196v65l158 249h134v-239h52v-75zM748 161v158l-101 -158h101zM363 378q0 -52 -45.5 -85t-120.5 -33q-111 0 -165 63l48 63q45 -49 114 -49q35 0 54 12.5t19 34.5q0 49 -88 49q-38 0 -44 -1v76q8 -1 43 -1 q83 0 83 45q0 22 -20.5 33t-52.5 11q-63 0 -106 -43l-45 56q59 64 161 64q75 0 116.5 -29.5t41.5 -79.5q0 -35 -26 -60t-63 -31q36 -3 66 -28t30 -67z" />
<glyph unicode="&#xbf;" horiz-adv-x="398" d="M278 278q33 -36 33 -89q0 -40 -23 -71.5t-50.5 -47.5t-50.5 -38t-23 -44q0 -25 20 -41t59 -16q72 0 123 62l81 -91q-82 -97 -219 -97q-96 0 -152 43.5t-56 114.5q0 40 17 72t41.5 52t49.5 37t42 37t17 43q0 26 -19 42zM230 494q33 0 57 -24t24 -57t-24 -57t-57 -24 t-57 24t-24 57t24 57t57 24z" />
<glyph unicode="&#xc0;" d="M425 728h-89l-162 144h117zM688 0h-161l-42 113h-286l-42 -113h-161l257 667h178zM446 238l-104 287l-104 -287h208z" />
<glyph unicode="&#xc1;" d="M512 872l-162 -144h-89l134 144h117zM688 0h-161l-42 113h-286l-42 -113h-161l257 667h178zM446 238l-104 287l-104 -287h208z" />
<glyph unicode="&#xc2;" d="M494 728h-78l-73 89l-71 -89h-78l92 144h114zM688 0h-161l-42 113h-286l-42 -113h-161l257 667h178zM446 238l-104 287l-104 -287h208z" />
<glyph unicode="&#xc3;" d="M399 726q-29 0 -50 17t-36.5 34t-30.5 17q-36 0 -36 -62h-67q0 64 28 99t80 35q29 0 49.5 -17t36 -33.5t30.5 -16.5q36 0 36 61h67q0 -64 -27.5 -99t-79.5 -35zM688 0h-161l-42 113h-286l-42 -113h-161l257 667h178zM446 238l-104 287l-104 -287h208z" />
<glyph unicode="&#xc4;" d="M516 784q0 -28 -20 -48t-48 -20t-48 20t-20 48t20 48t48 20t48 -20t20 -48zM305 784q0 -28 -19.5 -48t-48.5 -20t-48.5 20t-19.5 48t19.5 48t48.5 20t48.5 -20t19.5 -48zM688 0h-161l-42 113h-286l-42 -113h-161l257 667h178zM446 238l-104 287l-104 -287h208z" />
<glyph unicode="&#xc5;" d="M343 693q-43 0 -74 31t-31 74t31 74t74 31t73.5 -30.5t30.5 -74.5q0 -43 -30.5 -74t-73.5 -31zM343 751q19 0 32.5 13.5t13.5 33.5t-13.5 33.5t-32.5 13.5t-33 -14t-14 -33t14 -33t33 -14zM688 0h-161l-42 113h-286l-42 -113h-161l257 667h178zM446 238l-104 287 l-104 -287h208z" />
<glyph unicode="&#xc6;" horiz-adv-x="968" d="M926 0h-472v113h-234l-66 -113h-163l406 667h529v-125h-329v-140h322v-125h-322v-152h329v-125zM454 238v287l-167 -287h167z" />
<glyph unicode="&#xc7;" horiz-adv-x="687" d="M384 -191q-72 0 -110 31l25 51q38 -29 82 -29q21 0 36 8.5t15 24.5q0 26 -29 26q-18 0 -32 -14l-46 26l21 58q-136 14 -224 108t-88 234q0 153 101.5 249t254.5 96q187 0 278 -163l-122 -60q-22 42 -64.5 69.5t-91.5 27.5q-91 0 -150.5 -62t-59.5 -157t59.5 -157 t150.5 -62q49 0 91.5 27.5t64.5 69.5l122 -59q-87 -155 -261 -163l-14 -36q14 10 35 10q28 0 47.5 -19.5t19.5 -50.5q0 -39 -32 -61.5t-79 -22.5z" />
<glyph unicode="&#xc8;" horiz-adv-x="583" d="M385 728h-89l-162 144h117zM538 0h-472v667h472v-125h-330v-140h323v-125h-323v-152h330v-125z" />
<glyph unicode="&#xc9;" horiz-adv-x="583" d="M471 872l-162 -144h-89l134 144h117zM538 0h-472v667h472v-125h-330v-140h323v-125h-323v-152h330v-125z" />
<glyph unicode="&#xca;" horiz-adv-x="583" d="M452 728h-78l-73 89l-71 -89h-78l92 144h114zM538 0h-472v667h472v-125h-330v-140h323v-125h-323v-152h330v-125z" />
<glyph unicode="&#xcb;" horiz-adv-x="583" d="M477 784q0 -28 -19.5 -48t-48.5 -20q-28 0 -48 20t-20 48t20 48t48 20q29 0 48.5 -20t19.5 -48zM266 784q0 -28 -20 -48t-48 -20t-48 20t-20 48t20 48t48 20t48 -20t20 -48zM538 0h-472v667h472v-125h-330v-140h323v-125h-323v-152h330v-125z" />
<glyph unicode="&#xcc;" horiz-adv-x="274" d="M219 728h-89l-162 144h117zM208 0h-142v667h142v-667z" />
<glyph unicode="&#xcd;" horiz-adv-x="274" d="M309 872l-162 -144h-89l134 144h117zM208 0h-142v667h142v-667z" />
<glyph unicode="&#xce;" horiz-adv-x="274" d="M287 728h-78l-73 89l-71 -89h-78l92 144h114zM208 0h-142v667h142v-667z" />
<glyph unicode="&#xcf;" horiz-adv-x="274" d="M311 784q0 -28 -19.5 -48t-48.5 -20q-28 0 -48 20t-20 48t20 48t48 20q29 0 48.5 -20t19.5 -48zM100 784q0 -28 -20 -48t-48 -20t-48 20t-20 48t20 48t48 20t48 -20t20 -48zM208 0h-142v667h142v-667z" />
<glyph unicode="&#xd0;" horiz-adv-x="742" d="M355 0h-264v277h-82v106h82v284h263q157 0 255.5 -92t98.5 -241q0 -151 -98 -242.5t-255 -91.5zM383 277h-150v-152h121q96 0 152.5 60t56.5 149q0 91 -54.5 149.5t-153.5 58.5h-122v-159h150v-106z" />
<glyph unicode="&#xd1;" horiz-adv-x="729" d="M420 726q-29 0 -50 17t-36.5 34t-30.5 17q-36 0 -36 -62h-67q0 64 28 99t80 35q29 0 49.5 -17t36 -33.5t30.5 -16.5q36 0 36 61h67q0 -64 -27.5 -99t-79.5 -35zM663 0h-137l-318 435v-435h-142v667h146l309 -419v419h142v-667z" />
<glyph unicode="&#xd2;" horiz-adv-x="765" d="M468 728h-89l-162 144h117zM383 -12q-152 0 -250.5 97t-98.5 248t98.5 248t250.5 97q151 0 249.5 -97.5t98.5 -247.5t-98.5 -247.5t-249.5 -97.5zM383 114q91 0 146.5 62t55.5 157t-55.5 157t-146.5 62q-92 0 -147.5 -62t-55.5 -157t56 -157t147 -62z" />
<glyph unicode="&#xd3;" horiz-adv-x="765" d="M553 872l-162 -144h-89l134 144h117zM383 -12q-152 0 -250.5 97t-98.5 248t98.5 248t250.5 97q151 0 249.5 -97.5t98.5 -247.5t-98.5 -247.5t-249.5 -97.5zM383 114q91 0 146.5 62t55.5 157t-55.5 157t-146.5 62q-92 0 -147.5 -62t-55.5 -157t56 -157t147 -62z" />
<glyph unicode="&#xd4;" horiz-adv-x="765" d="M535 728h-78l-73 89l-71 -89h-78l92 144h114zM383 -12q-152 0 -250.5 97t-98.5 248t98.5 248t250.5 97q151 0 249.5 -97.5t98.5 -247.5t-98.5 -247.5t-249.5 -97.5zM383 114q91 0 146.5 62t55.5 157t-55.5 157t-146.5 62q-92 0 -147.5 -62t-55.5 -157t56 -157t147 -62z " />
<glyph unicode="&#xd5;" horiz-adv-x="765" d="M440 726q-29 0 -50 17t-36.5 34t-30.5 17q-36 0 -36 -62h-67q0 64 28 99t80 35q29 0 49.5 -17t36 -33.5t30.5 -16.5q36 0 36 61h67q0 -64 -27.5 -99t-79.5 -35zM383 -12q-152 0 -250.5 97t-98.5 248t98.5 248t250.5 97q151 0 249.5 -97.5t98.5 -247.5t-98.5 -247.5 t-249.5 -97.5zM383 114q91 0 146.5 62t55.5 157t-55.5 157t-146.5 62q-92 0 -147.5 -62t-55.5 -157t56 -157t147 -62z" />
<glyph unicode="&#xd6;" horiz-adv-x="765" d="M557 784q0 -28 -19.5 -48t-48.5 -20q-28 0 -48 20t-20 48t20 48t48 20q29 0 48.5 -20t19.5 -48zM346 784q0 -28 -20 -48t-48 -20t-48 20t-20 48t20 48t48 20t48 -20t20 -48zM383 -12q-152 0 -250.5 97t-98.5 248t98.5 248t250.5 97q151 0 249.5 -97.5t98.5 -247.5 t-98.5 -247.5t-249.5 -97.5zM383 114q91 0 146.5 62t55.5 157t-55.5 157t-146.5 62q-92 0 -147.5 -62t-55.5 -157t56 -157t147 -62z" />
<glyph unicode="&#xd7;" horiz-adv-x="504" d="M394 137l-142 142l-140 -142l-57 56l142 141l-142 141l57 56l140 -142l142 142l55 -56l-141 -141l141 -141z" />
<glyph unicode="&#xd8;" horiz-adv-x="765" d="M383 -12q-105 0 -185 47l-26 -35h-103l64 84q-99 97 -99 249q0 151 98.5 248t250.5 97q93 0 172 -41l23 30h102l-58 -76q109 -99 109 -258q0 -150 -98.5 -247.5t-249.5 -97.5zM383 114q91 0 146.5 62t55.5 157q0 87 -47 147l-259 -339q46 -27 104 -27zM180 333 q0 -81 39 -136l255 334q-42 21 -91 21q-92 0 -147.5 -62t-55.5 -157z" />
<glyph unicode="&#xd9;" horiz-adv-x="734" d="M452 728h-89l-162 144h117zM367 -12q-148 0 -224.5 75.5t-76.5 203.5v400h144v-396q0 -72 41 -114.5t116 -42.5t115.5 42.5t40.5 114.5v396h145v-400q0 -128 -76.5 -203.5t-224.5 -75.5z" />
<glyph unicode="&#xda;" horiz-adv-x="734" d="M538 872l-162 -144h-89l134 144h117zM367 -12q-148 0 -224.5 75.5t-76.5 203.5v400h144v-396q0 -72 41 -114.5t116 -42.5t115.5 42.5t40.5 114.5v396h145v-400q0 -128 -76.5 -203.5t-224.5 -75.5z" />
<glyph unicode="&#xdb;" horiz-adv-x="734" d="M523 728h-78l-73 89l-71 -89h-78l92 144h114zM367 -12q-148 0 -224.5 75.5t-76.5 203.5v400h144v-396q0 -72 41 -114.5t116 -42.5t115.5 42.5t40.5 114.5v396h145v-400q0 -128 -76.5 -203.5t-224.5 -75.5z" />
<glyph unicode="&#xdc;" horiz-adv-x="734" d="M543 784q0 -28 -19.5 -48t-48.5 -20q-28 0 -48 20t-20 48t20 48t48 20q29 0 48.5 -20t19.5 -48zM332 784q0 -28 -20 -48t-48 -20t-48 20t-20 48t20 48t48 20t48 -20t20 -48zM367 -12q-148 0 -224.5 75.5t-76.5 203.5v400h144v-396q0 -72 41 -114.5t116 -42.5t115.5 42.5 t40.5 114.5v396h145v-400q0 -128 -76.5 -203.5t-224.5 -75.5z" />
<glyph unicode="&#xdd;" horiz-adv-x="645" d="M495 872l-162 -144h-89l134 144h117zM394 0h-142v273l-256 394h162l165 -267l165 267h161l-255 -394v-273z" />
<glyph unicode="&#xde;" horiz-adv-x="625" d="M208 0h-142v667h142v-108h170q105 0 164.5 -62t59.5 -154q0 -91 -60 -152t-164 -61h-170v-130zM358 255q43 0 71 24.5t28 64.5q0 41 -28 66t-71 25h-150v-180h150z" />
<glyph unicode="&#xdf;" horiz-adv-x="643" d="M627 145q0 -69 -54.5 -113t-146.5 -44q-67 0 -111 20.5t-85 58.5l53 88q21 -27 61 -46t82 -19q38 0 58.5 14.5t20.5 35.5t-27 33t-65.5 20.5t-76.5 22t-65 45.5t-27 83q0 29 12.5 53t31 39.5t36.5 28t30.5 25t12.5 24.5q0 24 -22.5 37t-54.5 13q-43 0 -71 -24t-28 -65 v-475h-128v475q0 86 62 144t167 58q83 0 144.5 -40t61.5 -104q0 -31 -13.5 -56t-33 -41t-39 -29t-33 -27.5t-13.5 -30.5q0 -19 27 -29t65 -18t76.5 -21t65.5 -47.5t27 -88.5z" />
<glyph unicode="&#xe0;" horiz-adv-x="543" d="M481 0h-128v51q-52 -63 -153 -63q-64 0 -115.5 42.5t-51.5 117.5q0 79 50 117.5t117 38.5q103 0 153 -59v61q0 37 -29 59t-77 22q-77 0 -139 -57l-50 89q85 76 211 76q93 0 152.5 -43t59.5 -140v-312zM251 74q71 0 102 42v60q-32 43 -102 43q-39 0 -65 -20t-26 -53 t26 -52.5t65 -19.5zM352 556h-89l-162 144h117z" />
<glyph unicode="&#xe1;" horiz-adv-x="543" d="M481 0h-128v51q-52 -63 -153 -63q-64 0 -115.5 42.5t-51.5 117.5q0 79 50 117.5t117 38.5q103 0 153 -59v61q0 37 -29 59t-77 22q-77 0 -139 -57l-50 89q85 76 211 76q93 0 152.5 -43t59.5 -140v-312zM251 74q71 0 102 42v60q-32 43 -102 43q-39 0 -65 -20t-26 -53 t26 -52.5t65 -19.5zM443 700l-162 -144h-89l134 144h117z" />
<glyph unicode="&#xe2;" horiz-adv-x="543" d="M481 0h-128v51q-52 -63 -153 -63q-64 0 -115.5 42.5t-51.5 117.5q0 79 50 117.5t117 38.5q103 0 153 -59v61q0 37 -29 59t-77 22q-77 0 -139 -57l-50 89q85 76 211 76q93 0 152.5 -43t59.5 -140v-312zM251 74q71 0 102 42v60q-32 43 -102 43q-39 0 -65 -20t-26 -53 t26 -52.5t65 -19.5zM423 556h-78l-73 89l-71 -89h-78l92 144h114z" />
<glyph unicode="&#xe3;" horiz-adv-x="543" d="M481 0h-128v51q-52 -63 -153 -63q-64 0 -115.5 42.5t-51.5 117.5q0 79 50 117.5t117 38.5q103 0 153 -59v61q0 37 -29 59t-77 22q-77 0 -139 -57l-50 89q85 76 211 76q93 0 152.5 -43t59.5 -140v-312zM251 74q71 0 102 42v60q-32 43 -102 43q-39 0 -65 -20t-26 -53 t26 -52.5t65 -19.5zM327 554q-29 0 -50 17t-36.5 34t-30.5 17q-36 0 -36 -62h-67q0 64 28 99t80 35q29 0 49.5 -17t36 -33.5t30.5 -16.5q36 0 36 61h67q0 -64 -27.5 -99t-79.5 -35z" />
<glyph unicode="&#xe4;" horiz-adv-x="543" d="M481 0h-128v51q-52 -63 -153 -63q-64 0 -115.5 42.5t-51.5 117.5q0 79 50 117.5t117 38.5q103 0 153 -59v61q0 37 -29 59t-77 22q-77 0 -139 -57l-50 89q85 76 211 76q93 0 152.5 -43t59.5 -140v-312zM251 74q71 0 102 42v60q-32 43 -102 43q-39 0 -65 -20t-26 -53 t26 -52.5t65 -19.5zM442 611q0 -29 -20 -48.5t-48 -19.5t-48 20t-20 48t20 48t48 20t48 -19.5t20 -48.5zM231 611q0 -29 -19.5 -48.5t-48.5 -19.5t-48.5 19.5t-19.5 48.5t19.5 48.5t48.5 19.5t48.5 -19.5t19.5 -48.5z" />
<glyph unicode="&#xe5;" horiz-adv-x="543" d="M481 0h-128v51q-52 -63 -153 -63q-64 0 -115.5 42.5t-51.5 117.5q0 79 50 117.5t117 38.5q103 0 153 -59v61q0 37 -29 59t-77 22q-77 0 -139 -57l-50 89q85 76 211 76q93 0 152.5 -43t59.5 -140v-312zM251 74q71 0 102 42v60q-32 43 -102 43q-39 0 -65 -20t-26 -53 t26 -52.5t65 -19.5zM271 541q-43 0 -74 31t-31 74t31 74t74 31t73.5 -30.5t30.5 -74.5q0 -43 -30.5 -74t-73.5 -31zM271 599q19 0 32.5 13.5t13.5 33.5t-13.5 33.5t-32.5 13.5t-33 -14t-14 -33t14 -33t33 -14z" />
<glyph unicode="&#xe6;" horiz-adv-x="870" d="M841 200h-359q7 -46 43.5 -76t95.5 -30q32 0 69 13t59 35l57 -87q-73 -67 -199 -67q-62 0 -114 23.5t-85 64.5q-75 -88 -198 -88q-71 0 -124 41.5t-53 116.5t48.5 116.5t118.5 41.5q101 0 153 -58v60q0 37 -29 59t-77 22q-79 0 -139 -57l-50 89q85 76 211 76 q124 0 164 -79q61 79 173 79q104 0 169.5 -73.5t65.5 -191.5v-30zM481 288h238q-3 41 -32.5 72t-87.5 31q-54 0 -84 -31t-34 -72zM363 130q-10 18 -10 45q-33 44 -102 44q-39 0 -65 -20t-26 -53t26 -52.5t65 -19.5q80 0 112 56z" />
<glyph unicode="&#xe7;" horiz-adv-x="499" d="M291 -193q-72 0 -110 31l25 51q38 -29 82 -29q21 0 36 8.5t15 24.5q0 26 -29 26q-18 0 -32 -14l-46 26l21 59q-98 11 -159.5 80.5t-61.5 171.5q0 111 72.5 182t183.5 71q128 0 191 -87l-83 -78q-35 52 -102 52q-58 0 -94.5 -38.5t-36.5 -101.5t36.5 -102t94.5 -39 q65 0 102 53l83 -78q-55 -77 -164 -87l-15 -38q14 10 35 10q28 0 47.5 -19.5t19.5 -50.5q0 -39 -32 -61.5t-79 -22.5z" />
<glyph unicode="&#xe8;" horiz-adv-x="553" d="M290 -12q-112 0 -185 70t-73 184q0 106 71 179.5t179 73.5t175 -73.5t67 -191.5v-30h-359q7 -47 43.5 -77.5t95.5 -30.5q33 0 69.5 12.5t58.5 34.5l57 -84q-73 -67 -199 -67zM402 288q-4 41 -33.5 72t-86.5 31q-55 0 -84.5 -30.5t-33.5 -72.5h238zM365 556h-89l-162 144 h117z" />
<glyph unicode="&#xe9;" horiz-adv-x="553" d="M290 -12q-112 0 -185 70t-73 184q0 106 71 179.5t179 73.5t175 -73.5t67 -191.5v-30h-359q7 -47 43.5 -77.5t95.5 -30.5q33 0 69.5 12.5t58.5 34.5l57 -84q-73 -67 -199 -67zM402 288q-4 41 -33.5 72t-86.5 31q-55 0 -84.5 -30.5t-33.5 -72.5h238zM454 700l-162 -144h-89 l134 144h117z" />
<glyph unicode="&#xea;" horiz-adv-x="553" d="M290 -12q-112 0 -185 70t-73 184q0 106 71 179.5t179 73.5t175 -73.5t67 -191.5v-30h-359q7 -47 43.5 -77.5t95.5 -30.5q33 0 69.5 12.5t58.5 34.5l57 -84q-73 -67 -199 -67zM402 288q-4 41 -33.5 72t-86.5 31q-55 0 -84.5 -30.5t-33.5 -72.5h238zM434 556h-78l-73 89 l-71 -89h-78l92 144h114z" />
<glyph unicode="&#xeb;" horiz-adv-x="553" d="M290 -12q-112 0 -185 70t-73 184q0 106 71 179.5t179 73.5t175 -73.5t67 -191.5v-30h-359q7 -47 43.5 -77.5t95.5 -30.5q33 0 69.5 12.5t58.5 34.5l57 -84q-73 -67 -199 -67zM402 288q-4 41 -33.5 72t-86.5 31q-55 0 -84.5 -30.5t-33.5 -72.5h238zM457 611 q0 -29 -19.5 -48.5t-48.5 -19.5q-28 0 -48 20t-20 48t20 48t48 20q29 0 48.5 -19.5t19.5 -48.5zM246 611q0 -29 -20 -48.5t-48 -19.5t-48 19.5t-20 48.5t20 48.5t48 19.5t48 -19.5t20 -48.5z" />
<glyph unicode="&#xec;" horiz-adv-x="253" d="M208 556h-89l-162 144h117zM190 0h-127v483h127v-483z" />
<glyph unicode="&#xed;" horiz-adv-x="253" d="M296 700l-162 -144h-89l134 144h117zM190 0h-127v483h127v-483z" />
<glyph unicode="&#xee;" horiz-adv-x="253" d="M277 556h-78l-73 89l-71 -89h-78l92 144h114zM190 0h-127v483h127v-483z" />
<glyph unicode="&#xef;" horiz-adv-x="253" d="M300 611q0 -29 -20 -48.5t-48 -19.5t-48 20t-20 48t20 48t48 20t48 -19.5t20 -48.5zM89 611q0 -29 -19.5 -48.5t-48.5 -19.5t-48.5 19.5t-19.5 48.5t19.5 48.5t48.5 19.5t48.5 -19.5t19.5 -48.5zM190 0h-127v483h127v-483z" />
<glyph unicode="&#xf0;" horiz-adv-x="575" d="M103 469l-25 60l108 47q-42 26 -62 38l69 102q70 -43 123 -83l103 45l26 -57l-74 -33q172 -153 172 -336q0 -119 -69 -191.5t-187 -72.5q-114 0 -184.5 66t-70.5 170q0 103 61 169.5t153 66.5q101 0 160 -92q-36 79 -157 166zM287 101q58 0 91 35t33 88t-33 88.5 t-91 35.5q-57 0 -90 -35.5t-33 -88.5q0 -52 33 -87.5t90 -35.5z" />
<glyph unicode="&#xf1;" horiz-adv-x="579" d="M524 0h-128v292q0 90 -89 90q-66 0 -110 -56v-326h-127v483h127v-62q26 31 70.5 52.5t98.5 21.5q78 0 118 -41t40 -113v-341zM347 554q-29 0 -50 17t-36.5 34t-30.5 17q-36 0 -36 -62h-67q0 64 28 99t80 35q29 0 49.5 -17t36 -33.5t30.5 -16.5q36 0 36 61h67 q0 -64 -27.5 -99t-79.5 -35z" />
<glyph unicode="&#xf2;" horiz-adv-x="575" d="M287 -12q-116 0 -185.5 73.5t-69.5 180.5t69.5 180t185.5 73t186 -73t70 -180t-70 -180.5t-186 -73.5zM287 101q58 0 91 40.5t33 100.5q0 59 -33 99.5t-91 40.5q-57 0 -90 -40.5t-33 -99.5q0 -60 33 -100.5t90 -40.5zM370 556h-89l-162 144h117z" />
<glyph unicode="&#xf3;" horiz-adv-x="575" d="M287 -12q-116 0 -185.5 73.5t-69.5 180.5t69.5 180t185.5 73t186 -73t70 -180t-70 -180.5t-186 -73.5zM287 101q58 0 91 40.5t33 100.5q0 59 -33 99.5t-91 40.5q-57 0 -90 -40.5t-33 -99.5q0 -60 33 -100.5t90 -40.5zM457 700l-162 -144h-89l134 144h117z" />
<glyph unicode="&#xf4;" horiz-adv-x="575" d="M287 -12q-116 0 -185.5 73.5t-69.5 180.5t69.5 180t185.5 73t186 -73t70 -180t-70 -180.5t-186 -73.5zM287 101q58 0 91 40.5t33 100.5q0 59 -33 99.5t-91 40.5q-57 0 -90 -40.5t-33 -99.5q0 -60 33 -100.5t90 -40.5zM438 556h-78l-73 89l-71 -89h-78l92 144h114z" />
<glyph unicode="&#xf5;" horiz-adv-x="575" d="M287 -12q-116 0 -185.5 73.5t-69.5 180.5t69.5 180t185.5 73t186 -73t70 -180t-70 -180.5t-186 -73.5zM287 101q58 0 91 40.5t33 100.5q0 59 -33 99.5t-91 40.5q-57 0 -90 -40.5t-33 -99.5q0 -60 33 -100.5t90 -40.5zM344 554q-29 0 -50 17t-36.5 34t-30.5 17 q-36 0 -36 -62h-67q0 64 28 99t80 35q29 0 49.5 -17t36 -33.5t30.5 -16.5q36 0 36 61h67q0 -64 -27.5 -99t-79.5 -35z" />
<glyph unicode="&#xf6;" horiz-adv-x="575" d="M287 -12q-116 0 -185.5 73.5t-69.5 180.5t69.5 180t185.5 73t186 -73t70 -180t-70 -180.5t-186 -73.5zM287 101q58 0 91 40.5t33 100.5q0 59 -33 99.5t-91 40.5q-57 0 -90 -40.5t-33 -99.5q0 -60 33 -100.5t90 -40.5zM461 611q0 -29 -19.5 -48.5t-48.5 -19.5 q-28 0 -48 20t-20 48t20 48t48 20q29 0 48.5 -19.5t19.5 -48.5zM250 611q0 -29 -20 -48.5t-48 -19.5t-48 19.5t-20 48.5t20 48.5t48 19.5t48 -19.5t20 -48.5z" />
<glyph unicode="&#xf7;" horiz-adv-x="511" d="M316 516q0 -26 -18 -44t-43 -18t-43 18.5t-18 43.5t18 42.5t43 17.5t43 -17.5t18 -42.5zM482 298h-453v79h453v-79zM316 157q0 -25 -18 -43t-43 -18t-43 18t-18 43t18 43t43 18t43 -18t18 -43z" />
<glyph unicode="&#xf8;" horiz-adv-x="575" d="M119 0h-79l57 67q-65 71 -65 175q0 107 69.5 180t185.5 73q81 0 141 -38l22 26h80l-55 -64q68 -71 68 -177q0 -107 -70 -180.5t-186 -73.5q-82 0 -144 40zM287 101q58 0 91 40.5t33 100.5q0 43 -19 79l-171 -201q28 -19 66 -19zM164 242q0 -42 17 -76l169 199 q-28 17 -63 17q-57 0 -90 -40.5t-33 -99.5z" />
<glyph unicode="&#xf9;" horiz-adv-x="579" d="M516 0h-127v61q-67 -73 -170 -73q-78 0 -117 40t-39 112v343h127v-293q0 -89 89 -89q67 0 110 55v327h127v-483zM373 556h-89l-162 144h117z" />
<glyph unicode="&#xfa;" horiz-adv-x="579" d="M516 0h-127v61q-67 -73 -170 -73q-78 0 -117 40t-39 112v343h127v-293q0 -89 89 -89q67 0 110 55v327h127v-483zM460 700l-162 -144h-89l134 144h117z" />
<glyph unicode="&#xfb;" horiz-adv-x="579" d="M516 0h-127v61q-67 -73 -170 -73q-78 0 -117 40t-39 112v343h127v-293q0 -89 89 -89q67 0 110 55v327h127v-483zM441 556h-78l-73 89l-71 -89h-78l92 144h114z" />
<glyph unicode="&#xfc;" horiz-adv-x="579" d="M516 0h-127v61q-67 -73 -170 -73q-78 0 -117 40t-39 112v343h127v-293q0 -89 89 -89q67 0 110 55v327h127v-483zM466 611q0 -29 -20 -48.5t-48 -19.5t-48 20t-20 48t20 48t48 20t48 -19.5t20 -48.5zM255 611q0 -29 -19.5 -48.5t-48.5 -19.5t-48.5 19.5t-19.5 48.5 t19.5 48.5t48.5 19.5t48.5 -19.5t19.5 -48.5z" />
<glyph unicode="&#xfd;" horiz-adv-x="513" d="M47 -188l18 113q18 -8 40 -8q51 0 67 35l18 42l-196 489h136l126 -336l127 336h136l-227 -562q-25 -64 -70 -89.5t-113 -27.5q-38 0 -62 8zM426 700l-162 -144h-89l134 144h117z" />
<glyph unicode="&#xfe;" horiz-adv-x="583" d="M339 -12q-90 0 -149 74v-246h-127v851h127v-245q57 73 149 73q95 0 154.5 -67.5t59.5 -185.5t-59.5 -186t-154.5 -68zM299 101q55 0 89 39t34 102q0 62 -34 101t-89 39q-31 0 -62 -15.5t-47 -39.5v-170q16 -23 47.5 -39.5t61.5 -16.5z" />
<glyph unicode="&#xff;" horiz-adv-x="513" d="M47 -188l18 113q18 -8 40 -8q51 0 67 35l18 42l-196 489h136l126 -336l127 336h136l-227 -562q-25 -64 -70 -89.5t-113 -27.5q-38 0 -62 8zM430 611q0 -29 -20 -48.5t-48 -19.5t-48 20t-20 48t20 48t48 20t48 -19.5t20 -48.5zM219 611q0 -29 -19.5 -48.5t-48.5 -19.5 t-48.5 19.5t-19.5 48.5t19.5 48.5t48.5 19.5t48.5 -19.5t19.5 -48.5z" />
<glyph unicode="&#x152;" horiz-adv-x="1084" d="M1041 0h-471v78q-33 -43 -88.5 -66.5t-113.5 -23.5q-146 0 -240 97t-94 248t94 247.5t240 96.5q58 0 113.5 -23t88.5 -65v78h471v-125h-329v-140h322v-125h-322v-152h329v-125zM570 230v207q-24 55 -72 84.5t-110 29.5q-95 0 -151.5 -61t-56.5 -157q0 -95 56.5 -157 t151.5 -62q61 0 109 30.5t73 85.5z" />
<glyph unicode="&#x153;" horiz-adv-x="931" d="M903 200h-359q7 -47 43.5 -77.5t94.5 -30.5q33 0 69.5 13t59.5 34l57 -84q-75 -67 -199 -67q-120 0 -194 107q-74 -107 -188 -107q-116 0 -185.5 73.5t-69.5 180.5t69.5 180t185.5 73q111 0 189 -107q70 107 185 107q108 0 175 -73.5t67 -191.5v-30zM542 288h238 q-3 41 -32 72t-87 31q-55 0 -85 -31t-34 -72zM411 242q0 62 -34 101t-90 39q-55 0 -89 -39t-34 -101q0 -63 34 -102.5t89 -39.5q56 0 90 39.5t34 102.5z" />
<glyph unicode="&#x178;" horiz-adv-x="645" d="M498 784q0 -28 -20 -48t-48 -20t-48 20t-20 48t20 48t48 20t48 -20t20 -48zM287 784q0 -28 -19.5 -48t-48.5 -20t-48.5 20t-19.5 48t19.5 48t48.5 20t48.5 -20t19.5 -48zM394 0h-142v273l-256 394h162l165 -267l165 267h161l-255 -394v-273z" />
<glyph unicode="&#x2c6;" horiz-adv-x="300" d="M300 556h-78l-73 89l-71 -89h-78l92 144h114z" />
<glyph unicode="&#x2dc;" horiz-adv-x="327" d="M220 554q-29 0 -50 17t-36.5 34t-30.5 17q-36 0 -36 -62h-67q0 64 28 99t80 35q29 0 49.5 -17t36 -33.5t30.5 -16.5q36 0 36 61h67q0 -64 -27.5 -99t-79.5 -35z" />
<glyph unicode="&#x2000;" horiz-adv-x="451" />
<glyph unicode="&#x2001;" horiz-adv-x="903" />
<glyph unicode="&#x2002;" horiz-adv-x="451" />
<glyph unicode="&#x2003;" horiz-adv-x="903" />
<glyph unicode="&#x2004;" horiz-adv-x="301" />
<glyph unicode="&#x2005;" horiz-adv-x="225" />
<glyph unicode="&#x2006;" horiz-adv-x="150" />
<glyph unicode="&#x2007;" horiz-adv-x="150" />
<glyph unicode="&#x2008;" horiz-adv-x="112" />
<glyph unicode="&#x2009;" horiz-adv-x="180" />
<glyph unicode="&#x200a;" horiz-adv-x="50" />
<glyph unicode="&#x2010;" horiz-adv-x="300" d="M270 188h-240v108h240v-108z" />
<glyph unicode="&#x2011;" horiz-adv-x="300" d="M270 188h-240v108h240v-108z" />
<glyph unicode="&#x2012;" horiz-adv-x="300" d="M270 188h-240v108h240v-108z" />
<glyph unicode="&#x2013;" horiz-adv-x="593" d="M563 188h-533v108h533v-108z" />
<glyph unicode="&#x2014;" horiz-adv-x="833" d="M803 188h-773v108h773v-108z" />
<glyph unicode="&#x2018;" horiz-adv-x="255" d="M39 492q0 55 27.5 103.5t75.5 82.5l55 -45q-25 -13 -48 -41t-30 -54q4 3 20 3q29 0 48.5 -20t19.5 -52t-23.5 -55.5t-55.5 -23.5q-37 0 -63 27.5t-26 74.5z" />
<glyph unicode="&#x2019;" horiz-adv-x="255" d="M215 575q0 -55 -27.5 -103.5t-75.5 -82.5l-55 45q25 13 48 41t29 54q-5 -3 -19 -3q-29 0 -48.5 20t-19.5 52t23.5 55.5t55.5 23.5q37 0 63 -27.5t26 -74.5z" />
<glyph unicode="&#x201a;" horiz-adv-x="255" d="M215 49q0 -55 -27.5 -103.5t-75.5 -82.5l-55 45q25 13 48 40.5t29 53.5q-9 -3 -19 -3q-29 0 -48.5 20.5t-19.5 51.5q0 33 23.5 56.5t55.5 23.5q37 0 63 -27.5t26 -74.5z" />
<glyph unicode="&#x201c;" horiz-adv-x="459" d="M40 492q0 55 27.5 103.5t75.5 82.5l55 -45q-25 -13 -48 -41t-30 -54q6 3 20 3q29 0 48.5 -20t19.5 -52t-23.5 -55.5t-55.5 -23.5q-37 0 -63 27.5t-26 74.5zM244 492q0 55 27.5 103.5t75.5 82.5l55 -45q-25 -13 -48.5 -41t-29.5 -54q4 3 20 3q29 0 48 -20t19 -52 t-23 -55.5t-55 -23.5q-37 0 -63 27.5t-26 74.5z" />
<glyph unicode="&#x201d;" horiz-adv-x="459" d="M418 575q0 -55 -27.5 -103.5t-75.5 -82.5l-55 45q25 13 48.5 41t29.5 54q-4 -3 -20 -3q-29 0 -48 20t-19 52t23 55.5t55 23.5q37 0 63 -27.5t26 -74.5zM215 575q0 -55 -27.5 -103.5t-75.5 -82.5l-55 45q25 13 48 41t29 54q-5 -3 -19 -3q-29 0 -48.5 20t-19.5 52 t23.5 55.5t55.5 23.5q37 0 63 -27.5t26 -74.5z" />
<glyph unicode="&#x201e;" horiz-adv-x="459" d="M215 49q0 -55 -27.5 -103.5t-75.5 -82.5l-55 45q25 13 48 40.5t29 53.5q-9 -3 -19 -3q-29 0 -48.5 20.5t-19.5 51.5q0 33 23.5 56.5t55.5 23.5q37 0 63 -27.5t26 -74.5zM418 49q0 -55 -27.5 -103.5t-75.5 -82.5l-55 45q25 13 48.5 41t29.5 53q-9 -3 -20 -3 q-29 0 -48 20.5t-19 51.5q0 33 23 56.5t55 23.5q37 0 63 -27.5t26 -74.5z" />
<glyph unicode="&#x2022;" horiz-adv-x="358" d="M299 242q0 -49 -35 -83.5t-84 -34.5t-84 34.5t-35 83.5q0 50 34.5 84.5t84.5 34.5t84.5 -34.5t34.5 -84.5z" />
<glyph unicode="&#x2026;" horiz-adv-x="768" d="M209 70q0 -32 -24 -56t-57 -24t-56.5 24t-23.5 56q0 33 23.5 57t56.5 24t57 -24t24 -57zM465 70q0 -32 -24 -56t-57 -24t-56.5 24t-23.5 56q0 33 23.5 57t56.5 24t57 -24t24 -57zM721 70q0 -32 -24 -56t-57 -24t-56.5 24t-23.5 56q0 33 23.5 57t56.5 24t57 -24t24 -57z " />
<glyph unicode="&#x202f;" horiz-adv-x="180" />
<glyph unicode="&#x2039;" horiz-adv-x="338" d="M308 63h-118l-160 180l160 177h118l-160 -177z" />
<glyph unicode="&#x203a;" horiz-adv-x="338" d="M308 243l-160 -180h-118l160 180l-160 177h118z" />
<glyph unicode="&#x205f;" horiz-adv-x="225" />
<glyph unicode="&#x20ac;" horiz-adv-x="709" d="M413 -12q-123 0 -215.5 64t-125.5 173h-51v79h37q-1 9 -1 29q0 21 1 32h-37v79h52q34 107 126 170.5t214 63.5q187 0 278 -163l-122 -60q-22 42 -64.5 69.5t-91.5 27.5q-61 0 -109 -29t-75 -79h244v-79h-268q-2 -11 -2 -32q0 -20 1 -29h269v-79h-245q26 -52 74.5 -81.5 t110.5 -29.5q49 0 91.5 27.5t64.5 69.5l122 -59q-93 -164 -278 -164z" />
<glyph unicode="&#x2122;" horiz-adv-x="454" d="M419 447h-28v182l-75 -182h-8l-75 182v-182h-28v220h43l64 -160l64 160h43v-220zM169 641h-62v-194h-28v194h-62v26h152v-26z" />
<glyph unicode="&#xe000;" horiz-adv-x="485" d="M0 485h485v-485h-485v485z" />
<hkern g1="B" 	g2="T" 	k="14" />
<hkern g1="B" 	g2="V" 	k="17" />
<hkern g1="B" 	g2="W" 	k="10" />
<hkern g1="B" 	g2="Y,Yacute,Ydieresis" 	k="30" />
<hkern g1="B" 	g2="quotedbl,quotesingle,registered,quoteleft,quoteright,quotedblleft,quotedblright,trademark" 	k="10" />
<hkern g1="C,Ccedilla" 	g2="V" 	k="3" />
<hkern g1="C,Ccedilla" 	g2="W" 	k="7" />
<hkern g1="C,Ccedilla" 	g2="Y,Yacute,Ydieresis" 	k="23" />
<hkern g1="C,Ccedilla" 	g2="question" 	k="7" />
<hkern g1="C,Ccedilla" 	g2="A,Agrave,Aacute,Acircumflex,Atilde,Adieresis,Aring,AE" 	k="7" />
<hkern g1="D,O,Q,Eth,Ograve,Oacute,Ocircumflex,Otilde,Odieresis,Oslash,Thorn" 	g2="J" 	k="20" />
<hkern g1="D,O,Q,Eth,Ograve,Oacute,Ocircumflex,Otilde,Odieresis,Oslash,Thorn" 	g2="T" 	k="24" />
<hkern g1="D,O,Q,Eth,Ograve,Oacute,Ocircumflex,Otilde,Odieresis,Oslash,Thorn" 	g2="V" 	k="20" />
<hkern g1="D,O,Q,Eth,Ograve,Oacute,Ocircumflex,Otilde,Odieresis,Oslash,Thorn" 	g2="W" 	k="20" />
<hkern g1="D,O,Q,Eth,Ograve,Oacute,Ocircumflex,Otilde,Odieresis,Oslash,Thorn" 	g2="Y,Yacute,Ydieresis" 	k="40" />
<hkern g1="D,O,Q,Eth,Ograve,Oacute,Ocircumflex,Otilde,Odieresis,Oslash,Thorn" 	g2="question" 	k="23" />
<hkern g1="D,O,Q,Eth,Ograve,Oacute,Ocircumflex,Otilde,Odieresis,Oslash,Thorn" 	g2="quotedbl,quotesingle,registered,quoteleft,quoteright,quotedblleft,quotedblright,trademark" 	k="10" />
<hkern g1="D,O,Q,Eth,Ograve,Oacute,Ocircumflex,Otilde,Odieresis,Oslash,Thorn" 	g2="A,Agrave,Aacute,Acircumflex,Atilde,Adieresis,Aring,AE" 	k="34" />
<hkern g1="D,O,Q,Eth,Ograve,Oacute,Ocircumflex,Otilde,Odieresis,Oslash,Thorn" 	g2="X" 	k="30" />
<hkern g1="D,O,Q,Eth,Ograve,Oacute,Ocircumflex,Otilde,Odieresis,Oslash,Thorn" 	g2="Z" 	k="14" />
<hkern g1="D,O,Q,Eth,Ograve,Oacute,Ocircumflex,Otilde,Odieresis,Oslash,Thorn" 	g2="comma,period,quotesinglbase,quotedblbase,ellipsis" 	k="24" />
<hkern g1="F" 	g2="A,Agrave,Aacute,Acircumflex,Atilde,Adieresis,Aring,AE" 	k="43" />
<hkern g1="F" 	g2="J" 	k="70" />
<hkern g1="F" 	g2="ampersand" 	k="13" />
<hkern g1="F" 	g2="comma,period,quotesinglbase,quotedblbase,ellipsis" 	k="50" />
<hkern g1="G" 	g2="T" 	k="7" />
<hkern g1="G" 	g2="A,Agrave,Aacute,Acircumflex,Atilde,Adieresis,Aring,AE" 	k="7" />
<hkern g1="G" 	g2="X" 	k="7" />
<hkern g1="G" 	g2="V" 	k="13" />
<hkern g1="G" 	g2="W" 	k="7" />
<hkern g1="G" 	g2="Y,Yacute,Ydieresis" 	k="20" />
<hkern g1="G" 	g2="question" 	k="13" />
<hkern g1="K" 	g2="Y,Yacute,Ydieresis" 	k="11" />
<hkern g1="K" 	g2="C,G,O,Q,Ccedilla,Ograve,Oacute,Ocircumflex,Otilde,Odieresis,Oslash,OE" 	k="47" />
<hkern g1="K" 	g2="a,ae" 	k="14" />
<hkern g1="K" 	g2="c,d,e,g,o,q,ccedilla,eth,oslash,oe" 	k="27" />
<hkern g1="K" 	g2="f,uniFB01,uniFB02,uniFB03,uniFB04" 	k="33" />
<hkern g1="K" 	g2="t" 	k="50" />
<hkern g1="K" 	g2="u" 	k="20" />
<hkern g1="K" 	g2="v" 	k="60" />
<hkern g1="K" 	g2="w" 	k="40" />
<hkern g1="K" 	g2="x" 	k="33" />
<hkern g1="K" 	g2="y,yacute,ydieresis" 	k="60" />
<hkern g1="K" 	g2="hyphen,periodcentered,endash,emdash" 	k="50" />
<hkern g1="L" 	g2="T" 	k="100" />
<hkern g1="L" 	g2="ampersand" 	k="4" />
<hkern g1="L" 	g2="V" 	k="90" />
<hkern g1="L" 	g2="W" 	k="73" />
<hkern g1="L" 	g2="Y,Yacute,Ydieresis" 	k="127" />
<hkern g1="L" 	g2="question" 	k="107" />
<hkern g1="L" 	g2="quotedbl,quotesingle,registered,quoteleft,quoteright,quotedblleft,quotedblright,trademark" 	k="136" />
<hkern g1="L" 	g2="C,G,O,Q,Ccedilla,Ograve,Oacute,Ocircumflex,Otilde,Odieresis,Oslash,OE" 	k="27" />
<hkern g1="L" 	g2="a,ae" 	k="7" />
<hkern g1="L" 	g2="c,d,e,g,o,q,ccedilla,eth,oslash,oe" 	k="11" />
<hkern g1="L" 	g2="t" 	k="37" />
<hkern g1="L" 	g2="u" 	k="7" />
<hkern g1="L" 	g2="v" 	k="54" />
<hkern g1="L" 	g2="w" 	k="34" />
<hkern g1="L" 	g2="y,yacute,ydieresis" 	k="54" />
<hkern g1="L" 	g2="U,Ugrave,Uacute,Ucircumflex,Udieresis" 	k="24" />
<hkern g1="L" 	g2="asterisk" 	k="167" />
<hkern g1="P" 	g2="Y,Yacute,Ydieresis" 	k="7" />
<hkern g1="P" 	g2="A,Agrave,Aacute,Acircumflex,Atilde,Adieresis,Aring,AE" 	k="74" />
<hkern g1="P" 	g2="J" 	k="120" />
<hkern g1="P" 	g2="X" 	k="20" />
<hkern g1="P" 	g2="ampersand" 	k="33" />
<hkern g1="P" 	g2="comma,period,quotesinglbase,quotedblbase,ellipsis" 	k="87" />
<hkern g1="P" 	g2="a,ae" 	k="20" />
<hkern g1="P" 	g2="c,d,e,g,o,q,ccedilla,eth,oslash,oe" 	k="17" />
<hkern g1="P" 	g2="hyphen,periodcentered,endash,emdash" 	k="27" />
<hkern g1="R" 	g2="T" 	k="10" />
<hkern g1="R" 	g2="V" 	k="10" />
<hkern g1="R" 	g2="Y,Yacute,Ydieresis" 	k="18" />
<hkern g1="R" 	g2="quotedbl,quotesingle,registered,quoteleft,quoteright,quotedblleft,quotedblright,trademark" 	k="7" />
<hkern g1="R" 	g2="ampersand" 	k="7" />
<hkern g1="R" 	g2="a,ae" 	k="20" />
<hkern g1="R" 	g2="c,d,e,g,o,q,ccedilla,eth,oslash,oe" 	k="30" />
<hkern g1="R" 	g2="s" 	k="13" />
<hkern g1="S" 	g2="T" 	k="13" />
<hkern g1="S" 	g2="Y,Yacute,Ydieresis" 	k="10" />
<hkern g1="S" 	g2="A,Agrave,Aacute,Acircumflex,Atilde,Adieresis,Aring,AE" 	k="10" />
<hkern g1="S" 	g2="t" 	k="14" />
<hkern g1="S" 	g2="v" 	k="13" />
<hkern g1="S" 	g2="w" 	k="7" />
<hkern g1="S" 	g2="x" 	k="17" />
<hkern g1="S" 	g2="y,yacute,ydieresis" 	k="13" />
<hkern g1="T" 	g2="C,G,O,Q,Ccedilla,Ograve,Oacute,Ocircumflex,Otilde,Odieresis,Oslash,OE" 	k="24" />
<hkern g1="T" 	g2="A,Agrave,Aacute,Acircumflex,Atilde,Adieresis,Aring,AE" 	k="64" />
<hkern g1="T" 	g2="J" 	k="87" />
<hkern g1="T" 	g2="ampersand" 	k="54" />
<hkern g1="T" 	g2="comma,period,quotesinglbase,quotedblbase,ellipsis" 	k="97" />
<hkern g1="T" 	g2="a,ae" 	k="78" />
<hkern g1="T" 	g2="c,d,e,g,o,q,ccedilla,eth,oslash,oe" 	k="98" />
<hkern g1="T" 	g2="hyphen,periodcentered,endash,emdash" 	k="60" />
<hkern g1="T" 	g2="s" 	k="81" />
<hkern g1="T" 	g2="v" 	k="28" />
<hkern g1="T" 	g2="w" 	k="28" />
<hkern g1="T" 	g2="x" 	k="38" />
<hkern g1="T" 	g2="y,yacute,ydieresis" 	k="28" />
<hkern g1="T" 	g2="S" 	k="7" />
<hkern g1="T" 	g2="colon,semicolon" 	k="50" />
<hkern g1="T" 	g2="f,uniFB01,uniFB02,uniFB03,uniFB04" 	k="21" />
<hkern g1="T" 	g2="m,n,p,r,z" 	k="68" />
<hkern g1="T" 	g2="u" 	k="68" />
<hkern g1="J,U,Ugrave,Uacute,Ucircumflex,Udieresis" 	g2="A,Agrave,Aacute,Acircumflex,Atilde,Adieresis,Aring,AE" 	k="33" />
<hkern g1="J,U,Ugrave,Uacute,Ucircumflex,Udieresis" 	g2="J" 	k="26" />
<hkern g1="J,U,Ugrave,Uacute,Ucircumflex,Udieresis" 	g2="comma,period,quotesinglbase,quotedblbase,ellipsis" 	k="30" />
<hkern g1="V" 	g2="A,Agrave,Aacute,Acircumflex,Atilde,Adieresis,Aring,AE" 	k="47" />
<hkern g1="V" 	g2="comma,period,quotesinglbase,quotedblbase,ellipsis" 	k="90" />
<hkern g1="V" 	g2="C,G,O,Q,Ccedilla,Ograve,Oacute,Ocircumflex,Otilde,Odieresis,Oslash,OE" 	k="20" />
<hkern g1="V" 	g2="J" 	k="97" />
<hkern g1="V" 	g2="ampersand" 	k="40" />
<hkern g1="V" 	g2="a,ae" 	k="67" />
<hkern g1="V" 	g2="c,d,e,g,o,q,ccedilla,eth,oslash,oe" 	k="60" />
<hkern g1="V" 	g2="f,uniFB01,uniFB02,uniFB03,uniFB04" 	k="27" />
<hkern g1="V" 	g2="m,n,p,r,z" 	k="56" />
<hkern g1="V" 	g2="s" 	k="50" />
<hkern g1="V" 	g2="t" 	k="17" />
<hkern g1="V" 	g2="u" 	k="56" />
<hkern g1="V" 	g2="v" 	k="17" />
<hkern g1="V" 	g2="w" 	k="13" />
<hkern g1="V" 	g2="x" 	k="27" />
<hkern g1="V" 	g2="y,yacute,ydieresis" 	k="13" />
<hkern g1="V" 	g2="hyphen,periodcentered,endash,emdash" 	k="57" />
<hkern g1="W" 	g2="A,Agrave,Aacute,Acircumflex,Atilde,Adieresis,Aring,AE" 	k="44" />
<hkern g1="W" 	g2="comma,period,quotesinglbase,quotedblbase,ellipsis" 	k="64" />
<hkern g1="W" 	g2="C,G,O,Q,Ccedilla,Ograve,Oacute,Ocircumflex,Otilde,Odieresis,Oslash,OE" 	k="20" />
<hkern g1="W" 	g2="J" 	k="59" />
<hkern g1="W" 	g2="ampersand" 	k="20" />
<hkern g1="W" 	g2="a,ae" 	k="40" />
<hkern g1="W" 	g2="c,d,e,g,o,q,ccedilla,eth,oslash,oe" 	k="40" />
<hkern g1="W" 	g2="f,uniFB01,uniFB02,uniFB03,uniFB04" 	k="17" />
<hkern g1="W" 	g2="m,n,p,r,z" 	k="30" />
<hkern g1="W" 	g2="s" 	k="30" />
<hkern g1="W" 	g2="t" 	k="17" />
<hkern g1="W" 	g2="u" 	k="30" />
<hkern g1="W" 	g2="v" 	k="7" />
<hkern g1="W" 	g2="x" 	k="27" />
<hkern g1="W" 	g2="y,yacute,ydieresis" 	k="7" />
<hkern g1="W" 	g2="hyphen,periodcentered,endash,emdash" 	k="37" />
<hkern g1="Y,Yacute,Ydieresis" 	g2="A,Agrave,Aacute,Acircumflex,Atilde,Adieresis,Aring,AE" 	k="67" />
<hkern g1="Y,Yacute,Ydieresis" 	g2="comma,period,quotesinglbase,quotedblbase,ellipsis" 	k="90" />
<hkern g1="Y,Yacute,Ydieresis" 	g2="C,G,O,Q,Ccedilla,Ograve,Oacute,Ocircumflex,Otilde,Odieresis,Oslash,OE" 	k="40" />
<hkern g1="Y,Yacute,Ydieresis" 	g2="J" 	k="117" />
<hkern g1="Y,Yacute,Ydieresis" 	g2="ampersand" 	k="60" />
<hkern g1="Y,Yacute,Ydieresis" 	g2="a,ae" 	k="111" />
<hkern g1="Y,Yacute,Ydieresis" 	g2="c,d,e,g,o,q,ccedilla,eth,oslash,oe" 	k="124" />
<hkern g1="Y,Yacute,Ydieresis" 	g2="f,uniFB01,uniFB02,uniFB03,uniFB04" 	k="60" />
<hkern g1="Y,Yacute,Ydieresis" 	g2="m,n,p,r,z" 	k="90" />
<hkern g1="Y,Yacute,Ydieresis" 	g2="s" 	k="100" />
<hkern g1="Y,Yacute,Ydieresis" 	g2="t" 	k="33" />
<hkern g1="Y,Yacute,Ydieresis" 	g2="u" 	k="90" />
<hkern g1="Y,Yacute,Ydieresis" 	g2="v" 	k="60" />
<hkern g1="Y,Yacute,Ydieresis" 	g2="w" 	k="60" />
<hkern g1="Y,Yacute,Ydieresis" 	g2="x" 	k="77" />
<hkern g1="Y,Yacute,Ydieresis" 	g2="y,yacute,ydieresis" 	k="60" />
<hkern g1="Y,Yacute,Ydieresis" 	g2="hyphen,periodcentered,endash,emdash" 	k="123" />
<hkern g1="Y,Yacute,Ydieresis" 	g2="S" 	k="20" />
<hkern g1="Y,Yacute,Ydieresis" 	g2="colon,semicolon" 	k="70" />
<hkern g1="a,h,m,n" 	g2="T" 	k="94" />
<hkern g1="a,h,m,n" 	g2="question" 	k="43" />
<hkern g1="a,h,m,n" 	g2="quotedbl,quotesingle,registered,quoteleft,quoteright,quotedblleft,quotedblright,trademark" 	k="13" />
<hkern g1="a,h,m,n" 	g2="Y,Yacute,Ydieresis" 	k="110" />
<hkern g1="a,h,m,n" 	g2="V" 	k="73" />
<hkern g1="a,h,m,n" 	g2="W" 	k="47" />
<hkern g1="ampersand" 	g2="T" 	k="67" />
<hkern g1="ampersand" 	g2="Y,Yacute,Ydieresis" 	k="81" />
<hkern g1="ampersand" 	g2="V" 	k="50" />
<hkern g1="ampersand" 	g2="W" 	k="34" />
<hkern g1="asterisk" 	g2="A,Agrave,Aacute,Acircumflex,Atilde,Adieresis,Aring,AE" 	k="91" />
<hkern g1="asterisk" 	g2="J" 	k="123" />
<hkern g1="b,o,p,oslash,thorn" 	g2="T" 	k="98" />
<hkern g1="b,o,p,oslash,thorn" 	g2="question" 	k="53" />
<hkern g1="b,o,p,oslash,thorn" 	g2="quotedbl,quotesingle,registered,quoteleft,quoteright,quotedblleft,quotedblright,trademark" 	k="10" />
<hkern g1="b,o,p,oslash,thorn" 	g2="Y,Yacute,Ydieresis" 	k="117" />
<hkern g1="b,o,p,oslash,thorn" 	g2="V" 	k="60" />
<hkern g1="b,o,p,oslash,thorn" 	g2="W" 	k="40" />
<hkern g1="b,o,p,oslash,thorn" 	g2="comma,period,quotesinglbase,quotedblbase,ellipsis" 	k="4" />
<hkern g1="b,o,p,oslash,thorn" 	g2="x" 	k="34" />
<hkern g1="c,cent,ccedilla" 	g2="T" 	k="71" />
<hkern g1="c,cent,ccedilla" 	g2="question" 	k="27" />
<hkern g1="c,cent,ccedilla" 	g2="quotedbl,quotesingle,registered,quoteleft,quoteright,quotedblleft,quotedblright,trademark" 	k="7" />
<hkern g1="c,cent,ccedilla" 	g2="Y,Yacute,Ydieresis" 	k="67" />
<hkern g1="c,cent,ccedilla" 	g2="V" 	k="43" />
<hkern g1="c,cent,ccedilla" 	g2="W" 	k="27" />
<hkern g1="colon,semicolon" 	g2="T" 	k="50" />
<hkern g1="colon,semicolon" 	g2="Y,Yacute,Ydieresis" 	k="70" />
<hkern g1="e,ae,oe" 	g2="T" 	k="91" />
<hkern g1="e,ae,oe" 	g2="question" 	k="43" />
<hkern g1="e,ae,oe" 	g2="quotedbl,quotesingle,registered,quoteleft,quoteright,quotedblleft,quotedblright,trademark" 	k="7" />
<hkern g1="e,ae,oe" 	g2="Y,Yacute,Ydieresis" 	k="110" />
<hkern g1="e,ae,oe" 	g2="V" 	k="57" />
<hkern g1="e,ae,oe" 	g2="W" 	k="40" />
<hkern g1="e,ae,oe" 	g2="comma,period,quotesinglbase,quotedblbase,ellipsis" 	k="4" />
<hkern g1="e,ae,oe" 	g2="asterisk" 	k="14" />
<hkern g1="eth" 	g2="comma,period,quotesinglbase,quotedblbase,ellipsis" 	k="4" />
<hkern g1="f" 	g2="T" 	k="-40" />
<hkern g1="f" 	g2="question" 	k="-54" />
<hkern g1="f" 	g2="quotedbl,quotesingle,registered,quoteleft,quoteright,quotedblleft,quotedblright,trademark" 	k="-64" />
<hkern g1="f" 	g2="Y,Yacute,Ydieresis" 	k="-63" />
<hkern g1="f" 	g2="V" 	k="-67" />
<hkern g1="f" 	g2="W" 	k="-67" />
<hkern g1="f" 	g2="comma,period,quotesinglbase,quotedblbase,ellipsis" 	k="47" />
<hkern g1="f" 	g2="X" 	k="-40" />
<hkern g1="f" 	g2="Z" 	k="-40" />
<hkern g1="f" 	g2="asterisk" 	k="-64" />
<hkern g1="f" 	g2="ampersand" 	k="7" />
<hkern g1="f" 	g2="parenright,bracketright,braceright" 	k="-67" />
<hkern g1="f" 	g2="exclam,B,D,E,F,H,I,K,L,M,N,P,R,Egrave,Eacute,Ecircumflex,Edieresis,Igrave,Iacute,Icircumflex,Idieresis,Eth,Ntilde" 	k="-40" />
<hkern g1="f" 	g2="S" 	k="-27" />
<hkern g1="f" 	g2="U,Ugrave,Uacute,Ucircumflex,Udieresis" 	k="-40" />
<hkern g1="g,q" 	g2="T" 	k="68" />
<hkern g1="g,q" 	g2="question" 	k="27" />
<hkern g1="g,q" 	g2="Y,Yacute,Ydieresis" 	k="90" />
<hkern g1="g,q" 	g2="V" 	k="56" />
<hkern g1="g,q" 	g2="W" 	k="30" />
<hkern g1="g,q" 	g2="j" 	k="-53" />
<hkern g1="hyphen,periodcentered,endash,emdash" 	g2="Y,Yacute,Ydieresis" 	k="120" />
<hkern g1="hyphen,periodcentered,endash,emdash" 	g2="V" 	k="57" />
<hkern g1="hyphen,periodcentered,endash,emdash" 	g2="W" 	k="37" />
<hkern g1="hyphen,periodcentered,endash,emdash" 	g2="X" 	k="47" />
<hkern g1="k" 	g2="T" 	k="45" />
<hkern g1="k" 	g2="Y,Yacute,Ydieresis" 	k="73" />
<hkern g1="k" 	g2="V" 	k="27" />
<hkern g1="k" 	g2="W" 	k="27" />
<hkern g1="k" 	g2="c,d,e,g,o,q,ccedilla,eth,oslash,oe" 	k="7" />
<hkern g1="k" 	g2="bullet" 	k="24" />
<hkern g1="k" 	g2="hyphen,periodcentered,endash,emdash" 	k="24" />
<hkern g1="questiondown" 	g2="j" 	k="-160" />
<hkern g1="quotedbl,quotesingle,quoteleft,quoteright,quotedblleft,quotedblright" 	g2="A,Agrave,Aacute,Acircumflex,Atilde,Adieresis,Aring,AE" 	k="97" />
<hkern g1="quotedbl,quotesingle,quoteleft,quoteright,quotedblleft,quotedblright" 	g2="C,G,O,Q,Ccedilla,Ograve,Oacute,Ocircumflex,Otilde,Odieresis,Oslash,OE" 	k="7" />
<hkern g1="quotedbl,quotesingle,quoteleft,quoteright,quotedblleft,quotedblright" 	g2="s" 	k="30" />
<hkern g1="quotedbl,quotesingle,quoteleft,quoteright,quotedblleft,quotedblright" 	g2="J" 	k="106" />
<hkern g1="quotedbl,quotesingle,quoteleft,quoteright,quotedblleft,quotedblright" 	g2="comma,period,quotesinglbase,quotedblbase,ellipsis" 	k="83" />
<hkern g1="r" 	g2="T" 	k="34" />
<hkern g1="r" 	g2="V" 	k="27" />
<hkern g1="r" 	g2="W" 	k="13" />
<hkern g1="r" 	g2="Y,Yacute,Ydieresis" 	k="50" />
<hkern g1="r" 	g2="comma,period,quotesinglbase,quotedblbase,ellipsis" 	k="87" />
<hkern g1="r" 	g2="X" 	k="20" />
<hkern g1="s" 	g2="T" 	k="74" />
<hkern g1="s" 	g2="V" 	k="47" />
<hkern g1="s" 	g2="W" 	k="50" />
<hkern g1="s" 	g2="Y,Yacute,Ydieresis" 	k="97" />
<hkern g1="s" 	g2="quotedbl,quotesingle,registered,quoteleft,quoteright,quotedblleft,quotedblright,trademark" 	k="20" />
<hkern g1="s" 	g2="X" 	k="7" />
<hkern g1="s" 	g2="question" 	k="47" />
<hkern g1="t" 	g2="T" 	k="31" />
<hkern g1="t" 	g2="V" 	k="33" />
<hkern g1="t" 	g2="W" 	k="17" />
<hkern g1="t" 	g2="Y,Yacute,Ydieresis" 	k="37" />
<hkern g1="u,z" 	g2="T" 	k="68" />
<hkern g1="u,z" 	g2="V" 	k="56" />
<hkern g1="u,z" 	g2="W" 	k="30" />
<hkern g1="u,z" 	g2="Y,Yacute,Ydieresis" 	k="90" />
<hkern g1="u,z" 	g2="question" 	k="27" />
<hkern g1="v" 	g2="T" 	k="28" />
<hkern g1="v" 	g2="V" 	k="17" />
<hkern g1="v" 	g2="W" 	k="7" />
<hkern g1="v" 	g2="Y,Yacute,Ydieresis" 	k="60" />
<hkern g1="v" 	g2="A,Agrave,Aacute,Acircumflex,Atilde,Adieresis,Aring,AE" 	k="20" />
<hkern g1="v" 	g2="comma,period,quotesinglbase,quotedblbase,ellipsis" 	k="64" />
<hkern g1="v" 	g2="X" 	k="34" />
<hkern g1="w" 	g2="T" 	k="28" />
<hkern g1="w" 	g2="V" 	k="13" />
<hkern g1="w" 	g2="Y,Yacute,Ydieresis" 	k="60" />
<hkern g1="w" 	g2="A,Agrave,Aacute,Acircumflex,Atilde,Adieresis,Aring,AE" 	k="14" />
<hkern g1="w" 	g2="comma,period,quotesinglbase,quotedblbase,ellipsis" 	k="37" />
<hkern g1="w" 	g2="X" 	k="37" />
<hkern g1="y,yacute,ydieresis" 	g2="T" 	k="28" />
<hkern g1="y,yacute,ydieresis" 	g2="V" 	k="13" />
<hkern g1="y,yacute,ydieresis" 	g2="W" 	k="7" />
<hkern g1="y,yacute,ydieresis" 	g2="Y,Yacute,Ydieresis" 	k="60" />
<hkern g1="y,yacute,ydieresis" 	g2="A,Agrave,Aacute,Acircumflex,Atilde,Adieresis,Aring,AE" 	k="20" />
<hkern g1="y,yacute,ydieresis" 	g2="comma,period,quotesinglbase,quotedblbase,ellipsis" 	k="54" />
<hkern g1="y,yacute,ydieresis" 	g2="X" 	k="34" />
<hkern g1="y,yacute,ydieresis" 	g2="question" 	k="7" />
<hkern g1="X" 	g2="f,uniFB01,uniFB02,uniFB03,uniFB04" 	k="30" />
<hkern g1="X" 	g2="t" 	k="30" />
<hkern g1="X" 	g2="v" 	k="34" />
<hkern g1="X" 	g2="w" 	k="37" />
<hkern g1="X" 	g2="y,yacute,ydieresis" 	k="34" />
<hkern g1="X" 	g2="C,G,O,Q,Ccedilla,Ograve,Oacute,Ocircumflex,Otilde,Odieresis,Oslash,OE" 	k="30" />
<hkern g1="X" 	g2="hyphen,periodcentered,endash,emdash" 	k="47" />
<hkern g1="zero,nine" 	g2="comma,period,quotesinglbase,quotedblbase,ellipsis" 	k="21" />
<hkern g1="seven" 	g2="comma,period,quotesinglbase,quotedblbase,ellipsis" 	k="94" />
<hkern g1="x" 	g2="T" 	k="38" />
<hkern g1="x" 	g2="V" 	k="27" />
<hkern g1="x" 	g2="W" 	k="27" />
<hkern g1="x" 	g2="c,d,e,g,o,q,ccedilla,eth,oslash,oe" 	k="34" />
<hkern g1="x" 	g2="Y,Yacute,Ydieresis" 	k="77" />
<hkern g1="parenleft,bracketleft,braceleft" 	g2="j" 	k="-110" />
</font>
</defs></svg> 