<?xml version="1.0" standalone="no"?>
<!DOCTYPE svg PUBLIC "-//W3C//DTD SVG 1.1//EN" "http://www.w3.org/Graphics/SVG/1.1/DTD/svg11.dtd" >
<svg xmlns="http://www.w3.org/2000/svg">
<metadata></metadata>
<defs>
<font id="proxima_nova_rgbold_italic" horiz-adv-x="586" >
<font-face units-per-em="1000" ascent="790" descent="-210" />
<missing-glyph horiz-adv-x="257" />
<glyph unicode="&#xfb01;" horiz-adv-x="580" d="M165 0h-127l82 372h-80l25 111h79l4 20q38 174 181 174q64 0 108 -27l-46 -91q-17 14 -46 14q-51 0 -69 -70l-5 -20h99l-25 -111h-98zM525 535q-29 0 -48.5 19t-19.5 46q0 39 26.5 62.5t58.5 23.5q30 0 49.5 -19t19.5 -46q0 -39 -27 -62.5t-59 -23.5zM463 0h-127l107 483 h127z" />
<glyph unicode="&#xfb02;" horiz-adv-x="580" d="M165 0h-127l82 372h-80l25 111h79l4 20q38 174 181 174q64 0 108 -27l-46 -91q-17 14 -46 14q-51 0 -69 -70l-5 -20h99l-25 -111h-98zM463 0h-127l147 667h127z" />
<glyph unicode="&#xfb03;" horiz-adv-x="907" d="M165 0h-127l82 372h-80l25 111h79l4 20q42 174 181 174q87 0 134 -48l-64 -75q-20 19 -54 19q-28 0 -44 -17t-25 -53l-5 -20h99l-25 -111h-98zM492 0h-127l82 372h-80l25 111h79l4 20q38 174 181 174q64 0 108 -27l-46 -91q-17 14 -46 14q-51 0 -69 -70l-5 -20h99 l-25 -111h-98zM853 535q-29 0 -48.5 19t-19.5 46q0 39 26.5 62.5t58.5 23.5q30 0 49.5 -19t19.5 -46q0 -39 -27 -62.5t-59 -23.5zM791 0h-127l107 483h127z" />
<glyph unicode="&#xfb04;" horiz-adv-x="907" d="M165 0h-127l82 372h-80l25 111h79l4 20q42 174 181 174q87 0 134 -48l-64 -75q-20 19 -54 19q-28 0 -44 -17t-25 -53l-5 -20h99l-25 -111h-98zM492 0h-127l82 372h-80l25 111h79l4 20q38 174 181 174q64 0 108 -27l-46 -91q-17 14 -46 14q-51 0 -69 -70l-5 -20h99 l-25 -111h-98zM791 0h-127l147 667h127z" />
<glyph horiz-adv-x="1000" />
<glyph horiz-adv-x="1000" />
<glyph unicode="&#xd;" horiz-adv-x="1000" />
<glyph unicode=" "  horiz-adv-x="257" />
<glyph unicode="&#x09;" horiz-adv-x="257" />
<glyph unicode="&#xa0;" horiz-adv-x="257" />
<glyph unicode="!" horiz-adv-x="255" d="M178 218h-113l79 449h153zM82 -12q-31 0 -52.5 22t-21.5 53q0 36 26.5 62t62.5 26q31 0 52.5 -22t21.5 -53q0 -36 -26.5 -62t-62.5 -26z" />
<glyph unicode="&#x22;" horiz-adv-x="406" d="M169 375h-56q8 202 9 222q1 34 23.5 57t55.5 23q25 0 43 -17.5t18 -44.5q0 -13 -7 -30zM351 375h-56q8 202 9 222q1 34 24 57t56 23q24 0 42 -17.5t18 -44.5q0 -18 -7 -30z" />
<glyph unicode="#" horiz-adv-x="618" d="M285 0h-95l95 170h-95l-94 -170h-94l95 170h-97l44 81h98l91 165h-97l42 80h100l94 171h94l-94 -171h94l94 171h95l-95 -171h97l-42 -80h-100l-92 -165h101l-43 -81h-103zM329 251l92 165h-94l-91 -165h93z" />
<glyph unicode="$" horiz-adv-x="614" d="M311 -12h-8l-19 -88h-94l22 98q-138 28 -203 115l88 105q51 -68 143 -93l34 156q-38 14 -64.5 27.5t-54.5 34.5t-42.5 50.5t-14.5 66.5q0 87 71.5 152t189.5 65h4l20 91h94l-23 -102q106 -25 171 -97l-89 -102q-41 48 -111 70l-31 -140q38 -14 65.5 -27.5t56 -35 t43.5 -51t15 -66.5q0 -95 -71.5 -162t-191.5 -67zM423 189q0 32 -62 59l-30 -134q45 2 68.5 24.5t23.5 50.5zM248 486q0 -29 60 -56l27 122q-37 -1 -62 -20t-25 -46z" />
<glyph unicode="%" horiz-adv-x="758" d="M151 0h-75l573 667h76zM530 -12q-67 0 -113.5 38t-46.5 101q0 85 54.5 139.5t130.5 54.5q66 0 113 -38.5t47 -100.5q0 -84 -54.5 -139t-130.5 -55zM533 66q38 0 64.5 30t26.5 78q0 29 -20.5 48.5t-51.5 19.5q-38 0 -64.5 -30t-26.5 -77q0 -30 20 -49.5t52 -19.5zM242 345 q-67 0 -113.5 38t-46.5 100q0 85 54.5 139.5t130.5 54.5q66 0 113 -38t47 -100q0 -85 -54.5 -139.5t-130.5 -54.5zM245 423q38 0 64.5 30t26.5 77q0 30 -20.5 49.5t-51.5 19.5q-38 0 -65 -30t-27 -78q0 -29 20.5 -48.5t52.5 -19.5z" />
<glyph unicode="&#x26;" horiz-adv-x="647" d="M567 0h-152q-15 18 -28 37q-83 -49 -166 -49q-97 0 -156.5 44t-59.5 132t51 138t140 83q-17 56 -17 105q0 79 59 133t144 54q74 0 124 -35.5t50 -99.5q0 -34 -12.5 -62t-29.5 -46t-48.5 -35.5t-54.5 -26.5t-62 -23q14 -28 37 -68q36 -66 46 -81q55 60 90 122l91 -57 q-64 -91 -127 -151q19 -29 81 -114zM242 88q42 0 90 29q-36 53 -56 90q-37 70 -48 94q-83 -46 -83 -122q0 -43 27.5 -67t69.5 -24zM307 491q0 -30 11 -65q61 21 92.5 44t31.5 60q0 27 -15.5 41t-39.5 14q-31 0 -55.5 -25t-24.5 -69z" />
<glyph unicode="'" horiz-adv-x="225" d="M169 375h-56q8 202 9 222q1 34 23.5 57t55.5 23q25 0 43 -17.5t18 -44.5q0 -13 -7 -30z" />
<glyph unicode="(" horiz-adv-x="297" d="M195 -146l-92 -53q-80 122 -80 306q0 156 73.5 309.5t200.5 268.5l66 -68q-206 -248 -206 -545q0 -104 38 -218z" />
<glyph unicode=")" horiz-adv-x="298" d="M101 632l92 53q80 -122 80 -306q0 -156 -73.5 -309.5t-200.5 -268.5l-66 68q206 248 206 545q0 104 -38 218z" />
<glyph unicode="*" horiz-adv-x="351" d="M234 366h-65l31 114l-106 -48l-18 57l108 38l-86 60l43 50l79 -68l19 108h64l-31 -113l106 48l19 -58l-107 -38l85 -60l-44 -50l-79 68z" />
<glyph unicode="+" horiz-adv-x="504" d="M487 298h-180l-45 -203h-86l45 203h-180l17 79h180l43 196h87l-43 -196h180z" />
<glyph unicode="," horiz-adv-x="255" d="M174 69q0 -56 -42 -113t-105 -87l-45 47q76 36 98 84h-11q-26 0 -43.5 17t-17.5 48q0 35 27.5 60.5t61.5 25.5q32 0 54.5 -21.5t22.5 -60.5z" />
<glyph unicode="-" horiz-adv-x="300" d="M258 188h-240l23 108h240z" />
<glyph unicode="." horiz-adv-x="257" d="M82 -12q-31 0 -52.5 22t-21.5 53q0 36 26.5 62t62.5 26q31 0 52.5 -22t21.5 -53q0 -36 -26.5 -62t-62.5 -26z" />
<glyph unicode="/" horiz-adv-x="329" d="M35 -20h-95l393 707h96z" />
<glyph unicode="0" horiz-adv-x="620" d="M284 -12q-110 0 -175.5 71t-65.5 198q0 108 41 204t118.5 156t172.5 60q110 0 175 -70.5t65 -197.5q0 -109 -41 -204.5t-118 -156t-172 -60.5zM297 114q52 0 93.5 49.5t61 117t19.5 135.5q0 62 -27 98.5t-83 36.5q-77 0 -125.5 -96.5t-48.5 -204.5q0 -63 27 -99.5 t83 -36.5z" />
<glyph unicode="1" horiz-adv-x="411" d="M291 0h-142l106 484l-135 -113l-63 85l257 211h124z" />
<glyph unicode="2" horiz-adv-x="600" d="M495 0h-502l29 132q98 55 154.5 89t116 73t89.5 66.5t49 56.5t19 57q0 36 -33.5 57t-86.5 21q-95 0 -166 -60l-60 102q44 39 107.5 61t129.5 22q108 0 183 -51.5t75 -142.5q0 -93 -89.5 -180t-259.5 -178h272z" />
<glyph unicode="3" horiz-adv-x="587" d="M279 -12q-94 0 -174.5 37t-117.5 102l95 86q30 -47 85 -73t111 -26q57 0 87.5 25.5t30.5 66.5q0 70 -122 70q-60 0 -80 -2l28 128q11 -1 94 -1q130 0 130 77q0 33 -35 53t-97 20q-93 0 -162 -54l-51 97q91 83 227 83q121 0 192.5 -46t71.5 -128q0 -64 -55 -110t-125 -55 q125 -31 125 -146q0 -88 -75 -146t-183 -58z" />
<glyph unicode="4" horiz-adv-x="597" d="M432 0h-142l30 138h-319l28 124l346 405h204l-89 -404h85l-27 -125h-86zM347 263l62 278l-242 -278h180z" />
<glyph unicode="5" horiz-adv-x="608" d="M296 -12q-191 0 -278 129l101 89q57 -92 179 -92q57 0 91.5 31.5t34.5 77.5q0 42 -34.5 65.5t-91.5 23.5q-69 0 -122 -40l-92 37l79 358h458l-27 -125h-316l-35 -157q54 43 133 43q85 0 141 -50.5t56 -138.5q0 -105 -77.5 -178t-199.5 -73z" />
<glyph unicode="6" horiz-adv-x="608" d="M301 -12q-123 0 -192.5 68t-69.5 190q0 111 40.5 207.5t124 160t194.5 63.5q140 0 223 -90l-88 -101q-48 65 -144 65q-68 0 -116.5 -47.5t-70.5 -116.5q-4 -10 -9 -26q29 30 76 50t97 20q91 0 151.5 -50t60.5 -134q0 -107 -81.5 -183t-195.5 -76zM301 114q54 0 91 33.5 t37 81.5q0 40 -36.5 64t-91.5 24q-67 0 -122 -50q-1 -8 -1 -35q0 -53 34.5 -85.5t88.5 -32.5z" />
<glyph unicode="7" horiz-adv-x="545" d="M225 0h-163l357 542h-329l27 125h501l-22 -99z" />
<glyph unicode="8" horiz-adv-x="606" d="M285 -12q-114 0 -192 45.5t-78 133.5q0 66 48.5 117.5t136.5 73.5q-44 19 -72.5 54.5t-28.5 79.5q0 62 40.5 105.5t98 61.5t123.5 18q105 0 182.5 -44.5t77.5 -126.5q0 -65 -47 -112t-126 -63q50 -26 80.5 -65t30.5 -86q0 -87 -81 -139.5t-193 -52.5zM337 399q59 4 95 25 t36 55q0 31 -33.5 51t-82.5 20q-46 0 -78.5 -20.5t-32.5 -54.5q0 -25 30 -46.5t66 -29.5zM292 114q48 0 86 23t38 58q0 30 -32 53t-74 33q-62 -3 -103 -26.5t-41 -61.5t34.5 -58.5t91.5 -20.5z" />
<glyph unicode="9" horiz-adv-x="608" d="M345 678q123 0 192.5 -68t69.5 -190q0 -82 -24 -158.5t-68 -137.5t-113 -98t-153 -37q-141 0 -223 90l87 101q50 -65 145 -65q68 0 116 47.5t71 116.5q6 14 8 26q-29 -30 -76 -50t-97 -20q-91 0 -151 50t-60 134q0 106 81.5 182.5t194.5 76.5zM345 552q-54 0 -91 -33.5 t-37 -81.5q0 -40 37 -64t92 -24q68 0 121 50q1 8 1 35q0 53 -34.5 85.5t-88.5 32.5z" />
<glyph unicode=":" horiz-adv-x="246" d="M82 -12q-31 0 -52.5 22t-21.5 53q0 36 26.5 62t62.5 26q31 0 52.5 -22t21.5 -53q0 -36 -26.5 -62t-62.5 -26zM156 328q-31 0 -52 22t-21 53q0 36 26.5 62t62.5 26q31 0 52 -22t21 -53q0 -36 -26.5 -62t-62.5 -26z" />
<glyph unicode=";" horiz-adv-x="255" d="M174 69q0 -56 -42 -113t-105 -87l-45 47q76 36 98 84h-11q-26 0 -43.5 17t-17.5 48q0 35 27.5 60.5t61.5 25.5q32 0 54.5 -21.5t22.5 -60.5zM156 328q-31 0 -52 22t-21 53q0 36 26.5 62t62.5 26q31 0 52 -22t21 -53q0 -36 -26.5 -62t-62.5 -26z" />
<glyph unicode="&#x3c;" horiz-adv-x="504" d="M440 90l-402 199l21 92l490 199l-22 -98l-388 -152l321 -150z" />
<glyph unicode="=" horiz-adv-x="504" d="M507 389h-446l17 79h446zM466 201h-447l18 78h446z" />
<glyph unicode="&#x3e;" horiz-adv-x="504" d="M485 289l-491 -199l22 98l389 150l-322 152l20 90l402 -199z" />
<glyph unicode="?" horiz-adv-x="456" d="M285 236l-116 -32q-17 31 -17 70q0 50 30.5 85.5t66.5 52t66.5 39t30.5 48.5q0 53 -81 53q-69 0 -122 -48l-60 98q89 75 203 75q90 0 150.5 -40t60.5 -108q0 -49 -23 -85t-55.5 -56t-65.5 -37t-56 -38t-23 -49q0 -16 11 -28zM180 -12q-31 0 -52.5 22t-21.5 53 q0 36 26.5 62t62.5 26q31 0 52 -22t21 -53q0 -36 -26 -62t-62 -26z" />
<glyph unicode="@" horiz-adv-x="783" d="M372 -70q-136 0 -226.5 90.5t-90.5 223.5q0 104 55.5 195.5t147.5 145t194 53.5q141 0 228 -88.5t87 -217.5q0 -116 -62 -181.5t-136 -65.5q-42 0 -66.5 21.5t-30.5 52.5l-1 6q-26 -37 -65 -58.5t-79 -21.5q-71 0 -113 47t-42 121q0 99 69 172t157 73t125 -67l11 53h113 l-51 -244q-3 -15 -3 -24q0 -45 37 -45q35 0 64.5 41.5t29.5 119.5q0 119 -75 193t-201 74q-141 0 -247 -106t-106 -247q0 -118 80 -198t202 -80q95 0 182 55l21 -30q-98 -63 -208 -63zM371 175q64 0 111 66l25 116q-9 20 -29.5 35.5t-51.5 15.5q-58 0 -97.5 -44t-39.5 -101 q0 -39 22 -63.5t60 -24.5z" />
<glyph unicode="A" horiz-adv-x="684" d="M634 0h-154l-17 113h-286l-66 -113h-169l404 667h178zM452 238l-41 287l-167 -287h208z" />
<glyph unicode="B" horiz-adv-x="663" d="M376 0h-364l147 667h324q84 0 132.5 -46.5t48.5 -113.5q0 -66 -45.5 -117t-106.5 -57q45 -12 70.5 -50t25.5 -84q0 -80 -58 -139.5t-174 -59.5zM422 402q48 0 69 23t21 57q0 25 -19.5 42.5t-47.5 17.5h-171l-31 -140h179zM366 125q46 0 73 25t27 62q0 29 -20 47t-53 18 h-178l-33 -152h184z" />
<glyph unicode="C" horiz-adv-x="687" d="M372 -12q-141 0 -234.5 82.5t-93.5 216.5q0 172 114 281.5t274 109.5q115 0 189.5 -53t106.5 -136l-136 -46q-19 52 -63.5 80.5t-103.5 28.5q-96 0 -164 -73.5t-68 -182.5q0 -79 51 -130.5t136 -51.5q43 0 86 21t71 56l110 -74q-53 -68 -127 -98.5t-148 -30.5z" />
<glyph unicode="D" horiz-adv-x="718" d="M274 0h-262l147 667h258q116 0 202.5 -80.5t86.5 -205.5q0 -55 -14.5 -107.5t-47.5 -102.5t-82 -87.5t-123 -60.5t-165 -23zM274 542l-92 -417h118q117 0 188 71.5t71 174.5q0 73 -47.5 122t-120.5 49h-117z" />
<glyph unicode="E" horiz-adv-x="583" d="M484 0h-472l147 667h472l-28 -125h-329l-31 -140h322l-27 -125h-323l-33 -152h329z" />
<glyph unicode="F" horiz-adv-x="571" d="M154 0h-142l147 667h472l-28 -125h-329l-31 -140h322l-27 -125h-323z" />
<glyph unicode="G" horiz-adv-x="720" d="M372 -12q-140 0 -234 82t-94 217q0 169 114 280t287 111q100 0 171 -47t104 -118l-130 -56q-17 42 -63 68.5t-102 26.5q-94 0 -163 -74t-69 -182q0 -78 51 -130t136 -52q75 0 133 51l18 80h-177l28 125h319l-58 -259q-104 -123 -271 -123z" />
<glyph unicode="H" horiz-adv-x="731" d="M612 0h-143l62 281h-315l-62 -281h-142l147 667h142l-57 -262h314l58 262h143z" />
<glyph unicode="I" horiz-adv-x="274" d="M154 0h-142l147 667h142z" />
<glyph unicode="J" horiz-adv-x="486" d="M165 -12q-58 0 -110.5 19t-83.5 56l77 107q36 -56 107 -56q47 0 77 28.5t41 78.5l98 446h143l-99 -448q-26 -118 -87 -174.5t-163 -56.5z" />
<glyph unicode="K" horiz-adv-x="636" d="M583 0h-167l-146 273l-70 -68l-46 -205h-142l147 667h142l-63 -286l291 286h183l-334 -313z" />
<glyph unicode="L" horiz-adv-x="515" d="M431 0h-425l147 667h143l-120 -542h282z" />
<glyph unicode="M" horiz-adv-x="855" d="M735 0h-143l106 481l-294 -481h-62l-82 481l-106 -481h-142l147 667h194l70 -417l254 417h205z" />
<glyph unicode="N" horiz-adv-x="729" d="M609 0h-137l-220 442l-98 -442h-142l147 667h146l214 -425l95 425h142z" />
<glyph unicode="O" horiz-adv-x="765" d="M372 -12q-142 0 -235 82t-93 217q0 164 112 277.5t276 113.5q141 0 234.5 -82t93.5 -216q0 -164 -112 -278t-276 -114zM380 114q97 0 164 74.5t67 181.5q0 83 -53 132.5t-135 49.5q-97 0 -163.5 -74.5t-66.5 -181.5q0 -83 52.5 -132.5t134.5 -49.5z" />
<glyph unicode="P" horiz-adv-x="625" d="M154 0h-142l147 667h305q79 0 132.5 -54t53.5 -131q0 -32 -8.5 -63.5t-29 -65t-51 -58.5t-79 -41t-108.5 -16h-167zM382 363h1q53 0 86 29.5t33 74.5q0 33 -23 54t-60 21h-145l-40 -179h148z" />
<glyph unicode="Q" horiz-adv-x="765" d="M372 -12q-142 0 -235 82t-93 217q0 164 112 277.5t276 113.5q141 0 234.5 -82t93.5 -216q0 -95 -40 -176.5t-110 -135.5l34 -54l-114 -55l-32 49q-65 -20 -126 -20zM380 114q23 0 48 5l-57 92l114 55l53 -84q73 75 73 188q0 83 -53 132.5t-135 49.5q-97 0 -163.5 -74.5 t-66.5 -181.5q0 -83 52.5 -132.5t134.5 -49.5z" />
<glyph unicode="R" horiz-adv-x="643" d="M553 0h-158l-79 237h-110l-52 -237h-142l147 667h285q84 0 145 -52t61 -136q0 -89 -54 -153t-136 -79zM382 362h1q55 0 87 28.5t32 74.5q0 33 -25.5 55t-59.5 22h-143l-40 -180h148z" />
<glyph unicode="S" horiz-adv-x="600" d="M301 -12q-97 0 -178 34.5t-124 90.5l88 105q35 -47 96 -75.5t129 -28.5q50 0 75.5 23t25.5 52q0 19 -18 34t-46.5 27t-63 23.5t-69.5 27.5t-63.5 36t-46.5 51.5t-18 71.5q0 87 71.5 152t189.5 65q80 0 150.5 -28.5t115.5 -79.5l-89 -102q-36 41 -90.5 63t-108.5 22 q-38 0 -63.5 -19.5t-25.5 -46.5q0 -23 33.5 -42t81.5 -35.5t96 -38t81.5 -60.5t33.5 -93q0 -95 -71.5 -162t-191.5 -67z" />
<glyph unicode="T" horiz-adv-x="582" d="M309 0h-143l120 542h-195l27 125h532l-27 -125h-195z" />
<glyph unicode="U" horiz-adv-x="734" d="M356 -12q-140 0 -215 63t-75 170q0 19 5 46l88 400h144l-87 -397q-4 -12 -4 -33q1 -53 38.5 -88.5t105.5 -35.5q138 0 173 157l87 397h145l-89 -400q-29 -132 -103 -205.5t-213 -73.5z" />
<glyph unicode="V" horiz-adv-x="684" d="M377 0h-178l-110 667h154l72 -512l297 512h169z" />
<glyph unicode="W" horiz-adv-x="918" d="M673 0h-151l-16 458l-217 -458h-151l-44 667h156l10 -482l233 482h111l20 -482l223 482h163z" />
<glyph unicode="X" horiz-adv-x="668" d="M617 0h-161l-121 237l-214 -237h-178l322 351l-160 316h161l109 -221l195 221h179l-303 -333z" />
<glyph unicode="Y" horiz-adv-x="645" d="M340 0h-142l60 273l-169 394h154l106 -267l224 267h169l-341 -394z" />
<glyph unicode="Z" horiz-adv-x="592" d="M496 0h-508l25 115l401 427h-306l27 125h501l-24 -114l-403 -428h315z" />
<glyph unicode="[" horiz-adv-x="280" d="M166 -190h-216l193 868h216l-19 -85h-124l-155 -698h124z" />
<glyph unicode="\" horiz-adv-x="329" d="M178 -20l-80 707h92l80 -707h-92z" />
<glyph unicode="]" horiz-adv-x="280" d="M136 -190h-214l18 85h124l155 698h-124l19 85h215z" />
<glyph unicode="^" horiz-adv-x="441" d="M441 333h-89l-53 247l-162 -247h-99l230 334h93z" />
<glyph unicode="_" horiz-adv-x="564" d="M485 -125h-569l19 85h569z" />
<glyph unicode="`" horiz-adv-x="251" d="M320 556h-89l-130 144h117z" />
<glyph unicode="a" d="M281 495q103 0 154 -76l13 64h128l-107 -483h-128l14 60q-61 -72 -145 -72q-83 0 -133.5 53t-50.5 147q0 75 28.5 144t88.5 116t138 47zM301 382q-61 0 -101.5 -50t-40.5 -118q0 -51 30 -82t77 -31q65 0 111 58l37 167q-36 56 -113 56z" />
<glyph unicode="b" d="M304 -12q-103 0 -154 76l-14 -64h-127l147 667h127l-54 -244q61 72 146 72q83 0 133 -53t50 -147q0 -75 -28.5 -144t-88 -116t-137.5 -47zM283 101q62 0 102 49.5t40 118.5q0 51 -30 82t-77 31q-64 0 -110 -58l-38 -167q36 -56 113 -56z" />
<glyph unicode="c" horiz-adv-x="499" d="M265 -12q-108 0 -172.5 60.5t-64.5 159.5q0 120 81.5 203.5t199.5 83.5q139 0 196 -95l-95 -73q-32 55 -101 55q-67 0 -109.5 -49t-42.5 -118q0 -53 34.5 -83.5t86.5 -30.5q60 0 101 48l69 -84q-71 -77 -183 -77z" />
<glyph unicode="d" d="M281 495q103 0 154 -76l54 248h128l-148 -667h-128l14 60q-61 -72 -145 -72q-83 0 -133.5 53t-50.5 147q0 75 28.5 144t88.5 116t138 47zM301 382q-61 0 -101.5 -50t-40.5 -118q0 -51 30 -82t77 -31q65 0 111 58l37 167q-36 56 -113 56z" />
<glyph unicode="e" horiz-adv-x="553" d="M278 -12q-115 0 -182.5 58t-67.5 159q0 120 80 205t199 85q95 0 156 -58t61 -157q0 -42 -10 -80h-359v-12q0 -35 35.5 -65.5t97.5 -30.5q76 0 122 35l39 -89q-73 -50 -171 -50zM409 288h1q1 2 1 10q0 39 -29 66t-83 27q-50 0 -86 -30.5t-44 -72.5h240z" />
<glyph unicode="f" horiz-adv-x="327" d="M165 0h-127l82 372h-80l25 111h79l4 20q42 174 181 174q87 0 134 -48l-64 -75q-20 19 -54 19q-28 0 -44 -17t-25 -53l-5 -20h99l-25 -111h-98z" />
<glyph unicode="g" horiz-adv-x="585" d="M212 -196q-154 0 -234 84l75 84q23 -31 65.5 -47.5t91.5 -16.5q112 0 137 124l10 46q-58 -74 -148 -74q-79 0 -130.5 49t-51.5 147q0 117 69 206t181 89q45 0 87.5 -20.5t68.5 -55.5l15 64h127l-100 -451q-12 -53 -33.5 -93.5t-47 -65.5t-57 -41t-62 -22t-63.5 -6z M269 117q63 0 109 56l34 150q-37 59 -118 59q-59 0 -97 -45.5t-38 -111.5q0 -49 30 -78.5t80 -29.5z" />
<glyph unicode="h" horiz-adv-x="580" d="M463 0h-127l64 293q4 16 4 28q0 61 -83 61q-56 0 -113 -57l-71 -325h-128l147 667h128l-55 -246q78 74 161 74q70 0 110.5 -33.5t40.5 -89.5q0 -15 -5 -40z" />
<glyph unicode="i" horiz-adv-x="253" d="M198 535q-29 0 -48.5 19t-19.5 46q0 39 26.5 62.5t58.5 23.5q30 0 49.5 -19t19.5 -46q0 -39 -27 -62.5t-59 -23.5zM136 0h-127l107 483h127z" />
<glyph unicode="j" horiz-adv-x="253" d="M-53 -196q-92 0 -134 41l53 90q23 -27 62 -27q59 0 77 79l111 496h127l-110 -496q-19 -88 -63 -135.5t-123 -47.5zM198 535q-29 0 -48.5 19t-19.5 46q0 39 26.5 62.5t58.5 23.5q30 0 49.5 -19t19.5 -46q0 -39 -27 -62.5t-59 -23.5z" />
<glyph unicode="k" horiz-adv-x="536" d="M481 0h-154l-89 189l-75 -65l-27 -124h-127l147 667h127l-87 -391l225 207h161l-240 -219z" />
<glyph unicode="l" horiz-adv-x="253" d="M136 0h-127l147 667h127z" />
<glyph unicode="m" horiz-adv-x="853" d="M736 0h-128l66 296q3 15 3 25q0 29 -20 45t-49 16q-52 0 -100 -56l-72 -326h-128l66 296q4 20 4 27q-1 27 -19.5 43t-51.5 16q-49 0 -99 -56l-72 -326h-127l107 483h127l-14 -62q71 74 147 74q63 0 99.5 -33.5t36.5 -60.5v-1q78 95 164 95q58 0 98.5 -33t40.5 -90 q0 -16 -6 -40z" />
<glyph unicode="n" horiz-adv-x="579" d="M463 0h-128l65 293q4 18 4 28q0 61 -83 61q-55 0 -113 -56l-72 -326h-127l107 483h127l-14 -62q78 74 161 74q70 0 110.5 -33.5t40.5 -89.5q0 -15 -5 -40z" />
<glyph unicode="o" horiz-adv-x="575" d="M266 -12q-113 0 -176 61t-63 159q0 116 80 201.5t199 85.5q113 0 176.5 -61t63.5 -159q0 -116 -80 -201.5t-200 -85.5zM271 101q62 0 102.5 50t40.5 118q0 53 -30 83t-82 30q-62 0 -103 -50.5t-41 -117.5q0 -52 30 -82.5t83 -30.5z" />
<glyph unicode="p" horiz-adv-x="583" d="M304 -12q-103 0 -154 76l-55 -248h-127l148 667h127l-14 -60q61 72 146 72q83 0 133 -53t50 -147q0 -75 -28.5 -144t-88 -116t-137.5 -47zM283 101q62 0 102 49.5t40 118.5q0 51 -30 82t-77 31q-64 0 -110 -58l-38 -167q36 -56 113 -56z" />
<glyph unicode="q" horiz-adv-x="583" d="M281 495q103 0 154 -76l13 64h128l-148 -667h-128l55 244q-61 -72 -145 -72q-83 0 -133.5 53t-50.5 147q0 75 28.5 144t88.5 116t138 47zM301 382q-61 0 -101.5 -50t-40.5 -118q0 -51 30 -82t77 -31q65 0 111 58l37 167q-36 56 -113 56z" />
<glyph unicode="r" horiz-adv-x="360" d="M136 0h-127l107 483h127l-14 -63q68 75 171 75l-28 -126q-24 6 -46 6q-69 0 -120 -58z" />
<glyph unicode="s" horiz-adv-x="477" d="M219 -12q-67 0 -127 22.5t-100 64.5l71 89q24 -29 72 -52.5t97 -23.5q31 0 50.5 14.5t19.5 35.5q0 17 -25.5 30.5t-61.5 24.5t-72 26t-61.5 44t-25.5 69q0 67 53.5 115t145.5 48q61 0 115.5 -21t89.5 -57l-66 -85q-19 24 -59.5 43.5t-82.5 19.5q-33 0 -51.5 -13 t-18.5 -32q0 -16 25.5 -28t61.5 -23.5t72 -26.5t61.5 -44.5t25.5 -70.5q0 -72 -56.5 -120.5t-152.5 -48.5z" />
<glyph unicode="t" horiz-adv-x="338" d="M203 -12q-67 0 -105.5 26.5t-38.5 78.5q0 17 4 33l54 246h-80l25 111h80l29 132h127l-29 -132h98l-25 -111h-98l-47 -212q-1 -6 -1 -17q0 -42 47 -42q23 0 35 10l4 -102q-29 -21 -79 -21z" />
<glyph unicode="u" horiz-adv-x="579" d="M115 483h127l-64 -292q-4 -18 -4 -28q0 -31 22.5 -46.5t59.5 -15.5q57 0 114 57l72 325h127l-107 -483h-127l14 62q-78 -74 -161 -74q-70 0 -111 33.5t-41 89.5q0 20 6 40z" />
<glyph unicode="v" horiz-adv-x="513" d="M271 0h-137l-87 483h132l51 -336l202 336h140z" />
<glyph unicode="w" horiz-adv-x="770" d="M569 0h-136l-30 329l-174 -329h-136l-40 483h128l18 -325l178 325h113l33 -325l163 325h137z" />
<glyph unicode="x" horiz-adv-x="504" d="M450 0h-137l-75 163l-147 -163h-145l226 248l-109 235h138l66 -148l133 148h146l-214 -235z" />
<glyph unicode="y" horiz-adv-x="513" d="M-48 -184l42 110q15 -7 49 -7q38 0 60 33l30 46l-86 485h132l51 -336l202 336h140l-352 -562q-39 -64 -82.5 -90.5t-104.5 -26.5q-46 0 -81 12z" />
<glyph unicode="z" horiz-adv-x="479" d="M383 0h-395l21 95l275 277h-213l24 111h391l-21 -91l-279 -281h220z" />
<glyph unicode="{" horiz-adv-x="288" d="M174 -190h-45q-57 0 -98 36t-41 92q0 18 4 31l39 172q2 12 2 18q0 22 -10.5 35.5t-29.5 13.5l16 72q53 0 67 67l38 171q36 160 191 160h60l-18 -85h-61q-63 0 -80 -74l-43 -195q-18 -75 -65 -89q29 -17 29 -56q0 -18 -4 -34l-39 -175q-2 -12 -2 -19q0 -25 16 -40.5 t40 -15.5h54z" />
<glyph unicode="|" horiz-adv-x="216" d="M171 -20h-85v707h85v-707z" />
<glyph unicode="}" horiz-adv-x="288" d="M113 678h45q57 0 98 -36t41 -92q0 -19 -4 -31l-38 -172q-2 -12 -2 -18q0 -22 10.5 -35.5t28.5 -13.5l-16 -72q-53 0 -67 -67l-38 -171q-18 -80 -67.5 -120t-122.5 -40h-61l19 85h60q63 0 80 74l44 195q16 74 65 90q-29 15 -29 55q0 18 4 34l38 175q2 12 2 19 q0 25 -15.5 40.5t-39.5 15.5h-54z" />
<glyph unicode="~" horiz-adv-x="510" d="M491 667l84 -10q-53 -245 -189 -245q-49 0 -73 27.5t-26 60.5t-10 60.5t-28 27.5q-29 0 -57 -52.5t-42 -123.5l-85 10q52 244 189 244q40 0 63.5 -18t30 -44t9.5 -52.5t10.5 -44.5t24.5 -18q29 0 57 53.5t42 124.5z" />
<glyph unicode="&#xa1;" horiz-adv-x="255" d="M76 265h112l-78 -449h-154zM172 495q31 0 52 -22t21 -53q0 -36 -26.5 -62t-62.5 -26q-31 0 -52 22t-21 53q0 36 26.5 62t62.5 26z" />
<glyph unicode="&#xa2;" horiz-adv-x="499" d="M164 -100l22 98q-74 20 -116 75.5t-42 134.5q0 116 77 199t191 88l16 70h92l-18 -80q80 -21 119 -85l-95 -73q-18 29 -50 44l-59 -268q46 9 78 46l69 -84q-67 -73 -173 -77l-19 -88h-92zM157 215q0 -69 55 -99l58 261q-51 -13 -82 -58.5t-31 -103.5z" />
<glyph unicode="&#xa3;" horiz-adv-x="550" d="M28 269l18 81h79q-33 68 -33 110q0 90 77 153.5t185 63.5q86 0 150.5 -35.5t84.5 -98.5l-128 -53q-7 33 -35 52t-66 19q-48 0 -81 -33t-33 -83q0 -14 3 -27.5t6.5 -22.5t10 -23t9.5 -22h142l-19 -81h-113q-7 -41 -35 -77.5t-58 -52.5q24 8 45 8q30 0 73.5 -16.5 t69.5 -16.5q47 0 81 36l31 -113q-48 -50 -123 -50q-47 0 -119 22t-100 22q-48 0 -112 -38l-26 97q61 27 100 72.5t39 94.5q0 8 -1 12h-122z" />
<glyph unicode="&#xa4;" horiz-adv-x="522" d="M461 136l-34 -27l-37 49q-61 -44 -132 -44q-83 0 -145 59l-79 -66l-23 31l77 63q-31 56 -31 108q0 95 80 173l-37 49l32 26l39 -48q60 43 133 43q81 0 143 -57l78 64l25 -30l-78 -64q31 -51 31 -108q0 -91 -80 -173zM454 351q0 68 -43.5 110.5t-111.5 42.5 q-77 0 -135 -56.5t-58 -132.5q0 -68 43.5 -110.5t111.5 -42.5q77 0 135 56.5t58 132.5z" />
<glyph unicode="&#xa5;" horiz-adv-x="645" d="M341 0h-142l25 115h-230l18 78h229l18 80h-229l17 79h178l-135 315h154l106 -267l224 267h169l-273 -315h177l-18 -79h-227l-18 -80h227l-17 -78h-228z" />
<glyph unicode="&#xa6;" horiz-adv-x="216" d="M171 -20h-85v316h85v-316zM171 371h-85v316h85v-316z" />
<glyph unicode="&#xa7;" horiz-adv-x="484" d="M467 333q0 -49 -31.5 -89.5t-84.5 -58.5q61 -34 61 -99q0 -71 -57.5 -119t-147.5 -48q-155 0 -239 84l71 75q28 -32 73.5 -51t93.5 -19q35 0 57 17t22 42q0 26 -38 45.5t-83 32t-83 45.5t-38 83t32.5 87t95.5 54q-73 34 -73 106q0 68 55.5 112.5t142.5 44.5 q140 0 213 -73l-66 -70q-23 26 -61.5 40t-79.5 14q-37 0 -58 -15.5t-21 -38.5q0 -21 25 -35.5t61 -26t72 -26t61 -43.5t25 -70zM335 304q0 47 -69 68q-47 -6 -71 -26.5t-24 -48.5q0 -26 22 -41.5t65 -29.5q39 10 58 31.5t19 46.5z" />
<glyph unicode="&#xa8;" horiz-adv-x="295" d="M403 619q0 -30 -23.5 -53t-53.5 -23q-26 0 -43 17.5t-17 42.5q0 30 23.5 53t52.5 23q26 0 43.5 -17t17.5 -43zM191 619q0 -30 -23 -53t-53 -23q-25 0 -42.5 17.5t-17.5 42.5q0 30 23.5 53t52.5 23q26 0 43 -17t17 -43z" />
<glyph unicode="&#xa9;" horiz-adv-x="778" d="M754 334q0 -143 -101.5 -244t-244.5 -101q-142 0 -243 101t-101 244t100.5 244t243.5 101t244.5 -101t101.5 -244zM718 334q0 127 -91 218t-219 91q-127 0 -217.5 -91t-90.5 -218t90.5 -218t217.5 -91t218.5 91t91.5 218zM507 211l24 -34q-65 -54 -138 -54 q-87 0 -139.5 52t-52.5 132q0 100 70.5 169t162.5 69q111 0 160 -80l-38 -27q-37 67 -124 67q-71 0 -128 -57t-57 -140q0 -60 40 -102.5t106 -42.5q64 0 114 48z" />
<glyph unicode="&#xaa;" horiz-adv-x="414" d="M269 575q-41 0 -68.5 -33.5t-27.5 -79.5q0 -35 18.5 -53t49.5 -18q38 0 70 34l27 122q-22 28 -69 28zM358 640h93l-70 -314h-93l8 39q-40 -47 -94 -47q-53 0 -89 35t-36 98q0 82 49 139.5t120 57.5t104 -46z" />
<glyph unicode="&#xab;" horiz-adv-x="527" d="M263 63h-114l-120 180l200 177h122l-204 -182zM452 63h-113l-120 180l200 177h121l-204 -182z" />
<glyph unicode="&#xac;" horiz-adv-x="515" d="M524 468l-58 -267h-82l42 188h-365l17 79h446z" />
<glyph unicode="&#xad;" horiz-adv-x="300" d="M258 188h-240l23 108h240z" />
<glyph unicode="&#xae;" horiz-adv-x="494" d="M508 465q0 -88 -62.5 -150t-150.5 -62t-149.5 62t-61.5 150t62 150t150 62t150 -61.5t62 -150.5zM476 465q0 75 -53 127.5t-128 52.5t-127 -52t-52 -128q0 -75 52 -127.5t127 -52.5t128 53t53 127zM369 343h-40l-42 96h-44l-21 -96h-34l53 243h93q31 0 51 -18t20 -46 q0 -34 -25 -58t-55 -24zM369 519q0 37 -43 37h-57l-19 -86h64q24 0 39.5 14t15.5 35z" />
<glyph unicode="&#xaf;" horiz-adv-x="363" d="M439 591h-362l16 73h362z" />
<glyph unicode="&#xb0;" horiz-adv-x="311" d="M356 541q0 -55 -39.5 -94.5t-95.5 -39.5t-95.5 39t-39.5 95t39.5 96t95.5 40t95.5 -40t39.5 -96zM287 541q0 28 -19.5 47.5t-46.5 19.5q-28 0 -46.5 -19.5t-18.5 -47.5q0 -27 18.5 -46t45.5 -19t47 19t20 46z" />
<glyph unicode="&#xb1;" horiz-adv-x="504" d="M493 326h-180l-45 -203h-87l46 203h-180l17 79h180l44 196h86l-43 -196h179zM421 0h-446l17 79h446z" />
<glyph unicode="&#xb2;" horiz-adv-x="398" d="M400 421h-315l17 74q155 90 207 130.5t52 76.5q0 23 -18.5 35.5t-48.5 12.5q-67 0 -112 -43l-40 64q62 56 155 56q71 0 117 -31t46 -85q0 -53 -53 -102t-164 -111h173z" />
<glyph unicode="&#xb3;" horiz-adv-x="398" d="M428 533q0 -47 -43 -83t-115 -36q-60 0 -108 19.5t-71 53.5l60 59q39 -55 115 -55q32 0 49 15t17 38q0 43 -89 43q-27 0 -33 -1l16 76q24 -2 65 -2q72 0 72 47q0 21 -23 32t-56 11q-61 0 -104 -36l-33 60q61 53 146 53q76 0 122 -28t46 -78q0 -40 -29.5 -68.5 t-81.5 -32.5q34 -8 56 -30.5t22 -56.5z" />
<glyph unicode="&#xb4;" horiz-adv-x="251" d="M352 700l-194 -144h-91l166 144h119z" />
<glyph unicode="&#xb6;" horiz-adv-x="449" d="M326 -100h-63l157 705h-79l-156 -705h-63l94 423q-57 0 -97 44.5t-40 111.5q0 73 56.5 130.5t137.5 57.5h223z" />
<glyph unicode="&#xb7;" horiz-adv-x="257" d="M121 164q-31 0 -52.5 22t-21.5 53q0 36 26.5 61.5t62.5 25.5q31 0 52 -21.5t21 -52.5q0 -36 -26.5 -62t-61.5 -26z" />
<glyph unicode="&#xb8;" horiz-adv-x="221" d="M30 -195q-78 0 -119 41l35 47q38 -35 85 -35q22 0 35.5 9.5t13.5 25.5q0 24 -29 24q-18 0 -30 -14l-40 26l48 82h63l-39 -62q13 10 31 10q26 0 42.5 -16.5t16.5 -45.5q0 -41 -32 -66.5t-81 -25.5z" />
<glyph unicode="&#xb9;" horiz-adv-x="286" d="M265 421h-97l60 273l-80 -66l-44 59l166 134h83z" />
<glyph unicode="&#xba;" horiz-adv-x="405" d="M242 318q-75 0 -119 40.5t-44 105.5q0 77 57 130.5t133 53.5q74 0 118 -40.5t44 -105.5q0 -77 -56.5 -130.5t-132.5 -53.5zM244 392q43 0 68 34t25 77q0 32 -19 50.5t-51 18.5q-43 0 -68 -34t-25 -77q0 -32 19 -50.5t51 -18.5z" />
<glyph unicode="&#xbb;" horiz-adv-x="527" d="M77 420h114l120 -180l-200 -177h-122l204 182zM267 420h113l120 -180l-200 -177h-121l204 182z" />
<glyph unicode="&#xbc;" horiz-adv-x="833" d="M734 667l-574 -667h-76l573 667h77zM774 86h-53l-18 -86h-96l19 86h-197l15 65l213 249h134l-53 -239h52zM643 161l34 154l-135 -154h101zM231 267h-97l60 273l-80 -66l-44 59l166 134h83z" />
<glyph unicode="&#xbd;" horiz-adv-x="867" d="M734 667l-574 -667h-76l573 667h77zM776 0h-315l17 74q155 90 207 130.5t52 76.5q0 23 -18.5 35.5t-48.5 12.5q-67 0 -112 -43l-40 64q62 56 155 56q71 0 117 -31t46 -85q0 -53 -53 -102t-164 -111h173zM231 267h-97l60 273l-80 -66l-44 59l166 134h83z" />
<glyph unicode="&#xbe;" horiz-adv-x="921" d="M822 667l-574 -667h-76l573 667h77zM861 86h-53l-18 -86h-96l19 86h-197l15 65l213 249h134l-53 -239h52zM730 161l34 154l-135 -154h101zM394 379q0 -47 -43 -83t-115 -36q-60 0 -108 19.5t-71 53.5l60 59q39 -55 115 -55q32 0 49 15t17 38q0 43 -89 43q-27 0 -33 -1 l16 76q24 -2 65 -2q72 0 72 47q0 21 -23 32t-56 11q-61 0 -104 -36l-33 60q61 53 146 53q76 0 122 -28t46 -78q0 -40 -29.5 -68.5t-81.5 -32.5q34 -8 56 -30.5t22 -56.5z" />
<glyph unicode="&#xbf;" horiz-adv-x="398" d="M169 247l117 31q16 -29 16 -70q0 -40 -20 -71t-48.5 -48.5t-57 -32.5t-48.5 -33t-20 -40q0 -25 21 -39t61 -14q68 0 121 48l61 -98q-89 -75 -203 -75q-90 0 -151 40t-61 108q0 49 23 85t55.5 56.5t65.5 37t56 38t23 48.5q0 17 -11 29zM275 494q31 0 52 -22t21 -53 q0 -36 -26 -62t-62 -26q-31 0 -52.5 22t-21.5 53q0 36 26.5 62t62.5 26z" />
<glyph unicode="&#xc0;" horiz-adv-x="684" d="M532 728h-89l-130 144h117zM634 0h-154l-17 113h-286l-66 -113h-169l404 667h178zM452 238l-41 287l-167 -287h208z" />
<glyph unicode="&#xc1;" horiz-adv-x="684" d="M651 872l-194 -144h-91l166 144h119zM634 0h-154l-17 113h-286l-66 -113h-169l404 667h178zM452 238l-41 287l-167 -287h208z" />
<glyph unicode="&#xc2;" horiz-adv-x="684" d="M601 728h-76l-54 89l-90 -89h-80l124 144h114zM634 0h-154l-17 113h-286l-66 -113h-169l404 667h178zM452 238l-41 287l-167 -287h208z" />
<glyph unicode="&#xc3;" horiz-adv-x="684" d="M520 726q-24 0 -42 10.5t-27 23.5t-22.5 23.5t-28.5 10.5q-32 0 -45 -62h-68q13 67 41.5 100.5t79.5 33.5q30 0 50.5 -17t36 -33.5t34.5 -16.5q30 0 45 61h68q-14 -67 -42.5 -100.5t-79.5 -33.5zM634 0h-154l-17 113h-286l-66 -113h-169l404 667h178zM452 238l-41 287 l-167 -287h208z" />
<glyph unicode="&#xc4;" horiz-adv-x="684" d="M636 792q0 -30 -23.5 -53t-53.5 -23q-25 0 -42.5 17t-17.5 43q0 30 23.5 53t52.5 23q26 0 43.5 -17t17.5 -43zM424 792q0 -30 -23 -53t-53 -23q-26 0 -43 17t-17 43q0 30 23.5 53t52.5 23q26 0 43 -17t17 -43zM634 0h-154l-17 113h-286l-66 -113h-169l404 667h178z M452 238l-41 287l-167 -287h208z" />
<glyph unicode="&#xc5;" horiz-adv-x="684" d="M454 692q-43 0 -69.5 26.5t-26.5 69.5q0 46 34 80.5t81 34.5q43 0 69.5 -26.5t26.5 -69.5q0 -47 -34.5 -81t-80.5 -34zM459 751q20 0 35.5 15t15.5 35q0 19 -11.5 31t-30.5 12q-20 0 -35.5 -15t-15.5 -35q0 -19 11.5 -31t30.5 -12zM634 0h-154l-17 113h-286l-66 -113 h-169l404 667h178zM452 238l-41 287l-167 -287h208z" />
<glyph unicode="&#xc6;" horiz-adv-x="968" d="M872 0h-472l25 113h-230l-91 -113h-167l553 667h529l-27 -125h-330l-30 -140h322l-28 -125h-322l-34 -152h330zM453 238l61 280l-224 -280h163z" />
<glyph unicode="&#xc7;" horiz-adv-x="687" d="M372 -12q-14 0 -20 1l-25 -40q13 10 31 10q26 0 42.5 -16.5t16.5 -45.5q0 -41 -32 -66.5t-81 -25.5q-78 0 -119 41l35 47q38 -35 85 -35q22 0 35.5 9.5t13.5 25.5q0 24 -29 24q-18 0 -30 -14l-40 26l39 67q-111 22 -180.5 99.5t-69.5 191.5q0 172 114 281.5t274 109.5 q115 0 189.5 -53t106.5 -136l-136 -46q-19 52 -63.5 80.5t-103.5 28.5q-96 0 -164 -73.5t-68 -182.5q0 -79 51 -130.5t136 -51.5q43 0 86 21t71 56l110 -74q-53 -68 -127 -98.5t-148 -30.5z" />
<glyph unicode="&#xc8;" horiz-adv-x="583" d="M492 728h-89l-130 144h117zM484 0h-472l147 667h472l-28 -125h-329l-31 -140h322l-27 -125h-323l-33 -152h329z" />
<glyph unicode="&#xc9;" horiz-adv-x="583" d="M610 872l-194 -144h-91l166 144h119zM484 0h-472l147 667h472l-28 -125h-329l-31 -140h322l-27 -125h-323l-33 -152h329z" />
<glyph unicode="&#xca;" horiz-adv-x="583" d="M559 728h-76l-54 89l-90 -89h-80l124 144h114zM484 0h-472l147 667h472l-28 -125h-329l-31 -140h322l-27 -125h-323l-33 -152h329z" />
<glyph unicode="&#xcb;" horiz-adv-x="583" d="M597 792q0 -30 -23.5 -53t-53.5 -23q-26 0 -43 17t-17 43q0 30 23.5 53t52.5 23q26 0 43.5 -17t17.5 -43zM385 792q0 -30 -23 -53t-53 -23q-25 0 -42.5 17t-17.5 43q0 30 23.5 53t52.5 23q26 0 43 -17t17 -43zM484 0h-472l147 667h472l-28 -125h-329l-31 -140h322 l-27 -125h-323l-33 -152h329z" />
<glyph unicode="&#xcc;" horiz-adv-x="274" d="M326 728h-89l-130 144h117zM154 0h-142l147 667h142z" />
<glyph unicode="&#xcd;" horiz-adv-x="274" d="M448 872l-194 -144h-91l166 144h119zM154 0h-142l147 667h142z" />
<glyph unicode="&#xce;" horiz-adv-x="274" d="M394 728h-76l-54 89l-90 -89h-80l124 144h114zM154 0h-142l147 667h142z" />
<glyph unicode="&#xcf;" horiz-adv-x="274" d="M431 792q0 -30 -23.5 -53t-53.5 -23q-26 0 -43 17t-17 43q0 30 23.5 53t52.5 23q26 0 43.5 -17t17.5 -43zM219 792q0 -30 -23 -53t-53 -23q-25 0 -42.5 17t-17.5 43q0 30 23.5 53t52.5 23q26 0 43 -17t17 -43zM154 0h-142l147 667h142z" />
<glyph unicode="&#xd0;" horiz-adv-x="742" d="M299 0h-262l61 277h-82l25 114h82l61 276h258q116 0 202.5 -80.5t86.5 -205.5q0 -55 -14.5 -107.5t-47.5 -102.5t-82 -87.5t-123 -60.5t-165 -23zM327 125q117 1 187 72t70 174q0 73 -47.5 122t-120.5 49h-117l-34 -151h149l-26 -114h-148l-33 -152h120z" />
<glyph unicode="&#xd1;" horiz-adv-x="729" d="M541 726q-24 0 -42 10.5t-27 23.5t-22.5 23.5t-28.5 10.5q-32 0 -45 -62h-68q13 67 41.5 100.5t79.5 33.5q24 0 42 -10.5t27.5 -23t23 -23t28.5 -10.5q30 0 45 61h68q-14 -67 -42.5 -100.5t-79.5 -33.5zM609 0h-137l-220 442l-98 -442h-142l147 667h146l214 -425l95 425 h142z" />
<glyph unicode="&#xd2;" horiz-adv-x="765" d="M575 728h-89l-130 144h117zM372 -12q-142 0 -235 82t-93 217q0 164 112 277.5t276 113.5q141 0 234.5 -82t93.5 -216q0 -164 -112 -278t-276 -114zM380 114q97 0 164 74.5t67 181.5q0 83 -53 132.5t-135 49.5q-97 0 -163.5 -74.5t-66.5 -181.5q0 -83 52.5 -132.5 t134.5 -49.5z" />
<glyph unicode="&#xd3;" horiz-adv-x="765" d="M692 872l-194 -144h-91l166 144h119zM372 -12q-142 0 -235 82t-93 217q0 164 112 277.5t276 113.5q141 0 234.5 -82t93.5 -216q0 -164 -112 -278t-276 -114zM380 114q97 0 164 74.5t67 181.5q0 83 -53 132.5t-135 49.5q-97 0 -163.5 -74.5t-66.5 -181.5 q0 -83 52.5 -132.5t134.5 -49.5z" />
<glyph unicode="&#xd4;" horiz-adv-x="765" d="M642 728h-76l-54 89l-90 -89h-80l124 144h114zM372 -12q-142 0 -235 82t-93 217q0 164 112 277.5t276 113.5q141 0 234.5 -82t93.5 -216q0 -164 -112 -278t-276 -114zM380 114q97 0 164 74.5t67 181.5q0 83 -53 132.5t-135 49.5q-97 0 -163.5 -74.5t-66.5 -181.5 q0 -83 52.5 -132.5t134.5 -49.5z" />
<glyph unicode="&#xd5;" horiz-adv-x="765" d="M561 726q-24 0 -42 10.5t-27 23.5t-22.5 23.5t-28.5 10.5q-32 0 -45 -62h-68q13 67 41.5 100.5t79.5 33.5q24 0 42 -10.5t27.5 -23t23 -23t28.5 -10.5q30 0 45 61h68q-14 -67 -42.5 -100.5t-79.5 -33.5zM372 -12q-142 0 -235 82t-93 217q0 164 112 277.5t276 113.5 q141 0 234.5 -82t93.5 -216q0 -164 -112 -278t-276 -114zM380 114q97 0 164 74.5t67 181.5q0 83 -53 132.5t-135 49.5q-97 0 -163.5 -74.5t-66.5 -181.5q0 -83 52.5 -132.5t134.5 -49.5z" />
<glyph unicode="&#xd6;" horiz-adv-x="765" d="M678 792q0 -30 -23.5 -53t-53.5 -23q-25 0 -42.5 17t-17.5 43q0 30 23.5 53t52.5 23q26 0 43.5 -17t17.5 -43zM466 792q0 -30 -23 -53t-53 -23q-26 0 -43 17t-17 43q0 30 23.5 53t52.5 23q26 0 43 -17t17 -43zM372 -12q-142 0 -235 82t-93 217q0 164 112 277.5t276 113.5 q141 0 234.5 -82t93.5 -216q0 -164 -112 -278t-276 -114zM380 114q97 0 164 74.5t67 181.5q0 83 -53 132.5t-135 49.5q-97 0 -163.5 -74.5t-66.5 -181.5q0 -83 52.5 -132.5t134.5 -49.5z" />
<glyph unicode="&#xd7;" horiz-adv-x="504" d="M372 140l-107 138l-175 -143l-49 60l176 144l-108 139l63 51l107 -139l175 143l49 -60l-175 -144l106 -139z" />
<glyph unicode="&#xd8;" horiz-adv-x="765" d="M372 -12q-121 0 -207 60l-47 -48h-103l95 97q-66 77 -66 190q0 164 112 277.5t276 113.5q114 0 197 -54l42 43h102l-88 -89q75 -80 75 -198q0 -164 -112 -278t-276 -114zM380 114q97 0 164 74.5t67 181.5q0 58 -29 103l-318 -324q47 -35 116 -35zM193 296q0 -52 22 -93 l315 320q-46 29 -107 29q-97 0 -163.5 -74.5t-66.5 -181.5z" />
<glyph unicode="&#xd9;" horiz-adv-x="734" d="M559 728h-89l-130 144h117zM356 -12q-140 0 -215 63t-75 170q0 19 5 46l88 400h144l-87 -397q-4 -12 -4 -33q1 -53 38.5 -88.5t105.5 -35.5q138 0 173 157l87 397h145l-89 -400q-29 -132 -103 -205.5t-213 -73.5z" />
<glyph unicode="&#xda;" horiz-adv-x="734" d="M677 872l-194 -144h-91l166 144h119zM356 -12q-140 0 -215 63t-75 170q0 19 5 46l88 400h144l-87 -397q-4 -12 -4 -33q1 -53 38.5 -88.5t105.5 -35.5q138 0 173 157l87 397h145l-89 -400q-29 -132 -103 -205.5t-213 -73.5z" />
<glyph unicode="&#xdb;" horiz-adv-x="734" d="M630 728h-76l-54 89l-90 -89h-80l124 144h114zM356 -12q-140 0 -215 63t-75 170q0 19 5 46l88 400h144l-87 -397q-4 -12 -4 -33q1 -53 38.5 -88.5t105.5 -35.5q138 0 173 157l87 397h145l-89 -400q-29 -132 -103 -205.5t-213 -73.5z" />
<glyph unicode="&#xdc;" horiz-adv-x="734" d="M663 792q0 -30 -23.5 -53t-53.5 -23q-26 0 -43 17t-17 43q0 30 23.5 53t52.5 23q26 0 43.5 -17t17.5 -43zM451 792q0 -30 -23 -53t-53 -23q-25 0 -42.5 17t-17.5 43q0 30 23.5 53t52.5 23q26 0 43 -17t17 -43zM356 -12q-140 0 -215 63t-75 170q0 19 5 46l88 400h144 l-87 -397q-4 -12 -4 -33q1 -53 38.5 -88.5t105.5 -35.5q138 0 173 157l87 397h145l-89 -400q-29 -132 -103 -205.5t-213 -73.5z" />
<glyph unicode="&#xdd;" horiz-adv-x="645" d="M634 872l-194 -144h-91l166 144h119zM340 0h-142l60 273l-169 394h154l106 -267l224 267h169l-341 -394z" />
<glyph unicode="&#xde;" horiz-adv-x="625" d="M154 0h-142l147 667h142l-23 -108h163q79 0 132 -54t53 -130q0 -44 -15.5 -85.5t-46.5 -78t-86 -59t-127 -22.5h-168zM359 255q55 0 87 31t32 74q0 33 -23.5 54t-59.5 21h-145l-39 -180h148z" />
<glyph unicode="&#xdf;" horiz-adv-x="643" d="M610 156q0 -69 -57.5 -118.5t-146.5 -49.5q-70 0 -120.5 21.5t-93.5 67.5l71 81q58 -68 147 -68q33 0 53 15t20 36q0 17 -22.5 29t-54.5 22t-64.5 23t-55 39.5t-22.5 63.5q0 38 17 67.5t41.5 46t49 29.5t41.5 26t17 28q0 22 -23 35.5t-60 13.5q-85 0 -106 -89l-104 -475 h-128l105 475q19 89 79.5 145.5t159.5 56.5q82 0 147 -39t65 -100q0 -37 -18 -65.5t-43.5 -45t-51 -29.5t-43.5 -28t-18 -32q0 -15 22.5 -26.5t55 -21.5t64.5 -24.5t54.5 -42.5t22.5 -67z" />
<glyph unicode="&#xe0;" d="M281 495q103 0 154 -76l13 64h128l-107 -483h-128l14 60q-61 -72 -145 -72q-83 0 -133.5 53t-50.5 147q0 75 28.5 144t88.5 116t138 47zM301 382q-61 0 -101.5 -50t-40.5 -118q0 -51 30 -82t77 -31q65 0 111 58l37 167q-36 56 -113 56zM422 556h-89l-130 144h117z" />
<glyph unicode="&#xe1;" d="M281 495q103 0 154 -76l13 64h128l-107 -483h-128l14 60q-61 -72 -145 -72q-83 0 -133.5 53t-50.5 147q0 75 28.5 144t88.5 116t138 47zM301 382q-61 0 -101.5 -50t-40.5 -118q0 -51 30 -82t77 -31q65 0 111 58l37 167q-36 56 -113 56zM541 700l-194 -144h-91l166 144 h119z" />
<glyph unicode="&#xe2;" d="M281 495q103 0 154 -76l13 64h128l-107 -483h-128l14 60q-61 -72 -145 -72q-83 0 -133.5 53t-50.5 147q0 75 28.5 144t88.5 116t138 47zM301 382q-61 0 -101.5 -50t-40.5 -118q0 -51 30 -82t77 -31q65 0 111 58l37 167q-36 56 -113 56zM492 556h-76l-54 89l-90 -89h-80 l124 144h114z" />
<glyph unicode="&#xe3;" d="M281 495q103 0 154 -76l13 64h128l-107 -483h-128l14 60q-61 -72 -145 -72q-83 0 -133.5 53t-50.5 147q0 75 28.5 144t88.5 116t138 47zM301 382q-61 0 -101.5 -50t-40.5 -118q0 -51 30 -82t77 -31q65 0 111 58l37 167q-36 56 -113 56zM410 554q-24 0 -42 10.5t-27 23.5 t-22.5 23.5t-28.5 10.5q-32 0 -45 -62h-68q13 67 41.5 100.5t79.5 33.5q30 0 50.5 -17t36 -33.5t34.5 -16.5q30 0 45 61h68q-14 -67 -42.5 -100.5t-79.5 -33.5z" />
<glyph unicode="&#xe4;" d="M281 495q103 0 154 -76l13 64h128l-107 -483h-128l14 60q-61 -72 -145 -72q-83 0 -133.5 53t-50.5 147q0 75 28.5 144t88.5 116t138 47zM301 382q-61 0 -101.5 -50t-40.5 -118q0 -51 30 -82t77 -31q65 0 111 58l37 167q-36 56 -113 56zM528 619q0 -30 -23.5 -53 t-53.5 -23q-25 0 -42.5 17.5t-17.5 42.5q0 30 23.5 53t52.5 23q26 0 43.5 -17t17.5 -43zM316 619q0 -30 -23 -53t-53 -23q-26 0 -43 17.5t-17 42.5q0 30 23.5 53t52.5 23q26 0 43 -17t17 -43z" />
<glyph unicode="&#xe5;" d="M281 495q103 0 154 -76l13 64h128l-107 -483h-128l14 60q-61 -72 -145 -72q-83 0 -133.5 53t-50.5 147q0 75 28.5 144t88.5 116t138 47zM301 382q-61 0 -101.5 -50t-40.5 -118q0 -51 30 -82t77 -31q65 0 111 58l37 167q-36 56 -113 56zM351 540q-43 0 -69.5 26.5 t-26.5 69.5q0 46 34.5 80.5t80.5 34.5q43 0 69.5 -26.5t26.5 -69.5q0 -47 -34 -81t-81 -34zM356 599q20 0 35.5 15t15.5 35q0 19 -11.5 31t-30.5 12q-20 0 -35.5 -15t-15.5 -35q0 -19 11.5 -31t30.5 -12z" />
<glyph unicode="&#xe6;" horiz-adv-x="914" d="M653 -12q-122 0 -167 91l-17 -79h-128l14 60q-61 -72 -145 -72t-134 53t-50 147q0 76 28.5 144.5t88 115.5t137.5 47q49 0 90 -20t64 -56l14 64h128l-13 -56q65 68 146 68q85 0 130.5 -52.5t45.5 -153.5q0 -51 -10 -89h-357q0 -2 -0.5 -6t-0.5 -6q0 -35 36 -64.5 t98 -29.5q71 0 120 36l39 -92q-73 -50 -157 -50zM301 382q-61 0 -101.5 -50t-40.5 -118q0 -51 30 -82t77 -31q64 0 111 58l37 167q-36 56 -113 56zM771 288q0 1 0.5 5t0.5 5q0 40 -28 66.5t-82 26.5q-49 0 -85.5 -30.5t-45.5 -72.5h240z" />
<glyph unicode="&#xe7;" horiz-adv-x="499" d="M211 -195q-78 0 -119 41l35 47q38 -35 85 -35q22 0 35.5 9.5t13.5 25.5q0 24 -29 24q-18 0 -30 -14l-40 26l38 66q-80 17 -126 73.5t-46 139.5q0 120 81.5 203.5t199.5 83.5q139 0 196 -95l-95 -73q-32 55 -101 55q-67 0 -109.5 -49t-42.5 -118q0 -53 34.5 -83.5 t86.5 -30.5q60 0 101 48l69 -84q-71 -77 -183 -77h-7l-24 -39q12 10 31 10q25 0 42 -16.5t17 -45.5q0 -41 -32 -66.5t-81 -25.5z" />
<glyph unicode="&#xe8;" horiz-adv-x="553" d="M278 -12q-115 0 -182.5 58t-67.5 159q0 120 80 205t199 85q95 0 156 -58t61 -157q0 -42 -10 -80h-359v-12q0 -35 35.5 -65.5t97.5 -30.5q76 0 122 35l39 -89q-73 -50 -171 -50zM409 288h1q1 2 1 10q0 39 -29 66t-83 27q-50 0 -86 -30.5t-44 -72.5h240zM434 556h-89 l-130 144h117z" />
<glyph unicode="&#xe9;" horiz-adv-x="553" d="M278 -12q-115 0 -182.5 58t-67.5 159q0 120 80 205t199 85q95 0 156 -58t61 -157q0 -42 -10 -80h-359v-12q0 -35 35.5 -65.5t97.5 -30.5q76 0 122 35l39 -89q-73 -50 -171 -50zM409 288h1q1 2 1 10q0 39 -29 66t-83 27q-50 0 -86 -30.5t-44 -72.5h240zM555 700l-194 -144 h-91l166 144h119z" />
<glyph unicode="&#xea;" horiz-adv-x="553" d="M278 -12q-115 0 -182.5 58t-67.5 159q0 120 80 205t199 85q95 0 156 -58t61 -157q0 -42 -10 -80h-359v-12q0 -35 35.5 -65.5t97.5 -30.5q76 0 122 35l39 -89q-73 -50 -171 -50zM409 288h1q1 2 1 10q0 39 -29 66t-83 27q-50 0 -86 -30.5t-44 -72.5h240zM503 556h-76 l-54 89l-90 -89h-80l124 144h114z" />
<glyph unicode="&#xeb;" horiz-adv-x="553" d="M278 -12q-115 0 -182.5 58t-67.5 159q0 120 80 205t199 85q95 0 156 -58t61 -157q0 -42 -10 -80h-359v-12q0 -35 35.5 -65.5t97.5 -30.5q76 0 122 35l39 -89q-73 -50 -171 -50zM409 288h1q1 2 1 10q0 39 -29 66t-83 27q-50 0 -86 -30.5t-44 -72.5h240zM539 619 q0 -30 -23.5 -53t-53.5 -23q-26 0 -43 17.5t-17 42.5q0 30 23.5 53t52.5 23q26 0 43.5 -17t17.5 -43zM327 619q0 -30 -23 -53t-53 -23q-25 0 -42.5 17.5t-17.5 42.5q0 30 23.5 53t52.5 23q26 0 43 -17t17 -43z" />
<glyph unicode="&#xec;" horiz-adv-x="253" d="M277 556h-89l-130 144h117zM136 0h-127l107 483h127z" />
<glyph unicode="&#xed;" horiz-adv-x="253" d="M397 700l-194 -144h-91l166 144h119zM136 0h-127l107 483h127z" />
<glyph unicode="&#xee;" horiz-adv-x="253" d="M346 556h-76l-54 89l-90 -89h-80l124 144h114zM136 0h-127l107 483h127z" />
<glyph unicode="&#xef;" horiz-adv-x="253" d="M382 619q0 -30 -23.5 -53t-53.5 -23q-25 0 -42.5 17.5t-17.5 42.5q0 30 23.5 53t52.5 23q26 0 43.5 -17t17.5 -43zM170 619q0 -30 -23 -53t-53 -23q-26 0 -43 17.5t-17 42.5q0 30 23.5 53t52.5 23q26 0 43 -17t17 -43zM136 0h-127l107 483h127z" />
<glyph unicode="&#xf0;" horiz-adv-x="575" d="M153 485l-12 59l121 36q-18 15 -54 43l90 93q64 -50 107 -94l110 33l13 -59l-79 -24q103 -129 103 -266q0 -134 -77.5 -226t-205.5 -92q-110 0 -177 57.5t-67 152.5q0 110 70.5 186t172.5 76q120 0 164 -109q-19 82 -118 181zM271 101q59 0 98.5 41.5t39.5 103.5 q0 42 -31 72t-88 30t-95.5 -41.5t-38.5 -101.5q0 -49 30 -76.5t85 -27.5z" />
<glyph unicode="&#xf1;" horiz-adv-x="579" d="M470 0h-128l65 293q4 18 4 28q0 61 -83 61q-55 0 -113 -56l-72 -326h-127l107 483h127l-14 -62q78 74 161 74q70 0 110.5 -33.5t40.5 -89.5q0 -15 -5 -40zM430 554q-24 0 -42 10.5t-27 23.5t-22.5 23.5t-28.5 10.5q-32 0 -45 -62h-68q13 67 41.5 100.5t79.5 33.5 q30 0 50.5 -17t36 -33.5t34.5 -16.5q30 0 45 61h68q-14 -67 -42.5 -100.5t-79.5 -33.5z" />
<glyph unicode="&#xf2;" horiz-adv-x="575" d="M266 -12q-113 0 -176 61t-63 159q0 116 80 201.5t199 85.5q113 0 176.5 -61t63.5 -159q0 -116 -80 -201.5t-200 -85.5zM271 101q62 0 102.5 50t40.5 118q0 53 -30 83t-82 30q-62 0 -103 -50.5t-41 -117.5q0 -52 30 -82.5t83 -30.5zM439 556h-89l-130 144h117z" />
<glyph unicode="&#xf3;" horiz-adv-x="575" d="M266 -12q-113 0 -176 61t-63 159q0 116 80 201.5t199 85.5q113 0 176.5 -61t63.5 -159q0 -116 -80 -201.5t-200 -85.5zM271 101q62 0 102.5 50t40.5 118q0 53 -30 83t-82 30q-62 0 -103 -50.5t-41 -117.5q0 -52 30 -82.5t83 -30.5zM558 700l-194 -144h-91l166 144h119z " />
<glyph unicode="&#xf4;" horiz-adv-x="575" d="M266 -12q-113 0 -176 61t-63 159q0 116 80 201.5t199 85.5q113 0 176.5 -61t63.5 -159q0 -116 -80 -201.5t-200 -85.5zM271 101q62 0 102.5 50t40.5 118q0 53 -30 83t-82 30q-62 0 -103 -50.5t-41 -117.5q0 -52 30 -82.5t83 -30.5zM507 556h-76l-54 89l-90 -89h-80 l124 144h114z" />
<glyph unicode="&#xf5;" horiz-adv-x="575" d="M266 -12q-113 0 -176 61t-63 159q0 116 80 201.5t199 85.5q113 0 176.5 -61t63.5 -159q0 -116 -80 -201.5t-200 -85.5zM271 101q62 0 102.5 50t40.5 118q0 53 -30 83t-82 30q-62 0 -103 -50.5t-41 -117.5q0 -52 30 -82.5t83 -30.5zM427 554q-24 0 -42 10.5t-27 23.5 t-22.5 23.5t-28.5 10.5q-32 0 -45 -62h-68q13 67 41.5 100.5t79.5 33.5q24 0 42 -10.5t27.5 -23t23 -23t28.5 -10.5q30 0 45 61h68q-14 -67 -42.5 -100.5t-79.5 -33.5z" />
<glyph unicode="&#xf6;" horiz-adv-x="575" d="M266 -12q-113 0 -176 61t-63 159q0 116 80 201.5t199 85.5q113 0 176.5 -61t63.5 -159q0 -116 -80 -201.5t-200 -85.5zM271 101q62 0 102.5 50t40.5 118q0 53 -30 83t-82 30q-62 0 -103 -50.5t-41 -117.5q0 -52 30 -82.5t83 -30.5zM543 619q0 -30 -23.5 -53t-53.5 -23 q-26 0 -43 17.5t-17 42.5q0 30 23.5 53t52.5 23q26 0 43.5 -17t17.5 -43zM331 619q0 -30 -23 -53t-53 -23q-25 0 -42.5 17.5t-17.5 42.5q0 30 23.5 53t52.5 23q26 0 43 -17t17 -43z" />
<glyph unicode="&#xf7;" horiz-adv-x="511" d="M494 298h-453l17 79h453zM230 96q-23 0 -39 16.5t-16 39.5q0 27 19.5 46.5t46.5 19.5q23 0 39.5 -16.5t16.5 -39.5q0 -27 -20 -46.5t-47 -19.5zM309 454q-22 0 -38.5 16.5t-16.5 39.5q0 27 19.5 46.5t46.5 19.5q23 0 39.5 -16.5t16.5 -39.5q0 -27 -20 -46.5t-47 -19.5z " />
<glyph unicode="&#xf8;" horiz-adv-x="575" d="M67 0h-83l82 76q-39 54 -39 132q0 116 80 201.5t199 85.5q96 0 158 -46l37 34h85l-81 -75q41 -55 41 -133q0 -116 -80 -201.5t-200 -85.5q-99 0 -161 48zM271 101q62 0 102.5 50t40.5 118q0 25 -8 47l-208 -194q28 -21 73 -21zM158 214q0 -27 7 -45l207 193 q-28 20 -70 20q-62 0 -103 -50.5t-41 -117.5z" />
<glyph unicode="&#xf9;" horiz-adv-x="579" d="M115 483h127l-64 -292q-4 -18 -4 -28q0 -31 22.5 -46.5t59.5 -15.5q57 0 114 57l72 325h127l-107 -483h-127l14 62q-78 -74 -161 -74q-70 0 -111 33.5t-41 89.5q0 20 6 40zM442 556h-89l-130 144h117z" />
<glyph unicode="&#xfa;" horiz-adv-x="579" d="M115 483h127l-64 -292q-4 -18 -4 -28q0 -31 22.5 -46.5t59.5 -15.5q57 0 114 57l72 325h127l-107 -483h-127l14 62q-78 -74 -161 -74q-70 0 -111 33.5t-41 89.5q0 20 6 40zM561 700l-194 -144h-91l166 144h119z" />
<glyph unicode="&#xfb;" horiz-adv-x="579" d="M115 483h127l-64 -292q-4 -18 -4 -28q0 -31 22.5 -46.5t59.5 -15.5q57 0 114 57l72 325h127l-107 -483h-127l14 62q-78 -74 -161 -74q-70 0 -111 33.5t-41 89.5q0 20 6 40zM510 556h-76l-54 89l-90 -89h-80l124 144h114z" />
<glyph unicode="&#xfc;" horiz-adv-x="579" d="M115 483h127l-64 -292q-4 -18 -4 -28q0 -31 22.5 -46.5t59.5 -15.5q57 0 114 57l72 325h127l-107 -483h-127l14 62q-78 -74 -161 -74q-70 0 -111 33.5t-41 89.5q0 20 6 40zM548 619q0 -30 -23.5 -53t-53.5 -23q-25 0 -42.5 17.5t-17.5 42.5q0 30 23.5 53t52.5 23 q26 0 43.5 -17t17.5 -43zM336 619q0 -30 -23 -53t-53 -23q-26 0 -43 17.5t-17 42.5q0 30 23.5 53t52.5 23q26 0 43 -17t17 -43z" />
<glyph unicode="&#xfd;" horiz-adv-x="513" d="M-48 -184l42 110q15 -7 49 -7q38 0 60 33l30 46l-86 485h132l51 -336l202 336h140l-352 -562q-39 -64 -82.5 -90.5t-104.5 -26.5q-46 0 -81 12zM527 700l-194 -144h-91l166 144h119z" />
<glyph unicode="&#xfe;" horiz-adv-x="583" d="M304 -12q-103 0 -154 76l-55 -248h-127l188 851h127l-54 -244q61 72 146 72q83 0 133 -53t50 -147q0 -75 -28.5 -144t-88 -116t-137.5 -47zM283 101q62 0 102 49.5t40 118.5q0 51 -30 82t-77 31q-64 0 -110 -58l-38 -167q36 -56 113 -56z" />
<glyph unicode="&#xff;" horiz-adv-x="513" d="M-48 -184l42 110q15 -7 49 -7q38 0 60 33l30 46l-86 485h132l51 -336l202 336h140l-352 -562q-39 -64 -82.5 -90.5t-104.5 -26.5q-46 0 -81 12zM512 619q0 -30 -23.5 -53t-53.5 -23q-25 0 -42.5 17.5t-17.5 42.5q0 30 23.5 53t52.5 23q26 0 43.5 -17t17.5 -43zM300 619 q0 -30 -23 -53t-53 -23q-26 0 -43 17.5t-17 42.5q0 30 23.5 53t52.5 23q26 0 43 -17t17 -43z" />
<glyph unicode="&#x152;" horiz-adv-x="1084" d="M987 0h-471l16 76q-77 -88 -208 -88q-118 0 -199 84.5t-81 214.5q0 113 52.5 203.5t138.5 138.5t187 48q156 0 218 -114l23 104h471l-27 -125h-329l-31 -140h322l-28 -125h-322l-33 -152h329zM564 219l44 201q-16 62 -63 96.5t-114 34.5q-103 0 -170.5 -74t-67.5 -181 q0 -82 50.5 -132t129.5 -50q57 0 108 28t83 77z" />
<glyph unicode="&#x153;" horiz-adv-x="931" d="M894 200h-354q-1 -2 -1 -12q0 -37 35.5 -66.5t95.5 -29.5q74 0 120 35l39 -89q-71 -50 -169 -50q-73 0 -125.5 32.5t-72.5 74.5q-30 -33 -48.5 -50.5t-60.5 -37t-89 -19.5q-107 0 -172 58.5t-65 161.5q0 113 78 200t199 87q69 0 118 -33t69 -74q27 31 48.5 50t62.5 38 t87 19q92 0 153.5 -57t61.5 -158q0 -42 -10 -80zM553 288h238v10q0 40 -27.5 66.5t-81.5 26.5q-50 0 -86 -32t-43 -71zM410 269q0 56 -31 84.5t-79 28.5q-59 0 -100.5 -49t-41.5 -119q0 -53 29.5 -83t81.5 -30q60 0 100.5 49.5t40.5 118.5z" />
<glyph unicode="&#x178;" horiz-adv-x="645" d="M618 792q0 -30 -23.5 -53t-53.5 -23q-25 0 -42.5 17t-17.5 43q0 30 23.5 53t52.5 23q26 0 43.5 -17t17.5 -43zM406 792q0 -30 -23 -53t-53 -23q-26 0 -43 17t-17 43q0 30 23.5 53t52.5 23q26 0 43 -17t17 -43zM340 0h-142l60 273l-169 394h154l106 -267l224 267h169 l-341 -394z" />
<glyph unicode="&#x2c6;" horiz-adv-x="300" d="M369 556h-76l-54 89l-90 -89h-80l124 144h114z" />
<glyph unicode="&#x2dc;" horiz-adv-x="327" d="M303 554q-24 0 -42 10.5t-27 23.5t-22.5 23.5t-28.5 10.5q-32 0 -45 -62h-68q13 67 41.5 100.5t79.5 33.5q24 0 42 -10.5t27.5 -23t23 -23t28.5 -10.5q30 0 45 61h68q-14 -67 -42.5 -100.5t-79.5 -33.5z" />
<glyph unicode="&#x2000;" horiz-adv-x="451" />
<glyph unicode="&#x2001;" horiz-adv-x="903" />
<glyph unicode="&#x2002;" horiz-adv-x="451" />
<glyph unicode="&#x2003;" horiz-adv-x="903" />
<glyph unicode="&#x2004;" horiz-adv-x="301" />
<glyph unicode="&#x2005;" horiz-adv-x="225" />
<glyph unicode="&#x2006;" horiz-adv-x="150" />
<glyph unicode="&#x2007;" horiz-adv-x="150" />
<glyph unicode="&#x2008;" horiz-adv-x="112" />
<glyph unicode="&#x2009;" horiz-adv-x="180" />
<glyph unicode="&#x200a;" horiz-adv-x="50" />
<glyph unicode="&#x2010;" horiz-adv-x="300" d="M258 188h-240l23 108h240z" />
<glyph unicode="&#x2011;" horiz-adv-x="300" d="M258 188h-240l23 108h240z" />
<glyph unicode="&#x2012;" horiz-adv-x="300" d="M258 188h-240l23 108h240z" />
<glyph unicode="&#x2013;" horiz-adv-x="593" d="M551 188h-533l23 108h533z" />
<glyph unicode="&#x2014;" horiz-adv-x="833" d="M791 188h-773l23 108h773z" />
<glyph unicode="&#x2018;" horiz-adv-x="255" d="M91 477q0 57 42 113.5t105 87.5l45 -48q-31 -14 -59 -36.5t-39 -47.5q3 1 11 1q26 0 43.5 -17t17.5 -48q0 -35 -27.5 -60.5t-61.5 -25.5q-32 0 -54.5 21.5t-22.5 59.5z" />
<glyph unicode="&#x2019;" horiz-adv-x="255" d="M291 595q0 -56 -42 -112.5t-105 -87.5l-45 48q74 34 98 84q-3 -1 -11 -1q-26 0 -44 17t-18 48q0 35 27.5 60.5t61.5 25.5q33 0 55.5 -21.5t22.5 -60.5z" />
<glyph unicode="&#x201a;" horiz-adv-x="255" d="M174 69q0 -56 -42 -113t-105 -87l-45 47q76 36 98 84h-11q-26 0 -43.5 17t-17.5 48q0 35 27.5 60.5t61.5 25.5q32 0 54.5 -21.5t22.5 -60.5z" />
<glyph unicode="&#x201c;" horiz-adv-x="459" d="M296 477q0 57 42 113.5t105 87.5l45 -48q-31 -14 -59 -36.5t-39 -47.5q2 1 10 1q26 0 44 -17t18 -48q0 -35 -27.5 -60.5t-61.5 -25.5q-32 0 -54.5 21.5t-22.5 59.5zM92 477q0 57 42 113.5t105 87.5l46 -48q-30 -14 -58.5 -36.5t-39.5 -47.5q2 1 10 1q26 0 44 -17t18 -48 q0 -35 -27.5 -60.5t-61.5 -25.5q-32 0 -55 21.5t-23 59.5z" />
<glyph unicode="&#x201d;" horiz-adv-x="459" d="M291 595q0 -56 -42 -112.5t-105 -87.5l-45 48q74 34 98 84q-3 -1 -11 -1q-26 0 -44 17t-18 48q0 35 27.5 60.5t61.5 25.5q33 0 55.5 -21.5t22.5 -60.5zM494 595q0 -56 -42 -112.5t-105 -87.5l-45 48q30 14 58.5 36.5t39.5 47.5q-3 -1 -11 -1q-26 0 -43.5 17t-17.5 48 q0 35 27 60.5t61 25.5q33 0 55.5 -21.5t22.5 -60.5z" />
<glyph unicode="&#x201e;" horiz-adv-x="459" d="M174 69q0 -56 -42 -113t-105 -87l-45 47q76 36 98 84h-11q-26 0 -43.5 17t-17.5 48q0 35 27.5 60.5t61.5 25.5q32 0 54.5 -21.5t22.5 -60.5zM377 69q0 -57 -41.5 -113.5t-104.5 -86.5l-46 47q76 36 98 84h-10q-26 0 -44 17t-18 48q0 35 27.5 60.5t61.5 25.5 q32 0 54.5 -21.5t22.5 -60.5z" />
<glyph unicode="&#x2022;" horiz-adv-x="358" d="M299 254q0 -53 -39.5 -91.5t-93.5 -38.5q-46 0 -76.5 30.5t-30.5 76.5q0 53 39.5 91.5t93.5 38.5q46 0 76.5 -30.5t30.5 -76.5z" />
<glyph unicode="&#x2026;" horiz-adv-x="768" d="M82 -12q-31 0 -52.5 22t-21.5 53q0 36 26.5 62t62.5 26q31 0 52.5 -22t21.5 -53q0 -36 -26.5 -62t-62.5 -26zM338 -12q-31 0 -52.5 22t-21.5 53q0 36 26.5 62t62.5 26q31 0 52.5 -22t21.5 -53q0 -36 -26.5 -62t-62.5 -26zM594 -12q-31 0 -52 22t-21 53q0 36 26 62t62 26 q31 0 52.5 -22t21.5 -53q0 -36 -26.5 -62t-62.5 -26z" />
<glyph unicode="&#x202f;" horiz-adv-x="180" />
<glyph unicode="&#x2039;" horiz-adv-x="338" d="M263 63h-114l-120 180l200 177h122l-204 -182z" />
<glyph unicode="&#x203a;" horiz-adv-x="338" d="M77 420h114l120 -180l-200 -177h-122l204 182z" />
<glyph unicode="&#x205f;" horiz-adv-x="225" />
<glyph unicode="&#x20ac;" horiz-adv-x="709" d="M400 -12q-123 0 -211.5 64.5t-110.5 172.5h-61l17 79h38q2 34 7 61h-31l18 79h36q45 108 142 171t216 63q115 0 189.5 -53t106.5 -136l-136 -46q-19 52 -63.5 80.5t-103.5 28.5q-58 0 -108 -29t-83 -79h255l-18 -79h-270q-8 -40 -8 -61h265l-18 -79h-235q20 -51 65.5 -81 t109.5 -30q43 0 86 21t71 56l110 -74q-53 -68 -127 -98.5t-148 -30.5z" />
<glyph unicode="&#x2122;" horiz-adv-x="454" d="M464 447h-28l40 182l-115 -182h-8l-35 182l-40 -182h-28l48 220h43l29 -160l99 160h43zM257 641h-62l-43 -194h-28l43 194h-62l5 26h152z" />
<glyph unicode="&#xe000;" horiz-adv-x="485" d="M0 485h485v-485h-485v485z" />
<hkern g1="B" 	g2="T" 	k="14" />
<hkern g1="B" 	g2="V" 	k="17" />
<hkern g1="B" 	g2="W" 	k="10" />
<hkern g1="B" 	g2="Y,Yacute,Ydieresis" 	k="30" />
<hkern g1="B" 	g2="quotedbl,quotesingle,registered,quoteleft,quoteright,quotedblleft,quotedblright,trademark" 	k="10" />
<hkern g1="C,Ccedilla" 	g2="S" 	k="-7" />
<hkern g1="C,Ccedilla" 	g2="T" 	k="7" />
<hkern g1="C,Ccedilla" 	g2="C,G,O,Q,Ccedilla,Ograve,Oacute,Ocircumflex,Otilde,Odieresis,Oslash,OE" 	k="-7" />
<hkern g1="C,Ccedilla" 	g2="V" 	k="13" />
<hkern g1="C,Ccedilla" 	g2="W" 	k="10" />
<hkern g1="C,Ccedilla" 	g2="Y,Yacute,Ydieresis" 	k="33" />
<hkern g1="C,Ccedilla" 	g2="question" 	k="7" />
<hkern g1="C,Ccedilla" 	g2="A,Agrave,Aacute,Acircumflex,Atilde,Adieresis,Aring,AE" 	k="7" />
<hkern g1="D,O,Q,Eth,Ograve,Oacute,Ocircumflex,Otilde,Odieresis,Oslash,Thorn" 	g2="J" 	k="20" />
<hkern g1="D,O,Q,Eth,Ograve,Oacute,Ocircumflex,Otilde,Odieresis,Oslash,Thorn" 	g2="T" 	k="37" />
<hkern g1="D,O,Q,Eth,Ograve,Oacute,Ocircumflex,Otilde,Odieresis,Oslash,Thorn" 	g2="V" 	k="37" />
<hkern g1="D,O,Q,Eth,Ograve,Oacute,Ocircumflex,Otilde,Odieresis,Oslash,Thorn" 	g2="W" 	k="33" />
<hkern g1="D,O,Q,Eth,Ograve,Oacute,Ocircumflex,Otilde,Odieresis,Oslash,Thorn" 	g2="Y,Yacute,Ydieresis" 	k="63" />
<hkern g1="D,O,Q,Eth,Ograve,Oacute,Ocircumflex,Otilde,Odieresis,Oslash,Thorn" 	g2="question" 	k="23" />
<hkern g1="D,O,Q,Eth,Ograve,Oacute,Ocircumflex,Otilde,Odieresis,Oslash,Thorn" 	g2="quotedbl,quotesingle,registered,quoteleft,quoteright,quotedblleft,quotedblright,trademark" 	k="10" />
<hkern g1="D,O,Q,Eth,Ograve,Oacute,Ocircumflex,Otilde,Odieresis,Oslash,Thorn" 	g2="A,Agrave,Aacute,Acircumflex,Atilde,Adieresis,Aring,AE" 	k="17" />
<hkern g1="D,O,Q,Eth,Ograve,Oacute,Ocircumflex,Otilde,Odieresis,Oslash,Thorn" 	g2="X" 	k="30" />
<hkern g1="D,O,Q,Eth,Ograve,Oacute,Ocircumflex,Otilde,Odieresis,Oslash,Thorn" 	g2="Z" 	k="14" />
<hkern g1="D,O,Q,Eth,Ograve,Oacute,Ocircumflex,Otilde,Odieresis,Oslash,Thorn" 	g2="comma,period,quotesinglbase,quotedblbase,ellipsis" 	k="24" />
<hkern g1="F" 	g2="comma,period,quotesinglbase,quotedblbase,ellipsis" 	k="50" />
<hkern g1="F" 	g2="A,Agrave,Aacute,Acircumflex,Atilde,Adieresis,Aring,AE" 	k="43" />
<hkern g1="F" 	g2="J" 	k="70" />
<hkern g1="F" 	g2="ampersand" 	k="13" />
<hkern g1="G" 	g2="V" 	k="27" />
<hkern g1="G" 	g2="Y,Yacute,Ydieresis" 	k="40" />
<hkern g1="G" 	g2="W" 	k="15" />
<hkern g1="G" 	g2="X" 	k="7" />
<hkern g1="G" 	g2="question" 	k="13" />
<hkern g1="G" 	g2="T" 	k="20" />
<hkern g1="G" 	g2="A,Agrave,Aacute,Acircumflex,Atilde,Adieresis,Aring,AE" 	k="7" />
<hkern g1="K" 	g2="Y,Yacute,Ydieresis" 	k="11" />
<hkern g1="K" 	g2="C,G,O,Q,Ccedilla,Ograve,Oacute,Ocircumflex,Otilde,Odieresis,Oslash,OE" 	k="47" />
<hkern g1="K" 	g2="a,c,d,e,g,o,q,ae,ccedilla,eth,oslash,oe" 	k="27" />
<hkern g1="K" 	g2="f,uniFB01,uniFB02,uniFB03,uniFB04" 	k="33" />
<hkern g1="K" 	g2="t" 	k="50" />
<hkern g1="K" 	g2="u" 	k="20" />
<hkern g1="K" 	g2="v" 	k="60" />
<hkern g1="K" 	g2="w" 	k="40" />
<hkern g1="K" 	g2="x" 	k="33" />
<hkern g1="K" 	g2="y,yacute,ydieresis" 	k="60" />
<hkern g1="K" 	g2="hyphen,periodcentered,endash,emdash" 	k="50" />
<hkern g1="L" 	g2="V" 	k="90" />
<hkern g1="L" 	g2="Y,Yacute,Ydieresis" 	k="127" />
<hkern g1="L" 	g2="W" 	k="73" />
<hkern g1="L" 	g2="question" 	k="107" />
<hkern g1="L" 	g2="quotedbl,quotesingle,registered,quoteleft,quoteright,quotedblleft,quotedblright,trademark" 	k="136" />
<hkern g1="L" 	g2="T" 	k="100" />
<hkern g1="L" 	g2="ampersand" 	k="4" />
<hkern g1="L" 	g2="C,G,O,Q,Ccedilla,Ograve,Oacute,Ocircumflex,Otilde,Odieresis,Oslash,OE" 	k="27" />
<hkern g1="L" 	g2="a,c,d,e,g,o,q,ae,ccedilla,eth,oslash,oe" 	k="11" />
<hkern g1="L" 	g2="t" 	k="37" />
<hkern g1="L" 	g2="u" 	k="7" />
<hkern g1="L" 	g2="U,Ugrave,Uacute,Ucircumflex,Udieresis" 	k="24" />
<hkern g1="L" 	g2="asterisk" 	k="167" />
<hkern g1="P" 	g2="V" 	k="7" />
<hkern g1="P" 	g2="W" 	k="7" />
<hkern g1="P" 	g2="Y,Yacute,Ydieresis" 	k="20" />
<hkern g1="P" 	g2="hyphen,periodcentered,endash,emdash" 	k="27" />
<hkern g1="P" 	g2="A,Agrave,Aacute,Acircumflex,Atilde,Adieresis,Aring,AE" 	k="74" />
<hkern g1="P" 	g2="J" 	k="120" />
<hkern g1="P" 	g2="X" 	k="20" />
<hkern g1="P" 	g2="ampersand" 	k="33" />
<hkern g1="P" 	g2="comma,period,quotesinglbase,quotedblbase,ellipsis" 	k="87" />
<hkern g1="P" 	g2="a,c,d,e,g,o,q,ae,ccedilla,eth,oslash,oe" 	k="17" />
<hkern g1="R" 	g2="T" 	k="10" />
<hkern g1="R" 	g2="V" 	k="10" />
<hkern g1="R" 	g2="Y,Yacute,Ydieresis" 	k="24" />
<hkern g1="R" 	g2="quotedbl,quotesingle,registered,quoteleft,quoteright,quotedblleft,quotedblright,trademark" 	k="7" />
<hkern g1="R" 	g2="ampersand" 	k="7" />
<hkern g1="R" 	g2="a,c,d,e,g,o,q,ae,ccedilla,eth,oslash,oe" 	k="30" />
<hkern g1="R" 	g2="s" 	k="13" />
<hkern g1="S" 	g2="v" 	k="13" />
<hkern g1="S" 	g2="w" 	k="7" />
<hkern g1="S" 	g2="y,yacute,ydieresis" 	k="13" />
<hkern g1="S" 	g2="T" 	k="23" />
<hkern g1="S" 	g2="V" 	k="13" />
<hkern g1="S" 	g2="W" 	k="10" />
<hkern g1="S" 	g2="Y,Yacute,Ydieresis" 	k="35" />
<hkern g1="S" 	g2="A,Agrave,Aacute,Acircumflex,Atilde,Adieresis,Aring,AE" 	k="4" />
<hkern g1="S" 	g2="t" 	k="14" />
<hkern g1="S" 	g2="x" 	k="17" />
<hkern g1="T" 	g2="C,G,O,Q,Ccedilla,Ograve,Oacute,Ocircumflex,Otilde,Odieresis,Oslash,OE" 	k="10" />
<hkern g1="T" 	g2="A,Agrave,Aacute,Acircumflex,Atilde,Adieresis,Aring,AE" 	k="54" />
<hkern g1="T" 	g2="J" 	k="87" />
<hkern g1="T" 	g2="ampersand" 	k="40" />
<hkern g1="T" 	g2="comma,period,quotesinglbase,quotedblbase,ellipsis" 	k="97" />
<hkern g1="T" 	g2="a,c,d,e,g,o,q,ae,ccedilla,eth,oslash,oe" 	k="98" />
<hkern g1="T" 	g2="S" 	k="-4" />
<hkern g1="T" 	g2="colon,semicolon" 	k="50" />
<hkern g1="J,U,Ugrave,Uacute,Ucircumflex,Udieresis" 	g2="A,Agrave,Aacute,Acircumflex,Atilde,Adieresis,Aring,AE" 	k="23" />
<hkern g1="J,U,Ugrave,Uacute,Ucircumflex,Udieresis" 	g2="comma,period,quotesinglbase,quotedblbase,ellipsis" 	k="30" />
<hkern g1="J,U,Ugrave,Uacute,Ucircumflex,Udieresis" 	g2="J" 	k="26" />
<hkern g1="V" 	g2="f,uniFB01,uniFB02,uniFB03,uniFB04" 	k="27" />
<hkern g1="V" 	g2="m,n,p,r,z" 	k="56" />
<hkern g1="V" 	g2="s" 	k="50" />
<hkern g1="V" 	g2="v" 	k="17" />
<hkern g1="V" 	g2="w" 	k="13" />
<hkern g1="V" 	g2="x" 	k="27" />
<hkern g1="V" 	g2="y,yacute,ydieresis" 	k="13" />
<hkern g1="V" 	g2="hyphen,periodcentered,endash,emdash" 	k="57" />
<hkern g1="V" 	g2="u" 	k="56" />
<hkern g1="V" 	g2="A,Agrave,Aacute,Acircumflex,Atilde,Adieresis,Aring,AE" 	k="37" />
<hkern g1="V" 	g2="comma,period,quotesinglbase,quotedblbase,ellipsis" 	k="90" />
<hkern g1="V" 	g2="ampersand" 	k="26" />
<hkern g1="V" 	g2="J" 	k="97" />
<hkern g1="V" 	g2="C,G,O,Q,Ccedilla,Ograve,Oacute,Ocircumflex,Otilde,Odieresis,Oslash,OE" 	k="4" />
<hkern g1="V" 	g2="a,c,d,e,g,o,q,ae,ccedilla,eth,oslash,oe" 	k="60" />
<hkern g1="V" 	g2="t" 	k="17" />
<hkern g1="V" 	g2="S" 	k="-13" />
<hkern g1="W" 	g2="f,uniFB01,uniFB02,uniFB03,uniFB04" 	k="17" />
<hkern g1="W" 	g2="m,n,p,r,z" 	k="30" />
<hkern g1="W" 	g2="s" 	k="30" />
<hkern g1="W" 	g2="A,Agrave,Aacute,Acircumflex,Atilde,Adieresis,Aring,AE" 	k="37" />
<hkern g1="W" 	g2="comma,period,quotesinglbase,quotedblbase,ellipsis" 	k="64" />
<hkern g1="W" 	g2="ampersand" 	k="10" />
<hkern g1="W" 	g2="J" 	k="59" />
<hkern g1="W" 	g2="C,G,O,Q,Ccedilla,Ograve,Oacute,Ocircumflex,Otilde,Odieresis,Oslash,OE" 	k="7" />
<hkern g1="W" 	g2="a,c,d,e,g,o,q,ae,ccedilla,eth,oslash,oe" 	k="40" />
<hkern g1="W" 	g2="t" 	k="17" />
<hkern g1="Y,Yacute,Ydieresis" 	g2="u" 	k="90" />
<hkern g1="Y,Yacute,Ydieresis" 	g2="x" 	k="77" />
<hkern g1="Y,Yacute,Ydieresis" 	g2="v" 	k="60" />
<hkern g1="Y,Yacute,Ydieresis" 	g2="y,yacute,ydieresis" 	k="60" />
<hkern g1="Y,Yacute,Ydieresis" 	g2="hyphen,periodcentered,endash,emdash" 	k="123" />
<hkern g1="Y,Yacute,Ydieresis" 	g2="S" 	k="8" />
<hkern g1="Y,Yacute,Ydieresis" 	g2="A,Agrave,Aacute,Acircumflex,Atilde,Adieresis,Aring,AE" 	k="57" />
<hkern g1="Y,Yacute,Ydieresis" 	g2="comma,period,quotesinglbase,quotedblbase,ellipsis" 	k="90" />
<hkern g1="Y,Yacute,Ydieresis" 	g2="ampersand" 	k="43" />
<hkern g1="Y,Yacute,Ydieresis" 	g2="J" 	k="117" />
<hkern g1="Y,Yacute,Ydieresis" 	g2="C,G,O,Q,Ccedilla,Ograve,Oacute,Ocircumflex,Otilde,Odieresis,Oslash,OE" 	k="17" />
<hkern g1="Y,Yacute,Ydieresis" 	g2="colon,semicolon" 	k="70" />
<hkern g1="Y,Yacute,Ydieresis" 	g2="a,c,d,e,g,o,q,ae,ccedilla,eth,oslash,oe" 	k="124" />
<hkern g1="Y,Yacute,Ydieresis" 	g2="f,uniFB01,uniFB02,uniFB03,uniFB04" 	k="60" />
<hkern g1="Y,Yacute,Ydieresis" 	g2="m,n,p,r,z" 	k="90" />
<hkern g1="Y,Yacute,Ydieresis" 	g2="s" 	k="100" />
<hkern g1="Y,Yacute,Ydieresis" 	g2="t" 	k="33" />
<hkern g1="Y,Yacute,Ydieresis" 	g2="w" 	k="60" />
<hkern g1="Z" 	g2="C,G,O,Q,Ccedilla,Ograve,Oacute,Ocircumflex,Otilde,Odieresis,Oslash,OE" 	k="14" />
<hkern g1="ampersand" 	g2="y,yacute,ydieresis" 	k="20" />
<hkern g1="ampersand" 	g2="T" 	k="81" />
<hkern g1="ampersand" 	g2="Y,Yacute,Ydieresis" 	k="97" />
<hkern g1="ampersand" 	g2="V" 	k="64" />
<hkern g1="ampersand" 	g2="W" 	k="44" />
<hkern g1="ampersand" 	g2="quotedbl,quotesingle,registered,quoteleft,quoteright,quotedblleft,quotedblright,trademark" 	k="11" />
<hkern g1="asterisk" 	g2="A,Agrave,Aacute,Acircumflex,Atilde,Adieresis,Aring,AE" 	k="91" />
<hkern g1="asterisk" 	g2="J" 	k="123" />
<hkern g1="b,o,p,oslash,thorn" 	g2="comma,period,quotesinglbase,quotedblbase,ellipsis" 	k="4" />
<hkern g1="b,o,p,oslash,thorn" 	g2="Y,Yacute,Ydieresis" 	k="117" />
<hkern g1="b,o,p,oslash,thorn" 	g2="quotedbl,quotesingle,registered,quoteleft,quoteright,quotedblleft,quotedblright,trademark" 	k="10" />
<hkern g1="b,o,p,oslash,thorn" 	g2="question" 	k="53" />
<hkern g1="c,cent,ccedilla" 	g2="T" 	k="71" />
<hkern g1="c,cent,ccedilla" 	g2="V" 	k="43" />
<hkern g1="c,cent,ccedilla" 	g2="W" 	k="27" />
<hkern g1="c,cent,ccedilla" 	g2="Y,Yacute,Ydieresis" 	k="67" />
<hkern g1="c,cent,ccedilla" 	g2="question" 	k="27" />
<hkern g1="c,cent,ccedilla" 	g2="quotedbl,quotesingle,registered,quoteleft,quoteright,quotedblleft,quotedblright,trademark" 	k="7" />
<hkern g1="colon,semicolon" 	g2="T" 	k="50" />
<hkern g1="colon,semicolon" 	g2="Y,Yacute,Ydieresis" 	k="70" />
<hkern g1="e,ae,oe" 	g2="T" 	k="91" />
<hkern g1="e,ae,oe" 	g2="V" 	k="57" />
<hkern g1="e,ae,oe" 	g2="W" 	k="40" />
<hkern g1="e,ae,oe" 	g2="Y,Yacute,Ydieresis" 	k="110" />
<hkern g1="e,ae,oe" 	g2="question" 	k="43" />
<hkern g1="e,ae,oe" 	g2="quotedbl,quotesingle,registered,quoteleft,quoteright,quotedblleft,quotedblright,trademark" 	k="7" />
<hkern g1="e,ae,oe" 	g2="asterisk" 	k="14" />
<hkern g1="e,ae,oe" 	g2="comma,period,quotesinglbase,quotedblbase,ellipsis" 	k="4" />
<hkern g1="eth" 	g2="comma,period,quotesinglbase,quotedblbase,ellipsis" 	k="4" />
<hkern g1="f" 	g2="T" 	k="-40" />
<hkern g1="f" 	g2="V" 	k="-67" />
<hkern g1="f" 	g2="W" 	k="-67" />
<hkern g1="f" 	g2="X" 	k="-40" />
<hkern g1="f" 	g2="Y,Yacute,Ydieresis" 	k="-63" />
<hkern g1="f" 	g2="Z" 	k="-40" />
<hkern g1="f" 	g2="question" 	k="-54" />
<hkern g1="f" 	g2="quotedbl,quotesingle,registered,quoteleft,quoteright,quotedblleft,quotedblright,trademark" 	k="-64" />
<hkern g1="f" 	g2="asterisk" 	k="-64" />
<hkern g1="f" 	g2="comma,period,quotesinglbase,quotedblbase,ellipsis" 	k="47" />
<hkern g1="f" 	g2="ampersand" 	k="7" />
<hkern g1="f" 	g2="parenright,bracketright,braceright" 	k="-67" />
<hkern g1="f" 	g2="exclam,B,D,E,F,H,I,K,L,M,N,P,R,Egrave,Eacute,Ecircumflex,Edieresis,Igrave,Iacute,Icircumflex,Idieresis,Eth,Ntilde" 	k="-40" />
<hkern g1="f" 	g2="S" 	k="-27" />
<hkern g1="f" 	g2="U,Ugrave,Uacute,Ucircumflex,Udieresis" 	k="-40" />
<hkern g1="g,q" 	g2="T" 	k="68" />
<hkern g1="g,q" 	g2="V" 	k="56" />
<hkern g1="g,q" 	g2="W" 	k="30" />
<hkern g1="g,q" 	g2="Y,Yacute,Ydieresis" 	k="90" />
<hkern g1="g,q" 	g2="question" 	k="27" />
<hkern g1="g,q" 	g2="j" 	k="-53" />
<hkern g1="hyphen,periodcentered,endash,emdash" 	g2="V" 	k="57" />
<hkern g1="hyphen,periodcentered,endash,emdash" 	g2="W" 	k="37" />
<hkern g1="hyphen,periodcentered,endash,emdash" 	g2="X" 	k="47" />
<hkern g1="hyphen,periodcentered,endash,emdash" 	g2="Y,Yacute,Ydieresis" 	k="120" />
<hkern g1="k" 	g2="T" 	k="45" />
<hkern g1="k" 	g2="V" 	k="27" />
<hkern g1="k" 	g2="W" 	k="27" />
<hkern g1="k" 	g2="Y,Yacute,Ydieresis" 	k="73" />
<hkern g1="k" 	g2="a,c,d,e,g,o,q,ae,ccedilla,eth,oslash,oe" 	k="7" />
<hkern g1="k" 	g2="bullet" 	k="24" />
<hkern g1="k" 	g2="hyphen,periodcentered,endash,emdash" 	k="24" />
<hkern g1="comma,period,quotesinglbase,quotedblbase,ellipsis" 	g2="T" 	k="97" />
<hkern g1="comma,period,quotesinglbase,quotedblbase,ellipsis" 	g2="V" 	k="84" />
<hkern g1="comma,period,quotesinglbase,quotedblbase,ellipsis" 	g2="W" 	k="64" />
<hkern g1="comma,period,quotesinglbase,quotedblbase,ellipsis" 	g2="Y,Yacute,Ydieresis" 	k="90" />
<hkern g1="comma,period,quotesinglbase,quotedblbase,ellipsis" 	g2="quotedbl,quotesingle,registered,quoteleft,quoteright,quotedblleft,quotedblright,trademark" 	k="83" />
<hkern g1="comma,period,quotesinglbase,quotedblbase,ellipsis" 	g2="U,Ugrave,Uacute,Ucircumflex,Udieresis" 	k="30" />
<hkern g1="comma,period,quotesinglbase,quotedblbase,ellipsis" 	g2="j" 	k="-40" />
<hkern g1="comma,period,quotesinglbase,quotedblbase,ellipsis" 	g2="a,c,d,e,g,o,q,ae,ccedilla,eth,oslash,oe" 	k="4" />
<hkern g1="comma,period,quotesinglbase,quotedblbase,ellipsis" 	g2="f,uniFB01,uniFB02,uniFB03,uniFB04" 	k="27" />
<hkern g1="comma,period,quotesinglbase,quotedblbase,ellipsis" 	g2="t" 	k="27" />
<hkern g1="comma,period,quotesinglbase,quotedblbase,ellipsis" 	g2="v" 	k="64" />
<hkern g1="comma,period,quotesinglbase,quotedblbase,ellipsis" 	g2="w" 	k="37" />
<hkern g1="comma,period,quotesinglbase,quotedblbase,ellipsis" 	g2="y,yacute,ydieresis" 	k="54" />
<hkern g1="comma,period,quotesinglbase,quotedblbase,ellipsis" 	g2="one" 	k="99" />
<hkern g1="comma,period,quotesinglbase,quotedblbase,ellipsis" 	g2="zero,six" 	k="21" />
<hkern g1="comma,period,quotesinglbase,quotedblbase,ellipsis" 	g2="seven" 	k="73" />
<hkern g1="questiondown" 	g2="j" 	k="-160" />
<hkern g1="quotedbl,quotesingle,quoteleft,quoteright,quotedblleft,quotedblright" 	g2="A,Agrave,Aacute,Acircumflex,Atilde,Adieresis,Aring,AE" 	k="97" />
<hkern g1="quotedbl,quotesingle,quoteleft,quoteright,quotedblleft,quotedblright" 	g2="C,G,O,Q,Ccedilla,Ograve,Oacute,Ocircumflex,Otilde,Odieresis,Oslash,OE" 	k="7" />
<hkern g1="quotedbl,quotesingle,quoteleft,quoteright,quotedblleft,quotedblright" 	g2="s" 	k="30" />
<hkern g1="quotedbl,quotesingle,quoteleft,quoteright,quotedblleft,quotedblright" 	g2="J" 	k="106" />
<hkern g1="quotedbl,quotesingle,quoteleft,quoteright,quotedblleft,quotedblright" 	g2="comma,period,quotesinglbase,quotedblbase,ellipsis" 	k="83" />
<hkern g1="quotedbl,quotesingle,quoteleft,quoteright,quotedblleft,quotedblright" 	g2="ampersand" 	k="-4" />
<hkern g1="r" 	g2="V" 	k="27" />
<hkern g1="r" 	g2="W" 	k="13" />
<hkern g1="r" 	g2="Y,Yacute,Ydieresis" 	k="50" />
<hkern g1="r" 	g2="comma,period,quotesinglbase,quotedblbase,ellipsis" 	k="87" />
<hkern g1="r" 	g2="T" 	k="34" />
<hkern g1="r" 	g2="X" 	k="20" />
<hkern g1="s" 	g2="V" 	k="47" />
<hkern g1="s" 	g2="W" 	k="50" />
<hkern g1="s" 	g2="Y,Yacute,Ydieresis" 	k="97" />
<hkern g1="s" 	g2="T" 	k="74" />
<hkern g1="s" 	g2="X" 	k="7" />
<hkern g1="s" 	g2="question" 	k="47" />
<hkern g1="s" 	g2="quotedbl,quotesingle,registered,quoteleft,quoteright,quotedblleft,quotedblright,trademark" 	k="20" />
<hkern g1="t" 	g2="V" 	k="33" />
<hkern g1="t" 	g2="W" 	k="17" />
<hkern g1="t" 	g2="Y,Yacute,Ydieresis" 	k="37" />
<hkern g1="t" 	g2="T" 	k="31" />
<hkern g1="a,u,z" 	g2="V" 	k="56" />
<hkern g1="a,u,z" 	g2="W" 	k="30" />
<hkern g1="a,u,z" 	g2="Y,Yacute,Ydieresis" 	k="90" />
<hkern g1="a,u,z" 	g2="T" 	k="68" />
<hkern g1="a,u,z" 	g2="question" 	k="27" />
<hkern g1="v" 	g2="V" 	k="17" />
<hkern g1="v" 	g2="W" 	k="7" />
<hkern g1="v" 	g2="Y,Yacute,Ydieresis" 	k="60" />
<hkern g1="v" 	g2="A,Agrave,Aacute,Acircumflex,Atilde,Adieresis,Aring,AE" 	k="20" />
<hkern g1="v" 	g2="comma,period,quotesinglbase,quotedblbase,ellipsis" 	k="64" />
<hkern g1="v" 	g2="T" 	k="28" />
<hkern g1="v" 	g2="X" 	k="34" />
<hkern g1="w" 	g2="V" 	k="13" />
<hkern g1="w" 	g2="Y,Yacute,Ydieresis" 	k="60" />
<hkern g1="w" 	g2="A,Agrave,Aacute,Acircumflex,Atilde,Adieresis,Aring,AE" 	k="14" />
<hkern g1="w" 	g2="comma,period,quotesinglbase,quotedblbase,ellipsis" 	k="37" />
<hkern g1="w" 	g2="T" 	k="28" />
<hkern g1="w" 	g2="X" 	k="37" />
<hkern g1="y,yacute,ydieresis" 	g2="V" 	k="13" />
<hkern g1="y,yacute,ydieresis" 	g2="W" 	k="7" />
<hkern g1="y,yacute,ydieresis" 	g2="Y,Yacute,Ydieresis" 	k="60" />
<hkern g1="y,yacute,ydieresis" 	g2="A,Agrave,Aacute,Acircumflex,Atilde,Adieresis,Aring,AE" 	k="20" />
<hkern g1="y,yacute,ydieresis" 	g2="comma,period,quotesinglbase,quotedblbase,ellipsis" 	k="54" />
<hkern g1="y,yacute,ydieresis" 	g2="T" 	k="28" />
<hkern g1="y,yacute,ydieresis" 	g2="X" 	k="34" />
<hkern g1="y,yacute,ydieresis" 	g2="question" 	k="7" />
<hkern g1="X" 	g2="C,G,O,Q,Ccedilla,Ograve,Oacute,Ocircumflex,Otilde,Odieresis,Oslash,OE" 	k="30" />
<hkern g1="X" 	g2="y,yacute,ydieresis" 	k="34" />
<hkern g1="X" 	g2="w" 	k="37" />
<hkern g1="X" 	g2="v" 	k="34" />
<hkern g1="X" 	g2="f,uniFB01,uniFB02,uniFB03,uniFB04" 	k="30" />
<hkern g1="X" 	g2="t" 	k="30" />
<hkern g1="X" 	g2="hyphen,periodcentered,endash,emdash" 	k="47" />
<hkern g1="zero,nine" 	g2="comma,period,quotesinglbase,quotedblbase,ellipsis" 	k="21" />
<hkern g1="seven" 	g2="comma,period,quotesinglbase,quotedblbase,ellipsis" 	k="94" />
<hkern g1="x" 	g2="V" 	k="27" />
<hkern g1="x" 	g2="W" 	k="27" />
<hkern g1="x" 	g2="Y,Yacute,Ydieresis" 	k="77" />
<hkern g1="x" 	g2="T" 	k="38" />
<hkern g1="x" 	g2="a,c,d,e,g,o,q,ae,ccedilla,eth,oslash,oe" 	k="34" />
<hkern g1="parenleft,bracketleft,braceleft" 	g2="j" 	k="-110" />
</font>
</defs></svg> 